%TF.GenerationSoftware,KiCad,Pcbnew,7.0.2-6a45011f42~172~ubuntu20.04.1*%
%TF.CreationDate,2023-06-09T00:44:47+02:00*%
%TF.ProjectId,devboard,64657662-6f61-4726-942e-6b696361645f,rev?*%
%TF.SameCoordinates,Original*%
%TF.FileFunction,Legend,Top*%
%TF.FilePolarity,Positive*%
%FSLAX46Y46*%
G04 Gerber Fmt 4.6, Leading zero omitted, Abs format (unit mm)*
G04 Created by KiCad (PCBNEW 7.0.2-6a45011f42~172~ubuntu20.04.1) date 2023-06-09 00:44:47*
%MOMM*%
%LPD*%
G01*
G04 APERTURE LIST*
%ADD10C,0.300000*%
%ADD11C,0.150000*%
%ADD12C,0.120000*%
%ADD13C,0.250000*%
%ADD14C,0.200000*%
%ADD15C,0.500000*%
%ADD16C,0.127000*%
G04 APERTURE END LIST*
D10*
X131714286Y-65193928D02*
X132214286Y-66693928D01*
X132214286Y-66693928D02*
X132714286Y-65193928D01*
X133500000Y-65193928D02*
X133642857Y-65193928D01*
X133642857Y-65193928D02*
X133785714Y-65265357D01*
X133785714Y-65265357D02*
X133857143Y-65336785D01*
X133857143Y-65336785D02*
X133928571Y-65479642D01*
X133928571Y-65479642D02*
X134000000Y-65765357D01*
X134000000Y-65765357D02*
X134000000Y-66122500D01*
X134000000Y-66122500D02*
X133928571Y-66408214D01*
X133928571Y-66408214D02*
X133857143Y-66551071D01*
X133857143Y-66551071D02*
X133785714Y-66622500D01*
X133785714Y-66622500D02*
X133642857Y-66693928D01*
X133642857Y-66693928D02*
X133500000Y-66693928D01*
X133500000Y-66693928D02*
X133357143Y-66622500D01*
X133357143Y-66622500D02*
X133285714Y-66551071D01*
X133285714Y-66551071D02*
X133214285Y-66408214D01*
X133214285Y-66408214D02*
X133142857Y-66122500D01*
X133142857Y-66122500D02*
X133142857Y-65765357D01*
X133142857Y-65765357D02*
X133214285Y-65479642D01*
X133214285Y-65479642D02*
X133285714Y-65336785D01*
X133285714Y-65336785D02*
X133357143Y-65265357D01*
X133357143Y-65265357D02*
X133500000Y-65193928D01*
X134642856Y-66551071D02*
X134714285Y-66622500D01*
X134714285Y-66622500D02*
X134642856Y-66693928D01*
X134642856Y-66693928D02*
X134571428Y-66622500D01*
X134571428Y-66622500D02*
X134642856Y-66551071D01*
X134642856Y-66551071D02*
X134642856Y-66693928D01*
X135285714Y-65336785D02*
X135357142Y-65265357D01*
X135357142Y-65265357D02*
X135500000Y-65193928D01*
X135500000Y-65193928D02*
X135857142Y-65193928D01*
X135857142Y-65193928D02*
X136000000Y-65265357D01*
X136000000Y-65265357D02*
X136071428Y-65336785D01*
X136071428Y-65336785D02*
X136142857Y-65479642D01*
X136142857Y-65479642D02*
X136142857Y-65622500D01*
X136142857Y-65622500D02*
X136071428Y-65836785D01*
X136071428Y-65836785D02*
X135214285Y-66693928D01*
X135214285Y-66693928D02*
X136142857Y-66693928D01*
X127607142Y-67908214D02*
X128107142Y-67908214D01*
X128321428Y-68693928D02*
X127607142Y-68693928D01*
X127607142Y-68693928D02*
X127607142Y-67193928D01*
X127607142Y-67193928D02*
X128321428Y-67193928D01*
X128892857Y-68622500D02*
X129035714Y-68693928D01*
X129035714Y-68693928D02*
X129321428Y-68693928D01*
X129321428Y-68693928D02*
X129464285Y-68622500D01*
X129464285Y-68622500D02*
X129535714Y-68479642D01*
X129535714Y-68479642D02*
X129535714Y-68408214D01*
X129535714Y-68408214D02*
X129464285Y-68265357D01*
X129464285Y-68265357D02*
X129321428Y-68193928D01*
X129321428Y-68193928D02*
X129107143Y-68193928D01*
X129107143Y-68193928D02*
X128964285Y-68122500D01*
X128964285Y-68122500D02*
X128892857Y-67979642D01*
X128892857Y-67979642D02*
X128892857Y-67908214D01*
X128892857Y-67908214D02*
X128964285Y-67765357D01*
X128964285Y-67765357D02*
X129107143Y-67693928D01*
X129107143Y-67693928D02*
X129321428Y-67693928D01*
X129321428Y-67693928D02*
X129464285Y-67765357D01*
X130821429Y-68622500D02*
X130678571Y-68693928D01*
X130678571Y-68693928D02*
X130392857Y-68693928D01*
X130392857Y-68693928D02*
X130250000Y-68622500D01*
X130250000Y-68622500D02*
X130178571Y-68551071D01*
X130178571Y-68551071D02*
X130107143Y-68408214D01*
X130107143Y-68408214D02*
X130107143Y-67979642D01*
X130107143Y-67979642D02*
X130178571Y-67836785D01*
X130178571Y-67836785D02*
X130250000Y-67765357D01*
X130250000Y-67765357D02*
X130392857Y-67693928D01*
X130392857Y-67693928D02*
X130678571Y-67693928D01*
X130678571Y-67693928D02*
X130821429Y-67765357D01*
X132107143Y-68693928D02*
X132107143Y-67908214D01*
X132107143Y-67908214D02*
X132035714Y-67765357D01*
X132035714Y-67765357D02*
X131892857Y-67693928D01*
X131892857Y-67693928D02*
X131607143Y-67693928D01*
X131607143Y-67693928D02*
X131464285Y-67765357D01*
X132107143Y-68622500D02*
X131964285Y-68693928D01*
X131964285Y-68693928D02*
X131607143Y-68693928D01*
X131607143Y-68693928D02*
X131464285Y-68622500D01*
X131464285Y-68622500D02*
X131392857Y-68479642D01*
X131392857Y-68479642D02*
X131392857Y-68336785D01*
X131392857Y-68336785D02*
X131464285Y-68193928D01*
X131464285Y-68193928D02*
X131607143Y-68122500D01*
X131607143Y-68122500D02*
X131964285Y-68122500D01*
X131964285Y-68122500D02*
X132107143Y-68051071D01*
X132821428Y-67693928D02*
X132821428Y-69193928D01*
X132821428Y-67765357D02*
X132964286Y-67693928D01*
X132964286Y-67693928D02*
X133250000Y-67693928D01*
X133250000Y-67693928D02*
X133392857Y-67765357D01*
X133392857Y-67765357D02*
X133464286Y-67836785D01*
X133464286Y-67836785D02*
X133535714Y-67979642D01*
X133535714Y-67979642D02*
X133535714Y-68408214D01*
X133535714Y-68408214D02*
X133464286Y-68551071D01*
X133464286Y-68551071D02*
X133392857Y-68622500D01*
X133392857Y-68622500D02*
X133250000Y-68693928D01*
X133250000Y-68693928D02*
X132964286Y-68693928D01*
X132964286Y-68693928D02*
X132821428Y-68622500D01*
X134750000Y-68622500D02*
X134607143Y-68693928D01*
X134607143Y-68693928D02*
X134321429Y-68693928D01*
X134321429Y-68693928D02*
X134178571Y-68622500D01*
X134178571Y-68622500D02*
X134107143Y-68479642D01*
X134107143Y-68479642D02*
X134107143Y-67908214D01*
X134107143Y-67908214D02*
X134178571Y-67765357D01*
X134178571Y-67765357D02*
X134321429Y-67693928D01*
X134321429Y-67693928D02*
X134607143Y-67693928D01*
X134607143Y-67693928D02*
X134750000Y-67765357D01*
X134750000Y-67765357D02*
X134821429Y-67908214D01*
X134821429Y-67908214D02*
X134821429Y-68051071D01*
X134821429Y-68051071D02*
X134107143Y-68193928D01*
X135464285Y-68693928D02*
X135464285Y-67693928D01*
X135464285Y-67979642D02*
X135535714Y-67836785D01*
X135535714Y-67836785D02*
X135607143Y-67765357D01*
X135607143Y-67765357D02*
X135750000Y-67693928D01*
X135750000Y-67693928D02*
X135892857Y-67693928D01*
X136607142Y-68693928D02*
X136464285Y-68622500D01*
X136464285Y-68622500D02*
X136392856Y-68551071D01*
X136392856Y-68551071D02*
X136321428Y-68408214D01*
X136321428Y-68408214D02*
X136321428Y-67979642D01*
X136321428Y-67979642D02*
X136392856Y-67836785D01*
X136392856Y-67836785D02*
X136464285Y-67765357D01*
X136464285Y-67765357D02*
X136607142Y-67693928D01*
X136607142Y-67693928D02*
X136821428Y-67693928D01*
X136821428Y-67693928D02*
X136964285Y-67765357D01*
X136964285Y-67765357D02*
X137035714Y-67836785D01*
X137035714Y-67836785D02*
X137107142Y-67979642D01*
X137107142Y-67979642D02*
X137107142Y-68408214D01*
X137107142Y-68408214D02*
X137035714Y-68551071D01*
X137035714Y-68551071D02*
X136964285Y-68622500D01*
X136964285Y-68622500D02*
X136821428Y-68693928D01*
X136821428Y-68693928D02*
X136607142Y-68693928D01*
X137964285Y-68693928D02*
X137821428Y-68622500D01*
X137821428Y-68622500D02*
X137749999Y-68551071D01*
X137749999Y-68551071D02*
X137678571Y-68408214D01*
X137678571Y-68408214D02*
X137678571Y-67979642D01*
X137678571Y-67979642D02*
X137749999Y-67836785D01*
X137749999Y-67836785D02*
X137821428Y-67765357D01*
X137821428Y-67765357D02*
X137964285Y-67693928D01*
X137964285Y-67693928D02*
X138178571Y-67693928D01*
X138178571Y-67693928D02*
X138321428Y-67765357D01*
X138321428Y-67765357D02*
X138392857Y-67836785D01*
X138392857Y-67836785D02*
X138464285Y-67979642D01*
X138464285Y-67979642D02*
X138464285Y-68408214D01*
X138464285Y-68408214D02*
X138392857Y-68551071D01*
X138392857Y-68551071D02*
X138321428Y-68622500D01*
X138321428Y-68622500D02*
X138178571Y-68693928D01*
X138178571Y-68693928D02*
X137964285Y-68693928D01*
X139107142Y-68693928D02*
X139107142Y-67693928D01*
X139107142Y-67836785D02*
X139178571Y-67765357D01*
X139178571Y-67765357D02*
X139321428Y-67693928D01*
X139321428Y-67693928D02*
X139535714Y-67693928D01*
X139535714Y-67693928D02*
X139678571Y-67765357D01*
X139678571Y-67765357D02*
X139750000Y-67908214D01*
X139750000Y-67908214D02*
X139750000Y-68693928D01*
X139750000Y-67908214D02*
X139821428Y-67765357D01*
X139821428Y-67765357D02*
X139964285Y-67693928D01*
X139964285Y-67693928D02*
X140178571Y-67693928D01*
X140178571Y-67693928D02*
X140321428Y-67765357D01*
X140321428Y-67765357D02*
X140392857Y-67908214D01*
X140392857Y-67908214D02*
X140392857Y-68693928D01*
D11*
%TO.C,BB1*%
X141338785Y-112985366D02*
X141957832Y-112985366D01*
X141957832Y-112985366D02*
X141624499Y-113366318D01*
X141624499Y-113366318D02*
X141767356Y-113366318D01*
X141767356Y-113366318D02*
X141862594Y-113413937D01*
X141862594Y-113413937D02*
X141910213Y-113461556D01*
X141910213Y-113461556D02*
X141957832Y-113556794D01*
X141957832Y-113556794D02*
X141957832Y-113794889D01*
X141957832Y-113794889D02*
X141910213Y-113890127D01*
X141910213Y-113890127D02*
X141862594Y-113937747D01*
X141862594Y-113937747D02*
X141767356Y-113985366D01*
X141767356Y-113985366D02*
X141481642Y-113985366D01*
X141481642Y-113985366D02*
X141386404Y-113937747D01*
X141386404Y-113937747D02*
X141338785Y-113890127D01*
X142386404Y-113890127D02*
X142434023Y-113937747D01*
X142434023Y-113937747D02*
X142386404Y-113985366D01*
X142386404Y-113985366D02*
X142338785Y-113937747D01*
X142338785Y-113937747D02*
X142386404Y-113890127D01*
X142386404Y-113890127D02*
X142386404Y-113985366D01*
X142767356Y-112985366D02*
X143386403Y-112985366D01*
X143386403Y-112985366D02*
X143053070Y-113366318D01*
X143053070Y-113366318D02*
X143195927Y-113366318D01*
X143195927Y-113366318D02*
X143291165Y-113413937D01*
X143291165Y-113413937D02*
X143338784Y-113461556D01*
X143338784Y-113461556D02*
X143386403Y-113556794D01*
X143386403Y-113556794D02*
X143386403Y-113794889D01*
X143386403Y-113794889D02*
X143338784Y-113890127D01*
X143338784Y-113890127D02*
X143291165Y-113937747D01*
X143291165Y-113937747D02*
X143195927Y-113985366D01*
X143195927Y-113985366D02*
X142910213Y-113985366D01*
X142910213Y-113985366D02*
X142814975Y-113937747D01*
X142814975Y-113937747D02*
X142767356Y-113890127D01*
X143672118Y-112985366D02*
X144005451Y-113985366D01*
X144005451Y-113985366D02*
X144338784Y-112985366D01*
X142053070Y-115572985D02*
X141957832Y-115525366D01*
X141957832Y-115525366D02*
X141814975Y-115525366D01*
X141814975Y-115525366D02*
X141672118Y-115572985D01*
X141672118Y-115572985D02*
X141576880Y-115668223D01*
X141576880Y-115668223D02*
X141529261Y-115763461D01*
X141529261Y-115763461D02*
X141481642Y-115953937D01*
X141481642Y-115953937D02*
X141481642Y-116096794D01*
X141481642Y-116096794D02*
X141529261Y-116287270D01*
X141529261Y-116287270D02*
X141576880Y-116382508D01*
X141576880Y-116382508D02*
X141672118Y-116477747D01*
X141672118Y-116477747D02*
X141814975Y-116525366D01*
X141814975Y-116525366D02*
X141910213Y-116525366D01*
X141910213Y-116525366D02*
X142053070Y-116477747D01*
X142053070Y-116477747D02*
X142100689Y-116430127D01*
X142100689Y-116430127D02*
X142100689Y-116096794D01*
X142100689Y-116096794D02*
X141910213Y-116096794D01*
X142529261Y-116525366D02*
X142529261Y-115525366D01*
X142529261Y-115525366D02*
X143100689Y-116525366D01*
X143100689Y-116525366D02*
X143100689Y-115525366D01*
X143576880Y-116525366D02*
X143576880Y-115525366D01*
X143576880Y-115525366D02*
X143814975Y-115525366D01*
X143814975Y-115525366D02*
X143957832Y-115572985D01*
X143957832Y-115572985D02*
X144053070Y-115668223D01*
X144053070Y-115668223D02*
X144100689Y-115763461D01*
X144100689Y-115763461D02*
X144148308Y-115953937D01*
X144148308Y-115953937D02*
X144148308Y-116096794D01*
X144148308Y-116096794D02*
X144100689Y-116287270D01*
X144100689Y-116287270D02*
X144053070Y-116382508D01*
X144053070Y-116382508D02*
X143957832Y-116477747D01*
X143957832Y-116477747D02*
X143814975Y-116525366D01*
X143814975Y-116525366D02*
X143576880Y-116525366D01*
X141481642Y-107905366D02*
X141814975Y-108905366D01*
X141814975Y-108905366D02*
X142148308Y-107905366D01*
X143053070Y-108810127D02*
X143005451Y-108857747D01*
X143005451Y-108857747D02*
X142862594Y-108905366D01*
X142862594Y-108905366D02*
X142767356Y-108905366D01*
X142767356Y-108905366D02*
X142624499Y-108857747D01*
X142624499Y-108857747D02*
X142529261Y-108762508D01*
X142529261Y-108762508D02*
X142481642Y-108667270D01*
X142481642Y-108667270D02*
X142434023Y-108476794D01*
X142434023Y-108476794D02*
X142434023Y-108333937D01*
X142434023Y-108333937D02*
X142481642Y-108143461D01*
X142481642Y-108143461D02*
X142529261Y-108048223D01*
X142529261Y-108048223D02*
X142624499Y-107952985D01*
X142624499Y-107952985D02*
X142767356Y-107905366D01*
X142767356Y-107905366D02*
X142862594Y-107905366D01*
X142862594Y-107905366D02*
X143005451Y-107952985D01*
X143005451Y-107952985D02*
X143053070Y-108000604D01*
X144053070Y-108810127D02*
X144005451Y-108857747D01*
X144005451Y-108857747D02*
X143862594Y-108905366D01*
X143862594Y-108905366D02*
X143767356Y-108905366D01*
X143767356Y-108905366D02*
X143624499Y-108857747D01*
X143624499Y-108857747D02*
X143529261Y-108762508D01*
X143529261Y-108762508D02*
X143481642Y-108667270D01*
X143481642Y-108667270D02*
X143434023Y-108476794D01*
X143434023Y-108476794D02*
X143434023Y-108333937D01*
X143434023Y-108333937D02*
X143481642Y-108143461D01*
X143481642Y-108143461D02*
X143529261Y-108048223D01*
X143529261Y-108048223D02*
X143624499Y-107952985D01*
X143624499Y-107952985D02*
X143767356Y-107905366D01*
X143767356Y-107905366D02*
X143862594Y-107905366D01*
X143862594Y-107905366D02*
X144005451Y-107952985D01*
X144005451Y-107952985D02*
X144053070Y-108000604D01*
X142624498Y-110445366D02*
X142148308Y-110445366D01*
X142148308Y-110445366D02*
X142100689Y-110921556D01*
X142100689Y-110921556D02*
X142148308Y-110873937D01*
X142148308Y-110873937D02*
X142243546Y-110826318D01*
X142243546Y-110826318D02*
X142481641Y-110826318D01*
X142481641Y-110826318D02*
X142576879Y-110873937D01*
X142576879Y-110873937D02*
X142624498Y-110921556D01*
X142624498Y-110921556D02*
X142672117Y-111016794D01*
X142672117Y-111016794D02*
X142672117Y-111254889D01*
X142672117Y-111254889D02*
X142624498Y-111350127D01*
X142624498Y-111350127D02*
X142576879Y-111397747D01*
X142576879Y-111397747D02*
X142481641Y-111445366D01*
X142481641Y-111445366D02*
X142243546Y-111445366D01*
X142243546Y-111445366D02*
X142148308Y-111397747D01*
X142148308Y-111397747D02*
X142100689Y-111350127D01*
X142957832Y-110445366D02*
X143291165Y-111445366D01*
X143291165Y-111445366D02*
X143624498Y-110445366D01*
%TO.C,DAC1*%
X124123119Y-101116474D02*
X124027881Y-101068855D01*
X124027881Y-101068855D02*
X123885024Y-101068855D01*
X123885024Y-101068855D02*
X123742167Y-101116474D01*
X123742167Y-101116474D02*
X123646929Y-101211712D01*
X123646929Y-101211712D02*
X123599310Y-101306950D01*
X123599310Y-101306950D02*
X123551691Y-101497426D01*
X123551691Y-101497426D02*
X123551691Y-101640283D01*
X123551691Y-101640283D02*
X123599310Y-101830759D01*
X123599310Y-101830759D02*
X123646929Y-101925997D01*
X123646929Y-101925997D02*
X123742167Y-102021236D01*
X123742167Y-102021236D02*
X123885024Y-102068855D01*
X123885024Y-102068855D02*
X123980262Y-102068855D01*
X123980262Y-102068855D02*
X124123119Y-102021236D01*
X124123119Y-102021236D02*
X124170738Y-101973616D01*
X124170738Y-101973616D02*
X124170738Y-101640283D01*
X124170738Y-101640283D02*
X123980262Y-101640283D01*
X124599310Y-102068855D02*
X124599310Y-101068855D01*
X124599310Y-101068855D02*
X125170738Y-102068855D01*
X125170738Y-102068855D02*
X125170738Y-101068855D01*
X125646929Y-102068855D02*
X125646929Y-101068855D01*
X125646929Y-101068855D02*
X125885024Y-101068855D01*
X125885024Y-101068855D02*
X126027881Y-101116474D01*
X126027881Y-101116474D02*
X126123119Y-101211712D01*
X126123119Y-101211712D02*
X126170738Y-101306950D01*
X126170738Y-101306950D02*
X126218357Y-101497426D01*
X126218357Y-101497426D02*
X126218357Y-101640283D01*
X126218357Y-101640283D02*
X126170738Y-101830759D01*
X126170738Y-101830759D02*
X126123119Y-101925997D01*
X126123119Y-101925997D02*
X126027881Y-102021236D01*
X126027881Y-102021236D02*
X125885024Y-102068855D01*
X125885024Y-102068855D02*
X125646929Y-102068855D01*
X123861215Y-109688855D02*
X123861215Y-108688855D01*
X123861215Y-108688855D02*
X124099310Y-108688855D01*
X124099310Y-108688855D02*
X124242167Y-108736474D01*
X124242167Y-108736474D02*
X124337405Y-108831712D01*
X124337405Y-108831712D02*
X124385024Y-108926950D01*
X124385024Y-108926950D02*
X124432643Y-109117426D01*
X124432643Y-109117426D02*
X124432643Y-109260283D01*
X124432643Y-109260283D02*
X124385024Y-109450759D01*
X124385024Y-109450759D02*
X124337405Y-109545997D01*
X124337405Y-109545997D02*
X124242167Y-109641236D01*
X124242167Y-109641236D02*
X124099310Y-109688855D01*
X124099310Y-109688855D02*
X123861215Y-109688855D01*
X124861215Y-109688855D02*
X124861215Y-108688855D01*
X125337405Y-109688855D02*
X125337405Y-108688855D01*
X125337405Y-108688855D02*
X125908833Y-109688855D01*
X125908833Y-109688855D02*
X125908833Y-108688855D01*
X123861215Y-98528855D02*
X124194548Y-99528855D01*
X124194548Y-99528855D02*
X124527881Y-98528855D01*
X124861215Y-99528855D02*
X124861215Y-98862188D01*
X124861215Y-98528855D02*
X124813596Y-98576474D01*
X124813596Y-98576474D02*
X124861215Y-98624093D01*
X124861215Y-98624093D02*
X124908834Y-98576474D01*
X124908834Y-98576474D02*
X124861215Y-98528855D01*
X124861215Y-98528855D02*
X124861215Y-98624093D01*
X125337405Y-98862188D02*
X125337405Y-99528855D01*
X125337405Y-98957426D02*
X125385024Y-98909807D01*
X125385024Y-98909807D02*
X125480262Y-98862188D01*
X125480262Y-98862188D02*
X125623119Y-98862188D01*
X125623119Y-98862188D02*
X125718357Y-98909807D01*
X125718357Y-98909807D02*
X125765976Y-99005045D01*
X125765976Y-99005045D02*
X125765976Y-99528855D01*
X123956452Y-106196474D02*
X123861214Y-106148855D01*
X123861214Y-106148855D02*
X123718357Y-106148855D01*
X123718357Y-106148855D02*
X123575500Y-106196474D01*
X123575500Y-106196474D02*
X123480262Y-106291712D01*
X123480262Y-106291712D02*
X123432643Y-106386950D01*
X123432643Y-106386950D02*
X123385024Y-106577426D01*
X123385024Y-106577426D02*
X123385024Y-106720283D01*
X123385024Y-106720283D02*
X123432643Y-106910759D01*
X123432643Y-106910759D02*
X123480262Y-107005997D01*
X123480262Y-107005997D02*
X123575500Y-107101236D01*
X123575500Y-107101236D02*
X123718357Y-107148855D01*
X123718357Y-107148855D02*
X123813595Y-107148855D01*
X123813595Y-107148855D02*
X123956452Y-107101236D01*
X123956452Y-107101236D02*
X124004071Y-107053616D01*
X124004071Y-107053616D02*
X124004071Y-106720283D01*
X124004071Y-106720283D02*
X123813595Y-106720283D01*
X124385024Y-106863140D02*
X124861214Y-106863140D01*
X124289786Y-107148855D02*
X124623119Y-106148855D01*
X124623119Y-106148855D02*
X124956452Y-107148855D01*
X125289786Y-107148855D02*
X125289786Y-106148855D01*
X125765976Y-107148855D02*
X125765976Y-106148855D01*
X125765976Y-106148855D02*
X126337404Y-107148855D01*
X126337404Y-107148855D02*
X126337404Y-106148855D01*
X123551690Y-111705045D02*
X123694547Y-111752664D01*
X123694547Y-111752664D02*
X123742166Y-111800283D01*
X123742166Y-111800283D02*
X123789785Y-111895521D01*
X123789785Y-111895521D02*
X123789785Y-112038378D01*
X123789785Y-112038378D02*
X123742166Y-112133616D01*
X123742166Y-112133616D02*
X123694547Y-112181236D01*
X123694547Y-112181236D02*
X123599309Y-112228855D01*
X123599309Y-112228855D02*
X123218357Y-112228855D01*
X123218357Y-112228855D02*
X123218357Y-111228855D01*
X123218357Y-111228855D02*
X123551690Y-111228855D01*
X123551690Y-111228855D02*
X123646928Y-111276474D01*
X123646928Y-111276474D02*
X123694547Y-111324093D01*
X123694547Y-111324093D02*
X123742166Y-111419331D01*
X123742166Y-111419331D02*
X123742166Y-111514569D01*
X123742166Y-111514569D02*
X123694547Y-111609807D01*
X123694547Y-111609807D02*
X123646928Y-111657426D01*
X123646928Y-111657426D02*
X123551690Y-111705045D01*
X123551690Y-111705045D02*
X123218357Y-111705045D01*
X124789785Y-112133616D02*
X124742166Y-112181236D01*
X124742166Y-112181236D02*
X124599309Y-112228855D01*
X124599309Y-112228855D02*
X124504071Y-112228855D01*
X124504071Y-112228855D02*
X124361214Y-112181236D01*
X124361214Y-112181236D02*
X124265976Y-112085997D01*
X124265976Y-112085997D02*
X124218357Y-111990759D01*
X124218357Y-111990759D02*
X124170738Y-111800283D01*
X124170738Y-111800283D02*
X124170738Y-111657426D01*
X124170738Y-111657426D02*
X124218357Y-111466950D01*
X124218357Y-111466950D02*
X124265976Y-111371712D01*
X124265976Y-111371712D02*
X124361214Y-111276474D01*
X124361214Y-111276474D02*
X124504071Y-111228855D01*
X124504071Y-111228855D02*
X124599309Y-111228855D01*
X124599309Y-111228855D02*
X124742166Y-111276474D01*
X124742166Y-111276474D02*
X124789785Y-111324093D01*
X125694547Y-112228855D02*
X125218357Y-112228855D01*
X125218357Y-112228855D02*
X125218357Y-111228855D01*
X126027881Y-112228855D02*
X126027881Y-111228855D01*
X126599309Y-112228855D02*
X126170738Y-111657426D01*
X126599309Y-111228855D02*
X126027881Y-111800283D01*
X124194547Y-114768855D02*
X123718357Y-114768855D01*
X123718357Y-114768855D02*
X123718357Y-113768855D01*
X125099309Y-114768855D02*
X124765976Y-114292664D01*
X124527881Y-114768855D02*
X124527881Y-113768855D01*
X124527881Y-113768855D02*
X124908833Y-113768855D01*
X124908833Y-113768855D02*
X125004071Y-113816474D01*
X125004071Y-113816474D02*
X125051690Y-113864093D01*
X125051690Y-113864093D02*
X125099309Y-113959331D01*
X125099309Y-113959331D02*
X125099309Y-114102188D01*
X125099309Y-114102188D02*
X125051690Y-114197426D01*
X125051690Y-114197426D02*
X125004071Y-114245045D01*
X125004071Y-114245045D02*
X124908833Y-114292664D01*
X124908833Y-114292664D02*
X124527881Y-114292664D01*
X126099309Y-114673616D02*
X126051690Y-114721236D01*
X126051690Y-114721236D02*
X125908833Y-114768855D01*
X125908833Y-114768855D02*
X125813595Y-114768855D01*
X125813595Y-114768855D02*
X125670738Y-114721236D01*
X125670738Y-114721236D02*
X125575500Y-114625997D01*
X125575500Y-114625997D02*
X125527881Y-114530759D01*
X125527881Y-114530759D02*
X125480262Y-114340283D01*
X125480262Y-114340283D02*
X125480262Y-114197426D01*
X125480262Y-114197426D02*
X125527881Y-114006950D01*
X125527881Y-114006950D02*
X125575500Y-113911712D01*
X125575500Y-113911712D02*
X125670738Y-113816474D01*
X125670738Y-113816474D02*
X125813595Y-113768855D01*
X125813595Y-113768855D02*
X125908833Y-113768855D01*
X125908833Y-113768855D02*
X126051690Y-113816474D01*
X126051690Y-113816474D02*
X126099309Y-113864093D01*
X124099310Y-104561236D02*
X124242167Y-104608855D01*
X124242167Y-104608855D02*
X124480262Y-104608855D01*
X124480262Y-104608855D02*
X124575500Y-104561236D01*
X124575500Y-104561236D02*
X124623119Y-104513616D01*
X124623119Y-104513616D02*
X124670738Y-104418378D01*
X124670738Y-104418378D02*
X124670738Y-104323140D01*
X124670738Y-104323140D02*
X124623119Y-104227902D01*
X124623119Y-104227902D02*
X124575500Y-104180283D01*
X124575500Y-104180283D02*
X124480262Y-104132664D01*
X124480262Y-104132664D02*
X124289786Y-104085045D01*
X124289786Y-104085045D02*
X124194548Y-104037426D01*
X124194548Y-104037426D02*
X124146929Y-103989807D01*
X124146929Y-103989807D02*
X124099310Y-103894569D01*
X124099310Y-103894569D02*
X124099310Y-103799331D01*
X124099310Y-103799331D02*
X124146929Y-103704093D01*
X124146929Y-103704093D02*
X124194548Y-103656474D01*
X124194548Y-103656474D02*
X124289786Y-103608855D01*
X124289786Y-103608855D02*
X124527881Y-103608855D01*
X124527881Y-103608855D02*
X124670738Y-103656474D01*
X125099310Y-104608855D02*
X125099310Y-103608855D01*
X125099310Y-103608855D02*
X125337405Y-103608855D01*
X125337405Y-103608855D02*
X125480262Y-103656474D01*
X125480262Y-103656474D02*
X125575500Y-103751712D01*
X125575500Y-103751712D02*
X125623119Y-103846950D01*
X125623119Y-103846950D02*
X125670738Y-104037426D01*
X125670738Y-104037426D02*
X125670738Y-104180283D01*
X125670738Y-104180283D02*
X125623119Y-104370759D01*
X125623119Y-104370759D02*
X125575500Y-104465997D01*
X125575500Y-104465997D02*
X125480262Y-104561236D01*
X125480262Y-104561236D02*
X125337405Y-104608855D01*
X125337405Y-104608855D02*
X125099310Y-104608855D01*
%TO.C,D1*%
X182787594Y-84457032D02*
X182787594Y-85028460D01*
X182787594Y-84742746D02*
X181787594Y-84742746D01*
X181787594Y-84742746D02*
X181930451Y-84837984D01*
X181930451Y-84837984D02*
X182025689Y-84933222D01*
X182025689Y-84933222D02*
X182073308Y-85028460D01*
D12*
%TO.C,R32*%
X186734975Y-61938023D02*
X186734975Y-62447471D01*
X185689975Y-61938023D02*
X185689975Y-62447471D01*
%TO.C,R34*%
X116979748Y-109458736D02*
X116470300Y-109458736D01*
X116979748Y-108413736D02*
X116470300Y-108413736D01*
D11*
%TO.C,D4*%
X190062475Y-70437747D02*
X184862475Y-70437747D01*
X190062475Y-67597747D02*
X184862475Y-67597747D01*
X188342475Y-70437747D02*
X188342475Y-67597747D01*
X184872475Y-67847747D02*
X184862475Y-67607747D01*
X184862475Y-70437747D02*
X184862475Y-70197747D01*
D12*
%TO.C,JP6*%
X180474975Y-84792747D02*
X180474975Y-81992747D01*
X182474975Y-84792747D02*
X180474975Y-84792747D01*
X180474975Y-81992747D02*
X182474975Y-81992747D01*
X182474975Y-81992747D02*
X182474975Y-84792747D01*
%TO.C,JP5*%
X190712475Y-52942747D02*
X185212475Y-52942747D01*
X190712475Y-50992747D02*
X190712475Y-52942747D01*
X189662475Y-50442747D02*
X189062475Y-50442747D01*
X189362475Y-50742747D02*
X189662475Y-50442747D01*
X189062475Y-50442747D02*
X189362475Y-50742747D01*
X185212475Y-52942747D02*
X185212475Y-50992747D01*
X185212475Y-50992747D02*
X190712475Y-50992747D01*
%TO.C,G\u002A\u002A\u002A*%
G36*
X174639024Y-118623990D02*
G01*
X174752920Y-118975745D01*
X174864371Y-119195874D01*
X174913209Y-119233333D01*
X175023074Y-119135269D01*
X175026263Y-119105050D01*
X175144914Y-119039244D01*
X175462923Y-118993773D01*
X175923371Y-118976768D01*
X175924243Y-118976767D01*
X176384885Y-118993718D01*
X176703184Y-119039147D01*
X176822222Y-119104926D01*
X176822222Y-119105050D01*
X176704656Y-119172431D01*
X176394320Y-119218443D01*
X176005791Y-119233333D01*
X175189361Y-119233333D01*
X174998438Y-119714394D01*
X174807515Y-120195454D01*
X174709922Y-119712977D01*
X174601921Y-119323926D01*
X174490689Y-119178818D01*
X174386108Y-119281727D01*
X174313123Y-119549353D01*
X174212570Y-119848572D01*
X174097693Y-119915286D01*
X174014964Y-119748799D01*
X174000000Y-119554040D01*
X173951553Y-119259326D01*
X173841125Y-119186303D01*
X173721082Y-119345886D01*
X173679862Y-119487308D01*
X173574419Y-119827445D01*
X173468735Y-119912905D01*
X173370362Y-119745460D01*
X173296915Y-119397515D01*
X173232361Y-119051343D01*
X173168262Y-118931083D01*
X173087900Y-119006656D01*
X173083747Y-119013976D01*
X172960053Y-119135699D01*
X172721204Y-119203901D01*
X172309247Y-119231113D01*
X172069383Y-119233333D01*
X171611182Y-119216273D01*
X171294851Y-119170598D01*
X171177778Y-119105050D01*
X171295475Y-119037851D01*
X171606740Y-118991899D01*
X172003313Y-118976767D01*
X172450368Y-118971475D01*
X172710581Y-118934739D01*
X172853678Y-118835275D01*
X172949382Y-118641798D01*
X172988735Y-118534607D01*
X173125196Y-118233558D01*
X173237429Y-118174311D01*
X173335615Y-118361927D01*
X173420986Y-118749429D01*
X173517086Y-119297475D01*
X173640303Y-118848485D01*
X173774686Y-118449682D01*
X173890946Y-118305777D01*
X173992225Y-118415985D01*
X174074659Y-118739970D01*
X174176027Y-119297475D01*
X174326959Y-118656060D01*
X174477892Y-118014646D01*
X174639024Y-118623990D01*
G37*
G36*
X171748310Y-110065282D02*
G01*
X172230451Y-110291682D01*
X172663685Y-110669462D01*
X172854731Y-110925847D01*
X173013824Y-111245568D01*
X173071798Y-111593787D01*
X173050236Y-112059685D01*
X173021073Y-112477696D01*
X173059918Y-112748492D01*
X173205937Y-112979797D01*
X173491123Y-113272335D01*
X174000000Y-113769241D01*
X174508878Y-113272335D01*
X174798084Y-112975100D01*
X174941697Y-112744049D01*
X174978882Y-112471457D01*
X174949764Y-112059685D01*
X174928805Y-111578289D01*
X174990362Y-111233287D01*
X175145269Y-110925847D01*
X175527749Y-110476555D01*
X175991148Y-110166239D01*
X176475664Y-110018071D01*
X176921494Y-110055224D01*
X177123484Y-110159312D01*
X177238951Y-110272427D01*
X177223042Y-110399745D01*
X177051909Y-110603178D01*
X176891437Y-110761749D01*
X176551466Y-111201126D01*
X176435802Y-111624619D01*
X176550724Y-111998840D01*
X176638961Y-112104473D01*
X176989931Y-112295833D01*
X177401047Y-112254563D01*
X177838917Y-111986942D01*
X177981685Y-111851997D01*
X178250040Y-111589595D01*
X178409699Y-111494967D01*
X178522571Y-111544266D01*
X178584123Y-111619950D01*
X178729723Y-112019116D01*
X178677957Y-112485075D01*
X178454621Y-112958034D01*
X178085510Y-113378198D01*
X177717645Y-113628408D01*
X177285845Y-113783298D01*
X176782887Y-113804749D01*
X176622063Y-113790501D01*
X176230335Y-113762089D01*
X175970345Y-113810463D01*
X175732280Y-113976506D01*
X175494972Y-114210108D01*
X175017030Y-114699566D01*
X175983768Y-115612119D01*
X176498844Y-116128281D01*
X176816429Y-116532347D01*
X176949820Y-116858490D01*
X176912311Y-117140882D01*
X176717200Y-117413697D01*
X176693940Y-117437374D01*
X176440478Y-117630994D01*
X176178912Y-117679255D01*
X175872543Y-117568187D01*
X175484673Y-117283822D01*
X175022742Y-116853325D01*
X175946907Y-116853325D01*
X176008888Y-117024485D01*
X176116667Y-117052525D01*
X176278418Y-116960305D01*
X176284670Y-116828030D01*
X176177750Y-116647306D01*
X176030776Y-116678511D01*
X175946907Y-116853325D01*
X175022742Y-116853325D01*
X174978601Y-116812188D01*
X174933067Y-116767099D01*
X174000000Y-115840259D01*
X173066933Y-116767099D01*
X172550093Y-117253934D01*
X172154319Y-117552411D01*
X171842910Y-117676500D01*
X171579169Y-117640170D01*
X171326395Y-117457390D01*
X171306061Y-117437374D01*
X171101934Y-117169708D01*
X171050519Y-116895456D01*
X171065854Y-116853325D01*
X171713574Y-116853325D01*
X171775554Y-117024485D01*
X171883333Y-117052525D01*
X172045085Y-116960305D01*
X172051336Y-116828030D01*
X171944416Y-116647306D01*
X171797443Y-116678511D01*
X171713574Y-116853325D01*
X171065854Y-116853325D01*
X171165391Y-116579859D01*
X171460119Y-116188158D01*
X171948278Y-115685591D01*
X172015174Y-115621276D01*
X172980853Y-114697397D01*
X172503969Y-114209024D01*
X172208265Y-113924970D01*
X171974769Y-113790068D01*
X171693366Y-113763389D01*
X171377937Y-113790501D01*
X170834931Y-113801167D01*
X170396692Y-113683366D01*
X170282355Y-113628408D01*
X169818458Y-113289776D01*
X169480446Y-112852247D01*
X169294114Y-112375613D01*
X169285259Y-111919668D01*
X169415878Y-111619950D01*
X169528993Y-111504483D01*
X169656311Y-111520393D01*
X169859744Y-111691526D01*
X170018315Y-111851997D01*
X170457692Y-112191968D01*
X170881185Y-112307632D01*
X171255406Y-112192710D01*
X171361039Y-112104473D01*
X171552399Y-111753503D01*
X171511129Y-111342388D01*
X171243508Y-110904517D01*
X171108563Y-110761749D01*
X170846161Y-110493394D01*
X170751533Y-110333736D01*
X170800832Y-110220863D01*
X170876516Y-110159312D01*
X171277065Y-110013434D01*
X171748310Y-110065282D01*
G37*
%TO.C,J13*%
X191462475Y-78167747D02*
X192712475Y-78167747D01*
X191752475Y-77877747D02*
X197722475Y-77877747D01*
X197722475Y-77877747D02*
X197722475Y-65257747D01*
X191762475Y-77867747D02*
X192512475Y-77867747D01*
X192512475Y-77867747D02*
X192512475Y-76067747D01*
X194012475Y-77867747D02*
X194012475Y-77117747D01*
X194012475Y-77117747D02*
X196962475Y-77117747D01*
X196962475Y-77117747D02*
X196962475Y-71567747D01*
X191462475Y-76917747D02*
X191462475Y-78167747D01*
X191762475Y-76067747D02*
X191762475Y-77867747D01*
X192512475Y-76067747D02*
X191762475Y-76067747D01*
X191762475Y-74567747D02*
X192512475Y-74567747D01*
X192512475Y-74567747D02*
X192512475Y-68567747D01*
X191762475Y-68567747D02*
X191762475Y-74567747D01*
X192512475Y-68567747D02*
X191762475Y-68567747D01*
X191762475Y-67067747D02*
X192512475Y-67067747D01*
X192512475Y-67067747D02*
X192512475Y-65267747D01*
X194012475Y-66017747D02*
X196962475Y-66017747D01*
X196962475Y-66017747D02*
X196962475Y-71567747D01*
X191762475Y-65267747D02*
X191762475Y-67067747D01*
X192512475Y-65267747D02*
X191762475Y-65267747D01*
X194012475Y-65267747D02*
X194012475Y-66017747D01*
X191752475Y-65257747D02*
X191752475Y-77877747D01*
X197722475Y-65257747D02*
X191752475Y-65257747D01*
%TO.C,R7*%
X192352475Y-103607471D02*
X192352475Y-103098023D01*
X193397475Y-103607471D02*
X193397475Y-103098023D01*
%TO.C,C6*%
X186222475Y-58446480D02*
X186222475Y-58739014D01*
X185202475Y-58446480D02*
X185202475Y-58739014D01*
%TO.C,DAC1*%
X114025024Y-97586236D02*
X126925024Y-97586236D01*
X129925024Y-100586236D02*
X129925024Y-112786236D01*
X111025024Y-112786236D02*
X111025024Y-100586236D01*
X126925024Y-115786236D02*
X114025024Y-115786236D01*
X129925024Y-100586236D02*
G75*
G03*
X126925024Y-97586236I-3000001J-1D01*
G01*
X114025024Y-97586236D02*
G75*
G03*
X111025024Y-100586236I1J-3000001D01*
G01*
X126925024Y-115786236D02*
G75*
G03*
X129925024Y-112786236I0J3000000D01*
G01*
X111025024Y-112786236D02*
G75*
G03*
X114025024Y-115786236I3000000J0D01*
G01*
%TO.C,R53*%
X190922500Y-122445276D02*
X190922500Y-122954724D01*
X189877500Y-122445276D02*
X189877500Y-122954724D01*
D13*
%TO.C,Q3*%
X190474975Y-59892747D02*
X189474975Y-59892747D01*
X190474975Y-59032747D02*
X190474975Y-59892747D01*
X190474975Y-56892747D02*
X190474975Y-57762747D01*
X190474975Y-56892747D02*
X189474975Y-56892747D01*
X189074975Y-58082747D02*
X189074975Y-58712747D01*
D12*
%TO.C,JP10*%
X190712475Y-81192747D02*
X185212475Y-81192747D01*
X190712475Y-79242747D02*
X190712475Y-81192747D01*
X189662475Y-78692747D02*
X189062475Y-78692747D01*
X189362475Y-78992747D02*
X189662475Y-78692747D01*
X189062475Y-78692747D02*
X189362475Y-78992747D01*
X185212475Y-81192747D02*
X185212475Y-79242747D01*
X185212475Y-79242747D02*
X190712475Y-79242747D01*
%TO.C,R6*%
X128170251Y-74070247D02*
X128679699Y-74070247D01*
X128170251Y-75115247D02*
X128679699Y-75115247D01*
D13*
%TO.C,CN3*%
X117977475Y-132635247D02*
X130037475Y-132635247D01*
X117977475Y-135735247D02*
X117977475Y-123535247D01*
X117977475Y-135735247D02*
X130037475Y-135735247D01*
X130037475Y-123485247D02*
X117977475Y-123485247D01*
X130037475Y-135735247D02*
X130037475Y-123535247D01*
D12*
%TO.C,R54*%
X193522500Y-122545276D02*
X193522500Y-123054724D01*
X192477500Y-122545276D02*
X192477500Y-123054724D01*
%TO.C,R21*%
X179852475Y-103607471D02*
X179852475Y-103098023D01*
X180897475Y-103607471D02*
X180897475Y-103098023D01*
%TO.C,R47*%
X176022500Y-122345276D02*
X176022500Y-122854724D01*
X174977500Y-122345276D02*
X174977500Y-122854724D01*
%TO.C,R48*%
X178522500Y-122445276D02*
X178522500Y-122954724D01*
X177477500Y-122445276D02*
X177477500Y-122954724D01*
%TO.C,R11*%
X191177500Y-118447471D02*
X191177500Y-117938023D01*
X192222500Y-118447471D02*
X192222500Y-117938023D01*
%TO.C,R16*%
X183397475Y-107060523D02*
X183397475Y-107569971D01*
X182352475Y-107060523D02*
X182352475Y-107569971D01*
D11*
%TO.C,D5*%
X190062475Y-84562747D02*
X184862475Y-84562747D01*
X190062475Y-81722747D02*
X184862475Y-81722747D01*
X188342475Y-84562747D02*
X188342475Y-81722747D01*
X184872475Y-81972747D02*
X184862475Y-81732747D01*
X184862475Y-84562747D02*
X184862475Y-84322747D01*
D13*
%TO.C,Card1*%
X123593725Y-81732747D02*
X116433725Y-81732747D01*
X110643725Y-81752747D02*
X113583725Y-81752747D01*
X110643725Y-81752747D02*
X110643725Y-96992747D01*
X125643725Y-93692747D02*
X125643725Y-91842747D01*
X125643725Y-93692747D02*
X125643725Y-94482747D01*
X125643725Y-94482747D02*
X123543725Y-94482747D01*
X123543725Y-94482747D02*
X123543725Y-94492747D01*
X123543725Y-96972747D02*
X123543725Y-94482747D01*
X116373725Y-96972747D02*
X123543725Y-96972747D01*
X110643725Y-96992747D02*
X113633725Y-96992747D01*
X124943725Y-92082747D02*
G75*
G03*
X124943725Y-92082747I-50000J0D01*
G01*
D12*
%TO.C,R4*%
X128564001Y-85720247D02*
X129073449Y-85720247D01*
X128564001Y-86765247D02*
X129073449Y-86765247D01*
%TO.C,J6*%
X191462475Y-64042747D02*
X192712475Y-64042747D01*
X191752475Y-63752747D02*
X197722475Y-63752747D01*
X197722475Y-63752747D02*
X197722475Y-51132747D01*
X191762475Y-63742747D02*
X192512475Y-63742747D01*
X192512475Y-63742747D02*
X192512475Y-61942747D01*
X194012475Y-63742747D02*
X194012475Y-62992747D01*
X194012475Y-62992747D02*
X196962475Y-62992747D01*
X196962475Y-62992747D02*
X196962475Y-57442747D01*
X191462475Y-62792747D02*
X191462475Y-64042747D01*
X191762475Y-61942747D02*
X191762475Y-63742747D01*
X192512475Y-61942747D02*
X191762475Y-61942747D01*
X191762475Y-60442747D02*
X192512475Y-60442747D01*
X192512475Y-60442747D02*
X192512475Y-54442747D01*
X191762475Y-54442747D02*
X191762475Y-60442747D01*
X192512475Y-54442747D02*
X191762475Y-54442747D01*
X191762475Y-52942747D02*
X192512475Y-52942747D01*
X192512475Y-52942747D02*
X192512475Y-51142747D01*
X194012475Y-51892747D02*
X196962475Y-51892747D01*
X196962475Y-51892747D02*
X196962475Y-57442747D01*
X191762475Y-51142747D02*
X191762475Y-52942747D01*
X192512475Y-51142747D02*
X191762475Y-51142747D01*
X194012475Y-51142747D02*
X194012475Y-51892747D01*
X191752475Y-51132747D02*
X191752475Y-63752747D01*
X197722475Y-51132747D02*
X191752475Y-51132747D01*
%TO.C,C4*%
X130784975Y-77508980D02*
X130784975Y-77801514D01*
X129764975Y-77508980D02*
X129764975Y-77801514D01*
%TO.C,R13*%
X190897475Y-107060523D02*
X190897475Y-107569971D01*
X189852475Y-107060523D02*
X189852475Y-107569971D01*
%TO.C,R52*%
X188422500Y-122445276D02*
X188422500Y-122954724D01*
X187377500Y-122445276D02*
X187377500Y-122954724D01*
D14*
%TO.C,U1*%
X130674975Y-73962747D02*
X130674975Y-72822747D01*
X133674975Y-72822747D02*
X133674975Y-73962747D01*
X130514975Y-74492747D02*
G75*
G03*
X130514975Y-74492747I-140000J0D01*
G01*
D12*
%TO.C,R49*%
X181022500Y-122445276D02*
X181022500Y-122954724D01*
X179977500Y-122445276D02*
X179977500Y-122954724D01*
D13*
%TO.C,CN4*%
X107424975Y-117092747D02*
X107424975Y-122182747D01*
X107424975Y-122182747D02*
X110464975Y-122182747D01*
X110464975Y-116642747D02*
X110464975Y-122642747D01*
X110464975Y-116642747D02*
X113694975Y-116642747D01*
X110464975Y-117092747D02*
X107424975Y-117092747D01*
X111744975Y-122692747D02*
X110464975Y-122692747D01*
X115434975Y-116642747D02*
X121524975Y-116642747D01*
X118744975Y-122692747D02*
X113384975Y-122692747D01*
X121524975Y-116642747D02*
X121524975Y-122692747D01*
X121524975Y-122692747D02*
X120384975Y-122692747D01*
D12*
%TO.C,J8*%
X166129975Y-86102747D02*
X166129975Y-131882747D01*
X166129975Y-86102747D02*
X168789975Y-86102747D01*
X166129975Y-131882747D02*
X168789975Y-131882747D01*
X167459975Y-83502747D02*
X168789975Y-83502747D01*
X168789975Y-83502747D02*
X168789975Y-84832747D01*
X168789975Y-86102747D02*
X168789975Y-131882747D01*
%TO.C,R23*%
X174852475Y-103607471D02*
X174852475Y-103098023D01*
X175897475Y-103607471D02*
X175897475Y-103098023D01*
D11*
%TO.C,L1*%
X126944975Y-79045247D02*
X126684975Y-79305247D01*
X126944975Y-76765247D02*
X126944975Y-79045247D01*
X126684975Y-79305247D02*
X125034975Y-79305247D01*
X126684975Y-76505247D02*
X126944975Y-76765247D01*
X125034975Y-76505247D02*
X126684975Y-76505247D01*
X123514975Y-79305247D02*
X121864975Y-79305247D01*
X121864975Y-79305247D02*
X121604975Y-79045247D01*
X121864975Y-76505247D02*
X123514975Y-76505247D01*
X121604975Y-79045247D02*
X121604975Y-76765247D01*
X121604975Y-76765247D02*
X121864975Y-76505247D01*
D12*
%TO.C,C2*%
X129009975Y-77643995D02*
X129009975Y-78166499D01*
X127539975Y-77643995D02*
X127539975Y-78166499D01*
%TO.C,R19*%
X175897475Y-107060523D02*
X175897475Y-107569971D01*
X174852475Y-107060523D02*
X174852475Y-107569971D01*
%TO.C,J14*%
X191462475Y-92292747D02*
X192712475Y-92292747D01*
X191752475Y-92002747D02*
X197722475Y-92002747D01*
X197722475Y-92002747D02*
X197722475Y-79382747D01*
X191762475Y-91992747D02*
X192512475Y-91992747D01*
X192512475Y-91992747D02*
X192512475Y-90192747D01*
X194012475Y-91992747D02*
X194012475Y-91242747D01*
X194012475Y-91242747D02*
X196962475Y-91242747D01*
X196962475Y-91242747D02*
X196962475Y-85692747D01*
X191462475Y-91042747D02*
X191462475Y-92292747D01*
X191762475Y-90192747D02*
X191762475Y-91992747D01*
X192512475Y-90192747D02*
X191762475Y-90192747D01*
X191762475Y-88692747D02*
X192512475Y-88692747D01*
X192512475Y-88692747D02*
X192512475Y-82692747D01*
X191762475Y-82692747D02*
X191762475Y-88692747D01*
X192512475Y-82692747D02*
X191762475Y-82692747D01*
X191762475Y-81192747D02*
X192512475Y-81192747D01*
X192512475Y-81192747D02*
X192512475Y-79392747D01*
X194012475Y-80142747D02*
X196962475Y-80142747D01*
X196962475Y-80142747D02*
X196962475Y-85692747D01*
X191762475Y-79392747D02*
X191762475Y-81192747D01*
X192512475Y-79392747D02*
X191762475Y-79392747D01*
X194012475Y-79392747D02*
X194012475Y-80142747D01*
X191752475Y-79382747D02*
X191752475Y-92002747D01*
X197722475Y-79382747D02*
X191752475Y-79382747D01*
%TO.C,R1*%
X116470300Y-109913736D02*
X116979748Y-109913736D01*
X116470300Y-110958736D02*
X116979748Y-110958736D01*
%TO.C,R3*%
X128564001Y-88720247D02*
X129073449Y-88720247D01*
X128564001Y-89765247D02*
X129073449Y-89765247D01*
D13*
%TO.C,Q4*%
X190474975Y-74017747D02*
X189474975Y-74017747D01*
X190474975Y-73157747D02*
X190474975Y-74017747D01*
X190474975Y-71017747D02*
X190474975Y-71887747D01*
X190474975Y-71017747D02*
X189474975Y-71017747D01*
X189074975Y-72207747D02*
X189074975Y-72837747D01*
D12*
%TO.C,J5*%
X198224975Y-131942747D02*
X198224975Y-130692747D01*
X197934975Y-131652747D02*
X197934975Y-125682747D01*
X197934975Y-125682747D02*
X170314975Y-125682747D01*
X197924975Y-131642747D02*
X197924975Y-130892747D01*
X197924975Y-130892747D02*
X196124975Y-130892747D01*
X197924975Y-129392747D02*
X197174975Y-129392747D01*
X197174975Y-129392747D02*
X197174975Y-126442747D01*
X197174975Y-126442747D02*
X184124975Y-126442747D01*
X196974975Y-131942747D02*
X198224975Y-131942747D01*
X196124975Y-131642747D02*
X197924975Y-131642747D01*
X196124975Y-130892747D02*
X196124975Y-131642747D01*
D15*
X195374975Y-129192747D02*
X192834975Y-131732747D01*
D12*
X194624975Y-131642747D02*
X194624975Y-130892747D01*
X194624975Y-130892747D02*
X173624975Y-130892747D01*
X173624975Y-131642747D02*
X194624975Y-131642747D01*
X173624975Y-130892747D02*
X173624975Y-131642747D01*
D15*
X172514975Y-129192747D02*
X175054975Y-126652747D01*
D12*
X172124975Y-131642747D02*
X172124975Y-130892747D01*
X172124975Y-130892747D02*
X170324975Y-130892747D01*
X171074975Y-129392747D02*
X171074975Y-126442747D01*
X171074975Y-126442747D02*
X184124975Y-126442747D01*
X170324975Y-131642747D02*
X172124975Y-131642747D01*
X170324975Y-130892747D02*
X170324975Y-131642747D01*
X170324975Y-129392747D02*
X171074975Y-129392747D01*
X170314975Y-131652747D02*
X197934975Y-131652747D01*
X170314975Y-125682747D02*
X170314975Y-131652747D01*
%TO.C,R33*%
X128564001Y-84220247D02*
X129073449Y-84220247D01*
X128564001Y-85265247D02*
X129073449Y-85265247D01*
%TO.C,C9*%
X186222475Y-72571480D02*
X186222475Y-72864014D01*
X185202475Y-72571480D02*
X185202475Y-72864014D01*
%TO.C,C8*%
X128672458Y-87232747D02*
X128964992Y-87232747D01*
X128672458Y-88252747D02*
X128964992Y-88252747D01*
%TO.C,R10*%
X184852475Y-103607471D02*
X184852475Y-103098023D01*
X185897475Y-103607471D02*
X185897475Y-103098023D01*
D14*
%TO.C,IC1*%
X188764975Y-110577747D02*
X188764975Y-112252747D01*
X188714975Y-112602747D02*
X188714975Y-117202747D01*
X180514975Y-112602747D02*
X188714975Y-112602747D01*
X188714975Y-117202747D02*
X180514975Y-117202747D01*
X180514975Y-117202747D02*
X180514975Y-112602747D01*
D12*
%TO.C,R8*%
X189852475Y-103607471D02*
X189852475Y-103098023D01*
X190897475Y-103607471D02*
X190897475Y-103098023D01*
%TO.C,C1*%
X121436276Y-108421236D02*
X120913772Y-108421236D01*
X121436276Y-106951236D02*
X120913772Y-106951236D01*
D13*
%TO.C,RLY1*%
X181974975Y-61392747D02*
X174474975Y-61392747D01*
X173884975Y-61392747D02*
X166374975Y-61392747D01*
D10*
X177904975Y-63062747D02*
X177904975Y-71692747D01*
X175974975Y-63062747D02*
X177904975Y-63062747D01*
X180174975Y-67802747D02*
X180174975Y-66782747D01*
X175224975Y-67802747D02*
X180174975Y-67802747D01*
X168174975Y-67802747D02*
X168174975Y-66782747D01*
X168174975Y-67802747D02*
X173124975Y-67802747D01*
X177904975Y-71692747D02*
X174904975Y-71692747D01*
X174904975Y-71692747D02*
X174884975Y-71722747D01*
X174884975Y-71722747D02*
X174884975Y-75732747D01*
X174884975Y-75732747D02*
X174884975Y-76242747D01*
X174884975Y-76242747D02*
X176484975Y-77892747D01*
D13*
X178424975Y-77192747D02*
X176194975Y-77192747D01*
D10*
X169924975Y-77262747D02*
X173864975Y-77262747D01*
D13*
X181974975Y-80592747D02*
X181974975Y-61392747D01*
X166374975Y-80592747D02*
X166374975Y-61392747D01*
X166374975Y-80592747D02*
X181974975Y-80592747D01*
X167874975Y-62492747D02*
G75*
G03*
X167874975Y-62492747I-500000J0D01*
G01*
%TO.C,CN2*%
X110582475Y-67395247D02*
X110582475Y-79455247D01*
X107482475Y-67395247D02*
X119682475Y-67395247D01*
X107482475Y-67395247D02*
X107482475Y-79455247D01*
X119732475Y-79455247D02*
X119732475Y-67395247D01*
X107482475Y-79455247D02*
X119682475Y-79455247D01*
D12*
%TO.C,R51*%
X186022500Y-122445276D02*
X186022500Y-122954724D01*
X184977500Y-122445276D02*
X184977500Y-122954724D01*
%TO.C,C3*%
X134484975Y-77508980D02*
X134484975Y-77801514D01*
X133464975Y-77508980D02*
X133464975Y-77801514D01*
%TO.C,Q1*%
X122064975Y-62312747D02*
X123714975Y-62312747D01*
X122064975Y-63322747D02*
X122064975Y-62312747D01*
X122064975Y-65362747D02*
X122064975Y-64352747D01*
X123714975Y-62312747D02*
X123714975Y-62372747D01*
X123714975Y-63402747D02*
X123714975Y-64272747D01*
X123714975Y-65302747D02*
X123714975Y-65362747D01*
X123714975Y-65362747D02*
X122064975Y-65362747D01*
%TO.C,NeoPixelC1*%
X178464975Y-83539014D02*
X178464975Y-83246480D01*
X179484975Y-83539014D02*
X179484975Y-83246480D01*
D11*
%TO.C,D2*%
X177574975Y-57972747D02*
X182774975Y-57972747D01*
X177574975Y-60812747D02*
X182774975Y-60812747D01*
X179294975Y-57972747D02*
X179294975Y-60812747D01*
X182764975Y-60562747D02*
X182774975Y-60802747D01*
X182774975Y-57972747D02*
X182774975Y-58212747D01*
D12*
%TO.C,R5*%
X128170251Y-72172747D02*
X128679699Y-72172747D01*
X128170251Y-73217747D02*
X128679699Y-73217747D01*
%TO.C,RFID1*%
X158799975Y-75712747D02*
X158799975Y-74462747D01*
X158509975Y-75422747D02*
X158509975Y-69452747D01*
X158509975Y-69452747D02*
X135889975Y-69452747D01*
X158499975Y-75412747D02*
X158499975Y-74662747D01*
X158499975Y-74662747D02*
X156699975Y-74662747D01*
X158499975Y-73162747D02*
X157749975Y-73162747D01*
X157749975Y-73162747D02*
X157749975Y-70212747D01*
X157749975Y-70212747D02*
X147199975Y-70212747D01*
X157549975Y-75712747D02*
X158799975Y-75712747D01*
X156699975Y-75412747D02*
X158499975Y-75412747D01*
X156699975Y-74662747D02*
X156699975Y-75412747D01*
X155199975Y-75412747D02*
X155199975Y-74662747D01*
X155199975Y-74662747D02*
X139199975Y-74662747D01*
X139199975Y-75412747D02*
X155199975Y-75412747D01*
X139199975Y-74662747D02*
X139199975Y-75412747D01*
X137699975Y-75412747D02*
X137699975Y-74662747D01*
X137699975Y-74662747D02*
X135899975Y-74662747D01*
X136649975Y-73162747D02*
X136649975Y-70212747D01*
X136649975Y-70212747D02*
X147199975Y-70212747D01*
X135899975Y-75412747D02*
X137699975Y-75412747D01*
X135899975Y-74662747D02*
X135899975Y-75412747D01*
X135899975Y-73162747D02*
X136649975Y-73162747D01*
X135889975Y-75422747D02*
X158509975Y-75422747D01*
X135889975Y-69452747D02*
X135889975Y-75422747D01*
%TO.C,JP9*%
X190112475Y-90142747D02*
X190112475Y-90742747D01*
X189412475Y-91442747D02*
X188012475Y-91442747D01*
X188012475Y-89442747D02*
X189412475Y-89442747D01*
X187312475Y-90742747D02*
X187312475Y-90142747D01*
X189412475Y-91442747D02*
G75*
G03*
X190112475Y-90742747I1J699999D01*
G01*
X190112475Y-90142747D02*
G75*
G03*
X189412475Y-89442747I-699999J1D01*
G01*
X187312475Y-90742747D02*
G75*
G03*
X188012475Y-91442747I700000J0D01*
G01*
X188012475Y-89442747D02*
G75*
G03*
X187312475Y-90142747I0J-700000D01*
G01*
%TO.C,R37*%
X171954724Y-103722500D02*
X171445276Y-103722500D01*
X171954724Y-102677500D02*
X171445276Y-102677500D01*
%TO.C,C11*%
X190510000Y-118053733D02*
X190510000Y-118346267D01*
X189490000Y-118053733D02*
X189490000Y-118346267D01*
%TO.C,R17*%
X180897475Y-107060523D02*
X180897475Y-107569971D01*
X179852475Y-107060523D02*
X179852475Y-107569971D01*
%TO.C,JP3*%
X122324975Y-61542747D02*
X122324975Y-58742747D01*
X124324975Y-61542747D02*
X122324975Y-61542747D01*
X122324975Y-58742747D02*
X124324975Y-58742747D01*
X124324975Y-58742747D02*
X124324975Y-61542747D01*
%TO.C,R14*%
X188397475Y-107060523D02*
X188397475Y-107569971D01*
X187352475Y-107060523D02*
X187352475Y-107569971D01*
%TO.C,J3*%
X119849975Y-58292747D02*
X118599975Y-58292747D01*
X119559975Y-58582747D02*
X113589975Y-58582747D01*
X113589975Y-58582747D02*
X113589975Y-66202747D01*
X119549975Y-58592747D02*
X118799975Y-58592747D01*
X118799975Y-58592747D02*
X118799975Y-60392747D01*
X117299975Y-58592747D02*
X117299975Y-59342747D01*
X117299975Y-59342747D02*
X114349975Y-59342747D01*
X114349975Y-59342747D02*
X114349975Y-62392747D01*
X119849975Y-59542747D02*
X119849975Y-58292747D01*
X119549975Y-60392747D02*
X119549975Y-58592747D01*
X118799975Y-60392747D02*
X119549975Y-60392747D01*
X119549975Y-61892747D02*
X118799975Y-61892747D01*
X118799975Y-61892747D02*
X118799975Y-62892747D01*
X119549975Y-62892747D02*
X119549975Y-61892747D01*
X118799975Y-62892747D02*
X119549975Y-62892747D01*
X119549975Y-64392747D02*
X118799975Y-64392747D01*
X118799975Y-64392747D02*
X118799975Y-66192747D01*
X117299975Y-65442747D02*
X114349975Y-65442747D01*
X114349975Y-65442747D02*
X114349975Y-62392747D01*
X119549975Y-66192747D02*
X119549975Y-64392747D01*
X118799975Y-66192747D02*
X119549975Y-66192747D01*
X117299975Y-66192747D02*
X117299975Y-65442747D01*
X119559975Y-66202747D02*
X119559975Y-58582747D01*
X113589975Y-66202747D02*
X119559975Y-66202747D01*
%TO.C,R35*%
X186734975Y-76063023D02*
X186734975Y-76572471D01*
X185689975Y-76063023D02*
X185689975Y-76572471D01*
D13*
%TO.C,RJ1*%
X155752475Y-66625247D02*
X155752475Y-48625247D01*
X155752475Y-48625247D02*
X140512475Y-48625247D01*
X140512475Y-66625247D02*
X155752475Y-66625247D01*
X140512475Y-48625247D02*
X140512475Y-66625247D01*
D12*
%TO.C,C10*%
X186222475Y-86696480D02*
X186222475Y-86989014D01*
X185202475Y-86696480D02*
X185202475Y-86989014D01*
D13*
%TO.C,Q5*%
X190474975Y-88142747D02*
X189474975Y-88142747D01*
X190474975Y-87282747D02*
X190474975Y-88142747D01*
X190474975Y-85142747D02*
X190474975Y-86012747D01*
X190474975Y-85142747D02*
X189474975Y-85142747D01*
X189074975Y-86332747D02*
X189074975Y-86962747D01*
D12*
%TO.C,R36*%
X186734975Y-90188023D02*
X186734975Y-90697471D01*
X185689975Y-90188023D02*
X185689975Y-90697471D01*
%TO.C,R38*%
X171954724Y-105422500D02*
X171445276Y-105422500D01*
X171954724Y-104377500D02*
X171445276Y-104377500D01*
D13*
%TO.C,CN1*%
X173912475Y-59860247D02*
X173912475Y-47660247D01*
X173912475Y-59860247D02*
X158392475Y-59860247D01*
X173912475Y-48760247D02*
X156772475Y-48760247D01*
X158392475Y-59860247D02*
X156772475Y-59860247D01*
X156772475Y-47660247D02*
X173912475Y-47660247D01*
X156772475Y-47660247D02*
X156772475Y-59860247D01*
D12*
%TO.C,J7*%
X134764975Y-129282747D02*
X134764975Y-83502747D01*
X134764975Y-129282747D02*
X132104975Y-129282747D01*
X134764975Y-83502747D02*
X132104975Y-83502747D01*
X133434975Y-131882747D02*
X132104975Y-131882747D01*
X132104975Y-131882747D02*
X132104975Y-130552747D01*
X132104975Y-129282747D02*
X132104975Y-83502747D01*
%TO.C,R50*%
X183622500Y-122445276D02*
X183622500Y-122954724D01*
X182577500Y-122445276D02*
X182577500Y-122954724D01*
%TO.C,C7*%
X121028757Y-109176236D02*
X121321291Y-109176236D01*
X121028757Y-110196236D02*
X121321291Y-110196236D01*
%TO.C,JP4*%
X190112475Y-61892747D02*
X190112475Y-62492747D01*
X189412475Y-63192747D02*
X188012475Y-63192747D01*
X188012475Y-61192747D02*
X189412475Y-61192747D01*
X187312475Y-62492747D02*
X187312475Y-61892747D01*
X189412475Y-63192747D02*
G75*
G03*
X190112475Y-62492747I1J699999D01*
G01*
X190112475Y-61892747D02*
G75*
G03*
X189412475Y-61192747I-699999J1D01*
G01*
X187312475Y-62492747D02*
G75*
G03*
X188012475Y-63192747I700000J0D01*
G01*
X188012475Y-61192747D02*
G75*
G03*
X187312475Y-61892747I0J-700000D01*
G01*
%TO.C,R18*%
X178397475Y-107060523D02*
X178397475Y-107569971D01*
X177352475Y-107060523D02*
X177352475Y-107569971D01*
%TO.C,R2*%
X128564001Y-90220247D02*
X129073449Y-90220247D01*
X128564001Y-91265247D02*
X129073449Y-91265247D01*
%TO.C,R22*%
X177352475Y-103607471D02*
X177352475Y-103098023D01*
X178397475Y-103607471D02*
X178397475Y-103098023D01*
D13*
%TO.C,DC1*%
X136460000Y-49500000D02*
X136460000Y-63700000D01*
X136450000Y-49500000D02*
X127460000Y-49500000D01*
X127460000Y-49500000D02*
X127460000Y-57670000D01*
X136450000Y-52260000D02*
X127450000Y-52260000D01*
X127460000Y-58300000D02*
X127460000Y-57670000D01*
X136460000Y-63700000D02*
X133990000Y-63700000D01*
X130010000Y-63700000D02*
X127460000Y-63700000D01*
X127460000Y-63700000D02*
X127460000Y-62700000D01*
%TO.C,U2*%
X122675024Y-102436236D02*
X122275024Y-102436236D01*
X122675024Y-102436236D02*
X122675024Y-102836236D01*
X120065024Y-102436236D02*
X119675024Y-102436236D01*
X119675024Y-102436236D02*
X119675024Y-102836236D01*
X122675024Y-105046236D02*
X122675024Y-105436236D01*
X119675024Y-105046236D02*
X119675024Y-105436236D01*
X122275024Y-105436236D02*
X122675024Y-105436236D01*
X119675024Y-105436236D02*
X120065024Y-105436236D01*
X119385024Y-102646236D02*
G75*
G03*
X119385024Y-102646236I-50000J0D01*
G01*
D12*
%TO.C,JP7*%
X190112475Y-76017747D02*
X190112475Y-76617747D01*
X189412475Y-77317747D02*
X188012475Y-77317747D01*
X188012475Y-75317747D02*
X189412475Y-75317747D01*
X187312475Y-76617747D02*
X187312475Y-76017747D01*
X189412475Y-77317747D02*
G75*
G03*
X190112475Y-76617747I1J699999D01*
G01*
X190112475Y-76017747D02*
G75*
G03*
X189412475Y-75317747I-699999J1D01*
G01*
X187312475Y-76617747D02*
G75*
G03*
X188012475Y-77317747I700000J0D01*
G01*
X188012475Y-75317747D02*
G75*
G03*
X187312475Y-76017747I0J-700000D01*
G01*
%TO.C,JP2*%
X121324975Y-70042747D02*
X121324975Y-67242747D01*
X123324975Y-70042747D02*
X121324975Y-70042747D01*
X121324975Y-67242747D02*
X123324975Y-67242747D01*
X123324975Y-67242747D02*
X123324975Y-70042747D01*
%TO.C,J1*%
X171044975Y-92292747D02*
X172294975Y-92292747D01*
X171334975Y-92002747D02*
X177304975Y-92002747D01*
X177304975Y-92002747D02*
X177304975Y-81882747D01*
X171344975Y-91992747D02*
X172094975Y-91992747D01*
X172094975Y-91992747D02*
X172094975Y-90192747D01*
X173594975Y-91992747D02*
X173594975Y-91242747D01*
X173594975Y-91242747D02*
X176544975Y-91242747D01*
X176544975Y-91242747D02*
X176544975Y-86942747D01*
X171044975Y-91042747D02*
X171044975Y-92292747D01*
X171344975Y-90192747D02*
X171344975Y-91992747D01*
X172094975Y-90192747D02*
X171344975Y-90192747D01*
X171344975Y-88692747D02*
X172094975Y-88692747D01*
X172094975Y-88692747D02*
X172094975Y-85192747D01*
X171344975Y-85192747D02*
X171344975Y-88692747D01*
X172094975Y-85192747D02*
X171344975Y-85192747D01*
X171344975Y-83692747D02*
X172094975Y-83692747D01*
X172094975Y-83692747D02*
X172094975Y-81892747D01*
X173594975Y-82642747D02*
X176544975Y-82642747D01*
X176544975Y-82642747D02*
X176544975Y-86942747D01*
X171344975Y-81892747D02*
X171344975Y-83692747D01*
X172094975Y-81892747D02*
X171344975Y-81892747D01*
X173594975Y-81892747D02*
X173594975Y-82642747D01*
X171334975Y-81882747D02*
X171334975Y-92002747D01*
X177304975Y-81882747D02*
X171334975Y-81882747D01*
%TO.C,JP1*%
X115675024Y-107736236D02*
X115675024Y-102236236D01*
X117625024Y-107736236D02*
X115675024Y-107736236D01*
X118175024Y-106686236D02*
X118175024Y-106086236D01*
X117875024Y-106386236D02*
X118175024Y-106686236D01*
X118175024Y-106086236D02*
X117875024Y-106386236D01*
X115675024Y-102236236D02*
X117625024Y-102236236D01*
X117625024Y-102236236D02*
X117625024Y-107736236D01*
%TO.C,C5*%
X132284975Y-77508980D02*
X132284975Y-77801514D01*
X131264975Y-77508980D02*
X131264975Y-77801514D01*
%TO.C,D1*%
X183474975Y-85242747D02*
X183474975Y-92542747D01*
X177974975Y-85242747D02*
X177974975Y-92542747D01*
X177974975Y-92542747D02*
X179124975Y-92542747D01*
%TO.C,R20*%
X182352475Y-103607471D02*
X182352475Y-103098023D01*
X183397475Y-103607471D02*
X183397475Y-103098023D01*
%TO.C,J4*%
X170024975Y-94637747D02*
X170024975Y-95887747D01*
X170314975Y-94927747D02*
X170314975Y-100897747D01*
X170314975Y-100897747D02*
X197934975Y-100897747D01*
X170324975Y-94937747D02*
X170324975Y-95687747D01*
X170324975Y-95687747D02*
X172124975Y-95687747D01*
X170324975Y-97187747D02*
X171074975Y-97187747D01*
X171074975Y-97187747D02*
X171074975Y-100137747D01*
X171074975Y-100137747D02*
X184124975Y-100137747D01*
X171274975Y-94637747D02*
X170024975Y-94637747D01*
X172124975Y-94937747D02*
X170324975Y-94937747D01*
X172124975Y-95687747D02*
X172124975Y-94937747D01*
D15*
X172874975Y-97387747D02*
X175414975Y-94847747D01*
D12*
X173624975Y-94937747D02*
X173624975Y-95687747D01*
X173624975Y-95687747D02*
X194624975Y-95687747D01*
X194624975Y-94937747D02*
X173624975Y-94937747D01*
X194624975Y-95687747D02*
X194624975Y-94937747D01*
D15*
X195734975Y-97387747D02*
X193194975Y-99927747D01*
D12*
X196124975Y-94937747D02*
X196124975Y-95687747D01*
X196124975Y-95687747D02*
X197924975Y-95687747D01*
X197174975Y-97187747D02*
X197174975Y-100137747D01*
X197174975Y-100137747D02*
X184124975Y-100137747D01*
X197924975Y-94937747D02*
X196124975Y-94937747D01*
X197924975Y-95687747D02*
X197924975Y-94937747D01*
X197924975Y-97187747D02*
X197174975Y-97187747D01*
X197934975Y-94927747D02*
X170314975Y-94927747D01*
X197934975Y-100897747D02*
X197934975Y-94927747D01*
%TO.C,R9*%
X187352475Y-103607471D02*
X187352475Y-103098023D01*
X188397475Y-103607471D02*
X188397475Y-103098023D01*
%TO.C,JP8*%
X190712475Y-67067747D02*
X185212475Y-67067747D01*
X190712475Y-65117747D02*
X190712475Y-67067747D01*
X189662475Y-64567747D02*
X189062475Y-64567747D01*
X189362475Y-64867747D02*
X189662475Y-64567747D01*
X189062475Y-64567747D02*
X189362475Y-64867747D01*
X185212475Y-67067747D02*
X185212475Y-65117747D01*
X185212475Y-65117747D02*
X190712475Y-65117747D01*
D11*
%TO.C,D3*%
X190062475Y-56312747D02*
X184862475Y-56312747D01*
X190062475Y-53472747D02*
X184862475Y-53472747D01*
X188342475Y-56312747D02*
X188342475Y-53472747D01*
X184872475Y-53722747D02*
X184862475Y-53482747D01*
X184862475Y-56312747D02*
X184862475Y-56072747D01*
D12*
%TO.C,R15*%
X185897475Y-107060523D02*
X185897475Y-107569971D01*
X184852475Y-107060523D02*
X184852475Y-107569971D01*
D16*
%TO.C,U3*%
X136824975Y-77442747D02*
X164724975Y-77442747D01*
X136824975Y-131842747D02*
X136824975Y-77442747D01*
X164724975Y-77442747D02*
X164724975Y-131842747D01*
X164724975Y-131842747D02*
X136824975Y-131842747D01*
D12*
%TO.C,R12*%
X193397475Y-107060523D02*
X193397475Y-107569971D01*
X192352475Y-107060523D02*
X192352475Y-107569971D01*
%TO.C,Q2*%
X121814975Y-72862747D02*
X123464975Y-72862747D01*
X121814975Y-73872747D02*
X121814975Y-72862747D01*
X121814975Y-75912747D02*
X121814975Y-74902747D01*
X123464975Y-72862747D02*
X123464975Y-72922747D01*
X123464975Y-73952747D02*
X123464975Y-74822747D01*
X123464975Y-75852747D02*
X123464975Y-75912747D01*
X123464975Y-75912747D02*
X121814975Y-75912747D01*
%TD*%
M02*
