<?xml version="1.0" encoding="UTF-8" standalone="no"?>
<svg
   xmlns:dc="http://purl.org/dc/elements/1.1/"
   xmlns:cc="http://creativecommons.org/ns#"
   xmlns:rdf="http://www.w3.org/1999/02/22-rdf-syntax-ns#"
   xmlns:svg="http://www.w3.org/2000/svg"
   xmlns="http://www.w3.org/2000/svg"
   xmlns:sodipodi="http://sodipodi.sourceforge.net/DTD/sodipodi-0.dtd"
   xmlns:inkscape="http://www.inkscape.org/namespaces/inkscape"
   width="162.90674mm"
   height="68.863914mm"
   viewBox="0 0 162.90674 68.863914"
   version="1.1"
   id="svg893"
   inkscape:version="1.0.2 (1.0.2+r75+1)"
   sodipodi:docname="blanc.svg">
  <defs
     id="defs887" />
  <sodipodi:namedview
     id="base"
     pagecolor="#ffffff"
     bordercolor="#666666"
     borderopacity="1.0"
     inkscape:pageopacity="0.0"
     inkscape:pageshadow="2"
     inkscape:zoom="1.0203812"
     inkscape:cx="359.01031"
     inkscape:cy="197.50167"
     inkscape:document-units="mm"
     inkscape:current-layer="text1458"
     inkscape:document-rotation="0"
     showgrid="false"
     inkscape:window-width="1918"
     inkscape:window-height="1078"
     inkscape:window-x="0"
     inkscape:window-y="0"
     inkscape:window-maximized="1" />
  <metadata
     id="metadata890">
    <rdf:RDF>
      <cc:Work
         rdf:about="">
        <dc:format>image/svg+xml</dc:format>
        <dc:type
           rdf:resource="http://purl.org/dc/dcmitype/StillImage" />
        <dc:title></dc:title>
      </cc:Work>
    </rdf:RDF>
  </metadata>
  <g
     inkscape:label="Layer 1"
     inkscape:groupmode="layer"
     id="layer1"
     transform="translate(-27.934414,1.9622861)">
    <g
       aria-label="Rouge"
       id="text1458"
       style="font-size:50.0978px;line-height:0;font-family:sans-serif;letter-spacing:0px;word-spacing:0px;stroke-width:1.50293">
      <g
         aria-label="Rouge"
         id="text1702"
         style="font-size:34.5054px;line-height:0;font-family:sans-serif;letter-spacing:0px;word-spacing:0px;fill:#ffffff;stroke-width:1.55577" />
      <text
         xml:space="preserve"
         style="font-size:35.6591px;line-height:0;font-family:sans-serif;letter-spacing:0px;word-spacing:0px;stroke-width:1.60779"
         x="46.379147"
         y="51.764393"
         id="text2337"><tspan
           sodipodi:role="line"
           id="tspan2335"
           x="46.379147"
           y="51.764393"
           style="stroke-width:1.60779">Blanc</tspan></text>
    </g>
  </g>
</svg>
