G90
G21
F127.0
G0 Z6.350
G0 X6.474 Y23.781
G1 Z-0.000
G1 X6.474 Y23.781 Z-0.000
G1 X5.474 Y23.527 Z-1.732
G1 Y6.504
G1 X5.508 Y5.991
G1 X5.608 Y5.750
G1 X5.767 Y5.543
G1 X5.974 Y5.384
G1 X6.215 Y5.284
G1 X6.734 Y5.250
G1 X16.599
G1 X17.229 Y5.287
G1 X21.691 Y5.829
G1 X24.807 Y7.390
G1 X25.240 Y7.644
G1 X25.552 Y8.040
G1 X27.409 Y10.772
G1 X28.060 Y14.612
G1 X28.060 Y15.452
G1 X27.408 Y19.303
G1 X25.548 Y22.000
G1 X25.238 Y22.390
G1 X24.807 Y22.641
G1 X21.691 Y24.202
G1 X17.229 Y24.745
G1 X16.599 Y24.781
G1 X6.734
G1 X6.215 Y24.747
G1 X5.974 Y24.647
G1 X5.767 Y24.488
G1 X5.608 Y24.281
G1 X5.508 Y24.040
G1 X5.474 Y23.527
G0 Z6.350
G0 X6.474 Y43.460
G1 Z-0.000
G1 X6.474 Y43.460 Z-0.000
G1 X5.474 Y43.203 Z-1.732
G1 Y29.295
G1 X5.508 Y28.779
G1 X5.608 Y28.538
G1 X5.767 Y28.331
G1 X5.974 Y28.172
G1 X6.215 Y28.072
G1 X6.733 Y28.038
G1 X15.798
G1 X16.422 Y28.071
G1 X20.039 Y28.456
G1 X20.848 Y28.678
G1 X23.728 Y30.015
G1 X24.058 Y30.392
G1 X25.776 Y32.651
G1 X25.895 Y33.145
G1 X26.448 Y36.250
G1 X25.895 Y39.332
G1 X25.775 Y39.824
G1 X24.057 Y42.075
G1 X23.730 Y42.449
G1 X23.284 Y42.686
G1 X20.854 Y43.807
G1 X20.041 Y44.034
G1 X16.424 Y44.426
G1 X15.798 Y44.460
G1 X6.733 Y44.460
G1 X6.215 Y44.426
G1 X5.974 Y44.326
G1 X5.767 Y44.167
G1 X5.608 Y43.960
G1 X5.508 Y43.719
G1 X5.474 Y43.203
G0 Z6.350
G0 X0.000 Y48.781
G1 Z-0.000
G1 X0.000 Y48.781 Z-0.000
G1 X1.018 Y47.781 Z-1.732
G1 X16.284
G1 X22.714 Y47.049
G1 X22.894 Y46.998
G1 X27.287 Y44.911
G1 X30.007 Y41.557
G1 X30.923 Y37.010
G1 X30.928 Y36.820
G1 X30.484 Y33.404
G1 X30.430 Y33.229
G1 X29.129 Y30.652
G1 X29.052 Y30.560
G1 X26.942 Y28.804
G1 X26.814 Y28.731
G1 X23.819 Y27.762
G1 X23.323 Y27.563
G1 X23.118 Y27.381
G1 X22.970 Y27.151
G1 X22.890 Y26.889
G1 X22.884 Y26.616
G1 X22.952 Y26.351
G1 X23.090 Y26.114
G1 X23.286 Y25.924
G1 X23.776 Y25.700
G1 X27.516 Y24.300
G1 X27.664 Y24.215
G1 X30.433 Y21.845
G1 X30.529 Y21.727
G1 X32.274 Y18.537
G1 X32.326 Y18.380
G1 X32.913 Y14.442
G1 X32.910 Y14.257
G1 X31.919 Y9.092
G1 X28.908 Y5.205
G1 X24.087 Y2.813
G1 X23.926 Y2.764
G1 X17.312 Y1.953
G1 X1.026 Y1.929
G1 X0.000 Y0.929 Z-0.000
G1 X1.000 Y1.948 Z-1.732
G1 Y47.763
G1 X0.255 Y48.526 Z-0.441
G1 X0.000 Y48.781 Z-0.000
G0 Z6.350
G0 X44.774 Y50.800
G1 Z-0.000
G1 X44.774 Y50.800
G1 X45.800 Y49.800 Z-1.732
G1 X49.646
G1 X50.672 Y50.800 Z-0.000
G1 X49.672 Y49.782 Z-1.732
G1 Y1.947
G1 X50.672 Y0.929 Z-0.000
G1 X49.646 Y1.929 Z-1.732
G1 X45.800
G1 X44.774 Y0.929 Z-0.000
G1 X45.774 Y1.947 Z-1.732
G1 Y49.782
G1 X45.029 Y50.546 Z-0.441
G1 X44.774 Y50.800 Z-0.000
G0 Z6.350
G0 X79.325 Y18.974
G1 Z-0.000
G1 X79.325 Y18.974
G1 X78.995 Y19.954 Z-1.732
G1 X73.471 Y19.581
G1 X72.715 Y19.436
G1 X69.375 Y18.374
G1 X68.887 Y18.185
G1 X68.503 Y17.821
G1 X66.812 Y16.012
G1 X66.466 Y15.587
G1 X66.321 Y15.070
G1 X65.665 Y11.774
G1 X66.256 Y8.555
G1 X68.047 Y6.019
G1 X70.848 Y4.445
G1 X73.950 Y3.984
G1 X74.809 Y4.005
G1 X79.180 Y4.888
G1 X82.966 Y7.743
G1 X85.393 Y12.142
G1 X86.143 Y17.258
G1 X86.190 Y17.923
G1 X86.156 Y19.233
G1 X86.056 Y19.474
G1 X85.897 Y19.681
G1 X85.690 Y19.840
G1 X85.449 Y19.940
G1 X84.935 Y19.974
G1 X78.995 Y19.954
G0 Z6.350
G0 X91.087 Y21.410
G1 Z-0.000
G1 X91.087 Y21.410 Z-0.000
G1 X90.087 Y21.154 Z-1.732
G1 X90.087 Y20.130
G1 X90.087 Y1.953
G1 X91.087 Y0.929 Z-0.000
G1 X90.062 Y1.929 Z-1.732
G1 X86.215
G1 X85.190 Y0.929 Z-0.000
G1 X85.968 Y1.708 Z-1.348
G1 X86.190 Y1.967 Z-1.732
G1 Y6.119
G1 X86.156 Y6.635
G1 X86.058 Y6.874
G1 X85.901 Y7.081
G1 X85.697 Y7.240
G1 X85.459 Y7.341
G1 X85.203 Y7.378
G1 X84.946 Y7.348
G1 X84.705 Y7.253
G1 X84.310 Y6.920
G1 X79.837 Y2.618
G1 X79.721 Y2.366 Z-1.557
G1 X79.445 Y2.411 Z-1.732
G1 X72.836 Y1.032
G1 X72.679 Y1.029
G1 X68.125 Y1.761
G1 X64.693 Y3.846
G1 X62.551 Y7.049
G1 X61.798 Y11.289
G1 X61.798 Y11.444
G1 X62.711 Y16.251
G1 X65.430 Y19.690
G1 X70.043 Y21.800
G1 X70.239 Y21.854
G1 X77.179 Y22.589
G1 X84.931 Y22.589
G1 X85.449 Y22.623
G1 X85.690 Y22.723
G1 X85.897 Y22.882
G1 X86.056 Y23.089
G1 X86.156 Y23.330
G1 X86.190 Y23.878
G1 X86.125 Y24.607
G1 X85.548 Y27.698
G1 X85.432 Y28.175
G1 X85.160 Y28.580
G1 X83.145 Y31.210
G1 X79.986 Y32.896
G1 X79.594 Y33.084
G1 X79.169 Y33.155
G1 X75.380 Y33.650
G1 X74.615 Y33.652
G1 X69.143 Y32.979
G1 X68.394 Y32.788
G1 X64.492 Y31.250
G1 X64.288 Y31.053 Z-1.545
G1 X63.396 Y29.743 Z-0.000
G1 X64.279 Y31.040 Z-1.529
G1 X64.396 Y31.300 Z-1.732
G1 X64.396 Y31.559
G1 X64.396 Y34.413
G1 X63.396 Y35.191 Z-0.000
G1 X64.097 Y34.667 Z-1.215
G1 X64.433 Y34.456 Z-1.732
G1 X69.710 Y36.017
G1 X70.043 Y36.084
G1 X75.456 Y36.669
G1 X75.712 Y36.665
G1 X82.098 Y35.697
G1 X86.502 Y32.928
G1 X89.169 Y28.184
G1 X90.062 Y21.533
G1 X91.087 Y21.409 Z-0.001
G1 X91.087 Y21.410 Z-0.000
G0 Z6.350
G0 X133.073 Y22.595
G1 Z-0.000
G1 X133.073 Y22.595
G1 X132.073 Y22.341 Z-1.732
G1 Y1.949
G1 X133.073 Y0.929 Z-0.000
G1 X132.048 Y1.929 Z-1.732
G1 X128.201
G1 X127.176 Y0.929 Z-0.000
G1 X128.176 Y1.952 Z-1.732
G1 Y22.148
G1 X128.140 Y22.776
G1 X127.702 Y26.707
G1 X127.470 Y27.527
G1 X126.208 Y30.212
G1 X125.967 Y30.659
G1 X125.589 Y30.984
G1 X123.109 Y32.845
G1 X122.616 Y32.963
G1 X119.229 Y33.563
G1 X114.573 Y32.725
G1 X111.339 Y30.490
G1 X110.958 Y30.193
G1 X110.699 Y29.792
G1 X108.683 Y26.248
G1 X107.988 Y21.624
G1 X107.939 Y20.961
G1 X107.939 Y1.957
G1 X108.939 Y0.929 Z-0.000
G1 X107.908 Y1.929 Z-1.732
G1 X104.041
G1 X103.010 Y0.929 Z-0.000
G1 X104.010 Y1.948 Z-1.732
G1 Y35.808
G1 X103.010 Y36.826 Z-0.000
G1 X104.041 Y35.826 Z-1.732
G1 X107.908
G1 X108.939 Y36.826 Z-0.000
G1 X108.143 Y36.029 Z-1.380
G1 X107.939 Y35.764 Z-1.732
G1 Y31.515
G1 X107.973 Y30.992
G1 X108.072 Y30.752
G1 X108.229 Y30.545
G1 X108.434 Y30.386
G1 X108.674 Y30.285
G1 X108.931 Y30.249
G1 X109.188 Y30.281
G1 X109.429 Y30.377
G1 X109.821 Y30.712
G1 X114.237 Y35.014
G1 X114.377 Y35.238 Z-1.622
G1 X114.387 Y35.220 Z-1.658
G1 X114.652 Y35.240 Z-1.732
G1 X120.521 Y36.657
G1 X125.589 Y35.772
G1 X129.102 Y33.191
G1 X131.268 Y28.911
G1 X131.319 Y28.744
G1 X132.049 Y22.736
G1 X133.073 Y22.595 Z-0.000
G1 X132.073 Y22.341 Z-1.732
G0 Z6.350
G0 X170.668 Y35.448
G1 Z-0.000
G1 X170.668 Y35.448 Z-0.000
G1 X169.941 Y34.923 Z-1.259
G1 X169.668 Y34.660 Z-1.732
G1 Y31.510
G1 X169.785 Y31.248 Z-1.528
G1 X170.668 Y29.935 Z-0.000
G1 X169.798 Y31.229 Z-1.506
G1 X169.608 Y31.447 Z-1.732
G1 X166.253 Y32.815
G1 X165.521 Y33.012
G1 X160.963 Y33.647
G1 X160.141 Y33.630
G1 X155.086 Y32.699
G1 X151.290 Y30.002
G1 X150.913 Y29.700
G1 X150.659 Y29.287
G1 X148.332 Y24.991
G1 X147.533 Y19.234
G1 X147.533 Y18.457
G1 X148.257 Y13.124
G1 X148.332 Y12.693
G1 X148.529 Y12.297
G1 X150.913 Y7.959
G1 X154.684 Y5.242
G1 X155.089 Y4.983
G1 X155.556 Y4.875
G1 X160.142 Y4.061
G1 X160.957 Y4.042
G1 X165.515 Y4.648
G1 X166.258 Y4.848
G1 X169.613 Y6.237
G1 X169.801 Y6.459 Z-1.501
G1 X170.668 Y7.756 Z-0.000
G1 X169.801 Y6.459 Z-1.502
G1 X169.668 Y6.199 Z-1.732
G1 Y3.086
G1 X169.945 Y2.827 Z-1.252
G1 X170.668 Y2.308 Z-0.000
G1 X169.950 Y2.823 Z-1.244
G1 X169.616 Y3.008 Z-1.732
G1 X165.464 Y1.607
G1 X165.183 Y1.545
G1 X160.084 Y1.021
G1 X159.853 Y1.029
G1 X153.003 Y2.247
G1 X147.772 Y5.831
G1 X144.414 Y11.492
G1 X143.299 Y18.739
G1 X143.299 Y18.947
G1 X144.463 Y26.394
G1 X147.841 Y31.964
G1 X153.232 Y35.490
G1 X160.222 Y36.662
G1 X160.461 Y36.670
G1 X165.275 Y36.148
G1 X165.573 Y36.082
G1 X169.599 Y34.748
G1 X169.934 Y34.918 Z-1.271
G1 X170.668 Y35.448 Z-0.000
G1 X170.668 Y35.448 Z-0.000
G0 Z6.350
M5
M2 
(##########################################)
G90
G21
G0 Z6.350
G0 X2.540 Y2.247
G1 Z-1.732 F127.000
G1 X2.540 Y47.463
G1 X3.810 Y47.463
G1 X3.810 Y2.247
G1 X5.080 Y2.247
G1 X5.080 Y47.463
G1 X6.350 Y47.463
G1 X6.350 Y44.774
G1 X7.620 Y44.778
G1 X7.620 Y47.463
G1 X8.890 Y47.463
G1 X8.890 Y44.778
G1 X10.160 Y44.778
G1 X10.160 Y47.463
G1 X11.430 Y47.463
G1 X11.430 Y44.778
G1 X12.700 Y44.778
G1 X12.700 Y47.463
G1 X13.970 Y47.463
G1 X13.970 Y44.778
G1 X15.240 Y44.778
G1 X15.240 Y47.463
G1 X16.510 Y47.450
G1 X16.510 Y44.737
G1 X17.780 Y44.599
G1 X17.780 Y47.308
G1 X19.050 Y47.159
G1 X19.050 Y44.461
G1 X20.320 Y44.323
G1 X20.320 Y47.010
G1 X21.590 Y46.861
G1 X21.590 Y43.817
G1 X22.860 Y43.231
G1 X22.860 Y46.656
G1 X24.130 Y46.059
G1 X24.130 Y42.498
G0 Z6.350
G0 X25.400 Y40.869
G1 Z-1.732
G1 X25.400 Y45.452
G1 X26.670 Y44.852
G1 X26.670 Y36.977
G1 X26.670 Y35.608
G1 X26.670 Y29.037
G1 X25.400 Y28.607
G1 X25.400 Y31.602
G0 Z6.350
G0 X24.130 Y29.962
G1 Z-1.732
G1 X24.130 Y28.203
G1 X22.860 Y27.568
G1 X22.860 Y29.237
G1 X21.590 Y28.655
G1 X21.590 Y24.564
G1 X20.320 Y24.699
G1 X20.320 Y28.167
G1 X19.050 Y28.032
G1 X19.050 Y24.849
G1 X17.780 Y24.999
G1 X17.780 Y27.896
G1 X16.510 Y27.760
G1 X16.510 Y25.102
G1 X15.240 Y25.099
G1 X15.240 Y27.719
G1 X13.970 Y27.720
G1 X13.970 Y25.099
G1 X12.700 Y25.099
G1 X12.700 Y27.720
G1 X11.430 Y27.720
G1 X11.430 Y25.099
G1 X10.160 Y25.100
G1 X10.160 Y27.719
G1 X8.890 Y27.718
G1 X8.890 Y25.101
G1 X7.620 Y25.103
G1 X7.620 Y27.716
G1 X6.350 Y27.687
G1 X6.350 Y25.132
G0 Z6.350
G0 X22.860 Y25.891
G1 Z-1.732
G1 X22.860 Y23.985
G1 X24.130 Y23.344
G1 X24.130 Y25.228
G1 X25.400 Y24.753
G1 X25.400 Y22.668
G0 Z6.350
G0 X26.670 Y24.278
G1 Z-1.732
G1 X26.670 Y20.953
G0 Z6.350
G0 X27.940 Y23.556
G1 Z-1.732
G1 X27.940 Y18.178
G0 Z6.350
G0 X31.750 Y18.834
G1 Z-1.732
G1 X31.750 Y9.898
G0 Z6.350
G0 X30.480 Y7.738
G1 Z-1.732
G1 X30.480 Y21.154
G1 X29.210 Y22.473
G1 X29.210 Y6.096
G1 X27.940 Y5.082
G1 X27.940 Y11.900
G0 Z6.350
G0 X26.670 Y9.100
G1 Z-1.732
G1 X26.670 Y4.449
G1 X25.400 Y3.820
G1 X25.400 Y7.363
G1 X24.130 Y6.691
G1 X24.130 Y3.189
G1 X22.860 Y2.954
G1 X22.860 Y6.047
G1 X21.590 Y5.481
G1 X21.590 Y2.798
G1 X20.320 Y2.642
G1 X20.320 Y5.332
G1 X19.050 Y5.182
G1 X19.050 Y2.486
G1 X17.780 Y2.331
G1 X17.780 Y5.032
G1 X16.510 Y4.929
G1 X16.510 Y2.250
G1 X15.240 Y2.248
G1 X15.240 Y4.931
G1 X13.970 Y4.932
G1 X13.970 Y2.247
G1 X12.700 Y2.247
G1 X12.700 Y4.932
G1 X11.430 Y4.932
G1 X11.430 Y2.247
G1 X10.160 Y2.248
G1 X10.160 Y4.931
G1 X8.890 Y4.930
G1 X8.890 Y2.249
G1 X7.620 Y2.249
G1 X7.620 Y4.930
G1 X6.350 Y4.937
G1 X6.350 Y2.248
G0 Z6.350
G0 X27.940 Y30.051
G1 Z-1.732
G1 X27.940 Y43.615
G0 Z6.350
G0 X29.210 Y42.038
G1 Z-1.732
G1 X29.210 Y31.517
G0 Z6.350
G0 X30.480 Y35.874
G1 Z-1.732
G1 X30.480 Y37.594
G0 Z6.350
G0 X46.990 Y49.480
G1 Z-1.732
G1 X46.990 Y2.250
G1 X48.260 Y2.252
G1 X48.260 Y49.477
G0 Z6.350
G0 X64.770 Y34.224
G1 Z-1.732
G1 X64.770 Y32.119
G1 X66.040 Y32.202
G1 X66.040 Y34.600
G1 X67.310 Y34.976
G1 X67.310 Y32.702
G1 X68.580 Y33.204
G1 X68.580 Y35.351
G1 X69.850 Y35.726
G1 X69.850 Y33.386
G1 X71.120 Y33.542
G1 X71.120 Y35.881
G1 X72.390 Y36.018
G1 X72.390 Y33.698
G1 X73.660 Y33.855
G1 X73.660 Y36.155
G1 X74.930 Y36.292
G1 X74.930 Y34.007
G1 X76.200 Y33.863
G1 X76.200 Y36.271
G1 X77.470 Y36.082
G1 X77.470 Y33.698
G1 X78.740 Y33.532
G1 X78.740 Y35.894
G1 X80.010 Y35.704
G1 X80.010 Y33.244
G1 X81.280 Y32.575
G1 X81.280 Y35.515
G1 X82.550 Y35.038
G1 X82.550 Y31.909
G1 X83.820 Y30.885
G1 X83.820 Y34.240
G1 X85.090 Y33.442
G1 X85.090 Y29.200
G0 Z6.350
G0 X87.630 Y30.297
G1 Z-1.732
G1 X87.630 Y2.252
G1 X88.900 Y2.254
G1 X88.900 Y27.786
G0 Z6.350
G0 X86.360 Y25.081
G1 Z-1.732
G1 X86.360 Y32.536
G0 Z6.350
G0 X86.360 Y22.981
G1 Z-1.732
G1 X86.360 Y19.579
G1 X85.090 Y20.304
G1 X85.090 Y22.259
G1 X83.820 Y22.269
G1 X83.820 Y20.294
G1 X82.550 Y20.293
G1 X82.550 Y22.270
G1 X81.280 Y22.271
G1 X81.280 Y20.292
G1 X80.010 Y20.291
G1 X80.010 Y22.271
G1 X78.740 Y22.271
G1 X78.740 Y20.255
G1 X77.470 Y20.170
G1 X77.470 Y22.271
G1 X76.200 Y22.184
G1 X76.200 Y20.083
G1 X74.930 Y19.998
G1 X74.930 Y22.046
G1 X73.660 Y21.908
G1 X73.660 Y19.913
G1 X72.390 Y19.667
G1 X72.390 Y21.769
G1 X71.120 Y21.631
G1 X71.120 Y19.263
G1 X69.850 Y18.860
G1 X69.850 Y21.359
G1 X68.580 Y20.779
G1 X68.580 Y18.358
G1 X67.310 Y17.010
G1 X67.310 Y20.205
G1 X66.040 Y19.626
G1 X66.040 Y15.310
G0 Z6.350
G0 X63.500 Y16.739
G1 Z-1.732
G1 X63.500 Y6.202
G0 Z6.350
G0 X64.770 Y4.306
G1 Z-1.732
G1 X64.770 Y18.343
G0 Z6.350
G0 X62.230 Y12.005
G1 Z-1.732
G1 X62.230 Y10.689
G0 Z6.350
G0 X66.040 Y8.277
G1 Z-1.732
G1 X66.040 Y3.389
G1 X67.310 Y2.626
G1 X67.310 Y6.470
G1 X68.580 Y5.328
G1 X68.580 Y1.987
G1 X69.850 Y1.789
G1 X69.850 Y4.620
G1 X71.120 Y4.063
G1 X71.120 Y1.593
G1 X72.390 Y1.397
G1 X72.390 Y3.884
G1 X73.660 Y3.704
G1 X73.660 Y1.529
G1 X74.930 Y1.802
G1 X74.930 Y3.705
G1 X76.200 Y3.954
G1 X76.200 Y2.062
G1 X77.470 Y2.329
G1 X77.470 Y4.203
G1 X78.740 Y4.452
G1 X78.740 Y2.597
G1 X80.010 Y3.225
G1 X80.010 Y5.085
G1 X81.280 Y4.446
G1 X81.280 Y6.044
G1 X82.550 Y5.673
G1 X82.550 Y7.003
G1 X83.820 Y6.906
G1 X83.820 Y8.578
G1 X85.090 Y7.693
G1 X85.090 Y10.899
G0 Z6.350
G0 X86.360 Y6.984
G1 Z-1.732
G1 X86.360 Y16.535
G0 Z6.350
G0 X107.950 Y23.603
G1 Z-1.732
G1 X107.950 Y30.378
G1 X109.220 Y29.962
G1 X109.220 Y27.859
G0 Z6.350
G0 X110.490 Y30.203
G1 Z-1.732
G1 X110.490 Y30.896
G1 X111.760 Y31.173
G1 X111.760 Y32.155
G1 X113.030 Y32.134
G1 X113.030 Y33.392
G1 X114.300 Y32.945
G1 X114.300 Y34.631
G1 X115.570 Y35.134
G1 X115.570 Y33.251
G1 X116.840 Y33.478
G1 X116.840 Y35.442
G1 X118.110 Y35.748
G1 X118.110 Y33.706
G1 X119.380 Y33.873
G1 X119.380 Y36.053
G1 X120.650 Y36.320
G1 X120.650 Y33.644
G1 X121.920 Y33.412
G1 X121.920 Y36.108
G1 X123.190 Y35.884
G1 X123.190 Y33.155
G1 X124.460 Y32.249
G1 X124.460 Y35.660
G1 X125.730 Y35.270
G1 X125.730 Y31.276
G0 Z6.350
G0 X127.000 Y29.280
G1 Z-1.732
G1 X127.000 Y34.340
G1 X128.270 Y33.408
G1 X128.270 Y24.659
G0 Z6.350
G0 X130.810 Y29.114
G1 Z-1.732
G1 X130.810 Y2.247
G1 X129.540 Y2.249
G1 X129.540 Y31.633
G0 Z6.350
G0 X144.780 Y26.278
G1 Z-1.732
G1 X144.780 Y11.614
G0 Z6.350
G0 X146.050 Y9.328
G1 Z-1.732
G1 X146.050 Y28.407
G0 Z6.350
G0 X147.320 Y30.507
G1 Z-1.732
G1 X147.320 Y20.027
G0 Z6.350
G0 X147.320 Y17.663
G1 Z-1.732
G1 X147.320 Y7.213
G0 Z6.350
G0 X148.590 Y5.641
G1 Z-1.732
G1 X148.590 Y11.515
G0 Z6.350
G0 X149.860 Y9.178
G1 Z-1.732
G1 X149.860 Y4.774
G1 X151.130 Y3.910
G1 X151.130 Y7.383
G1 X152.400 Y6.478
G1 X152.400 Y3.046
G1 X153.670 Y2.434
G1 X153.670 Y5.574
G1 X154.940 Y4.701
G1 X154.940 Y2.213
G1 X156.210 Y1.991
G1 X156.210 Y4.435
G1 X157.480 Y4.210
G1 X157.480 Y1.770
G1 X158.750 Y1.548
G1 X158.750 Y3.984
G1 X160.020 Y3.759
G1 X160.020 Y1.369
G1 X161.290 Y1.465
G1 X161.290 Y3.766
G1 X162.560 Y3.935
G1 X162.560 Y1.595
G1 X163.830 Y1.726
G1 X163.830 Y4.104
G1 X165.100 Y4.272
G1 X165.100 Y1.856
G1 X166.370 Y2.248
G1 X166.370 Y4.551
G1 X167.640 Y5.075
G1 X167.640 Y2.676
G1 X168.910 Y3.117
G1 X168.910 Y5.578
G0 Z6.350
G0 X168.910 Y32.087
G1 Z-1.732
G1 X168.910 Y34.634
G1 X167.640 Y35.063
G1 X167.640 Y32.593
G1 X166.370 Y33.110
G1 X166.370 Y35.477
G1 X165.100 Y35.847
G1 X165.100 Y33.392
G1 X163.830 Y33.569
G1 X163.830 Y35.985
G1 X162.560 Y36.123
G1 X162.560 Y33.745
G1 X161.290 Y33.922
G1 X161.290 Y36.260
G1 X160.020 Y36.306
G1 X160.020 Y33.933
G1 X158.750 Y33.705
G1 X158.750 Y36.093
G1 X157.480 Y35.879
G1 X157.480 Y33.477
G1 X156.210 Y33.249
G1 X156.210 Y35.665
G1 X154.940 Y35.450
G1 X154.940 Y32.982
G1 X153.670 Y32.103
G1 X153.670 Y35.235
G1 X152.400 Y34.584
G1 X152.400 Y31.190
G1 X151.130 Y30.278
G1 X151.130 Y33.747
G1 X149.860 Y32.913
G1 X149.860 Y28.487
G0 Z6.350
G0 X148.590 Y26.162
G1 Z-1.732
G1 X148.590 Y32.075
G0 Z6.350
G0 X106.680 Y35.507
G1 Z-1.732
G1 X106.680 Y2.248
G1 X105.410 Y2.250
G1 X105.410 Y35.505
G0 Z6.350
M5
M2 
