(##########################################)
G90
G21
G17 G64 P0.001 M3 S3000 
G0 Z6.350
G0 X2.540 Y2.247
G1 Z-1.732 F127.000
G1 X2.540 Y47.463
G1 X3.810 Y47.463
G1 X3.810 Y2.247
G1 X5.080 Y2.247
G1 X5.080 Y47.463
G1 X6.350 Y47.463
G1 X6.350 Y44.774
G1 X7.620 Y44.778
G1 X7.620 Y47.463
G1 X8.890 Y47.463
G1 X8.890 Y44.778
G1 X10.160 Y44.778
G1 X10.160 Y47.463
G1 X11.430 Y47.463
G1 X11.430 Y44.778
G1 X12.700 Y44.778
G1 X12.700 Y47.463
G1 X13.970 Y47.463
G1 X13.970 Y44.778
G1 X15.240 Y44.778
G1 X15.240 Y47.463
G1 X16.510 Y47.450
G1 X16.510 Y44.737
G1 X17.780 Y44.599
G1 X17.780 Y47.308
G1 X19.050 Y47.159
G1 X19.050 Y44.461
G1 X20.320 Y44.323
G1 X20.320 Y47.010
G1 X21.590 Y46.861
G1 X21.590 Y43.817
G1 X22.860 Y43.231
G1 X22.860 Y46.656
G1 X24.130 Y46.059
G1 X24.130 Y42.498
G0 Z6.350
G0 X25.400 Y40.869
G1 Z-1.732
G1 X25.400 Y45.452
G1 X26.670 Y44.852
G1 X26.670 Y36.977
G1 X26.670 Y35.608
G1 X26.670 Y29.037
G1 X25.400 Y28.607
G1 X25.400 Y31.602
G0 Z6.350
G0 X24.130 Y29.962
G1 Z-1.732
G1 X24.130 Y28.203
G1 X22.860 Y27.568
G1 X22.860 Y29.237
G1 X21.590 Y28.655
G1 X21.590 Y24.564
G1 X20.320 Y24.699
G1 X20.320 Y28.167
G1 X19.050 Y28.032
G1 X19.050 Y24.849
G1 X17.780 Y24.999
G1 X17.780 Y27.896
G1 X16.510 Y27.760
G1 X16.510 Y25.102
G1 X15.240 Y25.099
G1 X15.240 Y27.719
G1 X13.970 Y27.720
G1 X13.970 Y25.099
G1 X12.700 Y25.099
G1 X12.700 Y27.720
G1 X11.430 Y27.720
G1 X11.430 Y25.099
G1 X10.160 Y25.100
G1 X10.160 Y27.719
G1 X8.890 Y27.718
G1 X8.890 Y25.101
G1 X7.620 Y25.103
G1 X7.620 Y27.716
G1 X6.350 Y27.687
G1 X6.350 Y25.132
G0 Z6.350
G0 X22.860 Y25.891
G1 Z-1.732
G1 X22.860 Y23.985
G1 X24.130 Y23.344
G1 X24.130 Y25.228
G1 X25.400 Y24.753
G1 X25.400 Y22.668
G0 Z6.350
G0 X26.670 Y24.278
G1 Z-1.732
G1 X26.670 Y20.953
G0 Z6.350
G0 X27.940 Y23.556
G1 Z-1.732
G1 X27.940 Y18.178
G0 Z6.350
G0 X31.750 Y18.834
G1 Z-1.732
G1 X31.750 Y9.898
G0 Z6.350
G0 X30.480 Y7.738
G1 Z-1.732
G1 X30.480 Y21.154
G1 X29.210 Y22.473
G1 X29.210 Y6.096
G1 X27.940 Y5.082
G1 X27.940 Y11.900
G0 Z6.350
G0 X26.670 Y9.100
G1 Z-1.732
G1 X26.670 Y4.449
G1 X25.400 Y3.820
G1 X25.400 Y7.363
G1 X24.130 Y6.691
G1 X24.130 Y3.189
G1 X22.860 Y2.954
G1 X22.860 Y6.047
G1 X21.590 Y5.481
G1 X21.590 Y2.798
G1 X20.320 Y2.642
G1 X20.320 Y5.332
G1 X19.050 Y5.182
G1 X19.050 Y2.486
G1 X17.780 Y2.331
G1 X17.780 Y5.032
G1 X16.510 Y4.929
G1 X16.510 Y2.250
G1 X15.240 Y2.248
G1 X15.240 Y4.931
G1 X13.970 Y4.932
G1 X13.970 Y2.247
G1 X12.700 Y2.247
G1 X12.700 Y4.932
G1 X11.430 Y4.932
G1 X11.430 Y2.247
G1 X10.160 Y2.248
G1 X10.160 Y4.931
G1 X8.890 Y4.930
G1 X8.890 Y2.249
G1 X7.620 Y2.249
G1 X7.620 Y4.930
G1 X6.350 Y4.937
G1 X6.350 Y2.248
G0 Z6.350
G0 X27.940 Y30.051
G1 Z-1.732
G1 X27.940 Y43.615
G0 Z6.350
G0 X29.210 Y42.038
G1 Z-1.732
G1 X29.210 Y31.517
G0 Z6.350
G0 X30.480 Y35.874
G1 Z-1.732
G1 X30.480 Y37.594
G0 Z6.350
G0 X46.990 Y49.480
G1 Z-1.732
G1 X46.990 Y2.250
G1 X48.260 Y2.252
G1 X48.260 Y49.477
G0 Z6.350
G0 X64.770 Y34.224
G1 Z-1.732
G1 X64.770 Y32.119
G1 X66.040 Y32.202
G1 X66.040 Y34.600
G1 X67.310 Y34.976
G1 X67.310 Y32.702
G1 X68.580 Y33.204
G1 X68.580 Y35.351
G1 X69.850 Y35.726
G1 X69.850 Y33.386
G1 X71.120 Y33.542
G1 X71.120 Y35.881
G1 X72.390 Y36.018
G1 X72.390 Y33.698
G1 X73.660 Y33.855
G1 X73.660 Y36.155
G1 X74.930 Y36.292
G1 X74.930 Y34.007
G1 X76.200 Y33.863
G1 X76.200 Y36.271
G1 X77.470 Y36.082
G1 X77.470 Y33.698
G1 X78.740 Y33.532
G1 X78.740 Y35.894
G1 X80.010 Y35.704
G1 X80.010 Y33.244
G1 X81.280 Y32.575
G1 X81.280 Y35.515
G1 X82.550 Y35.038
G1 X82.550 Y31.909
G1 X83.820 Y30.885
G1 X83.820 Y34.240
G1 X85.090 Y33.442
G1 X85.090 Y29.200
G0 Z6.350
G0 X87.630 Y30.297
G1 Z-1.732
G1 X87.630 Y2.252
G1 X88.900 Y2.254
G1 X88.900 Y27.786
G0 Z6.350
G0 X86.360 Y25.081
G1 Z-1.732
G1 X86.360 Y32.536
G0 Z6.350
G0 X86.360 Y22.981
G1 Z-1.732
G1 X86.360 Y19.579
G1 X85.090 Y20.304
G1 X85.090 Y22.259
G1 X83.820 Y22.269
G1 X83.820 Y20.294
G1 X82.550 Y20.293
G1 X82.550 Y22.270
G1 X81.280 Y22.271
G1 X81.280 Y20.292
G1 X80.010 Y20.291
G1 X80.010 Y22.271
G1 X78.740 Y22.271
G1 X78.740 Y20.255
G1 X77.470 Y20.170
G1 X77.470 Y22.271
G1 X76.200 Y22.184
G1 X76.200 Y20.083
G1 X74.930 Y19.998
G1 X74.930 Y22.046
G1 X73.660 Y21.908
G1 X73.660 Y19.913
G1 X72.390 Y19.667
G1 X72.390 Y21.769
G1 X71.120 Y21.631
G1 X71.120 Y19.263
G1 X69.850 Y18.860
G1 X69.850 Y21.359
G1 X68.580 Y20.779
G1 X68.580 Y18.358
G1 X67.310 Y17.010
G1 X67.310 Y20.205
G1 X66.040 Y19.626
G1 X66.040 Y15.310
G0 Z6.350
G0 X63.500 Y16.739
G1 Z-1.732
G1 X63.500 Y6.202
G0 Z6.350
G0 X64.770 Y4.306
G1 Z-1.732
G1 X64.770 Y18.343
G0 Z6.350
G0 X62.230 Y12.005
G1 Z-1.732
G1 X62.230 Y10.689
G0 Z6.350
G0 X66.040 Y8.277
G1 Z-1.732
G1 X66.040 Y3.389
G1 X67.310 Y2.626
G1 X67.310 Y6.470
G1 X68.580 Y5.328
G1 X68.580 Y1.987
G1 X69.850 Y1.789
G1 X69.850 Y4.620
G1 X71.120 Y4.063
G1 X71.120 Y1.593
G1 X72.390 Y1.397
G1 X72.390 Y3.884
G1 X73.660 Y3.704
G1 X73.660 Y1.529
G1 X74.930 Y1.802
G1 X74.930 Y3.705
G1 X76.200 Y3.954
G1 X76.200 Y2.062
G1 X77.470 Y2.329
G1 X77.470 Y4.203
G1 X78.740 Y4.452
G1 X78.740 Y2.597
G1 X80.010 Y3.225
G1 X80.010 Y5.085
G1 X81.280 Y4.446
G1 X81.280 Y6.044
G1 X82.550 Y5.673
G1 X82.550 Y7.003
G1 X83.820 Y6.906
G1 X83.820 Y8.578
G1 X85.090 Y7.693
G1 X85.090 Y10.899
G0 Z6.350
G0 X86.360 Y6.984
G1 Z-1.732
G1 X86.360 Y16.535
G0 Z6.350
G0 X107.950 Y23.603
G1 Z-1.732
G1 X107.950 Y30.378
G1 X109.220 Y29.962
G1 X109.220 Y27.859
G0 Z6.350
G0 X110.490 Y30.203
G1 Z-1.732
G1 X110.490 Y30.896
G1 X111.760 Y31.173
G1 X111.760 Y32.155
G1 X113.030 Y32.134
G1 X113.030 Y33.392
G1 X114.300 Y32.945
G1 X114.300 Y34.631
G1 X115.570 Y35.134
G1 X115.570 Y33.251
G1 X116.840 Y33.478
G1 X116.840 Y35.442
G1 X118.110 Y35.748
G1 X118.110 Y33.706
G1 X119.380 Y33.873
G1 X119.380 Y36.053
G1 X120.650 Y36.320
G1 X120.650 Y33.644
G1 X121.920 Y33.412
G1 X121.920 Y36.108
G1 X123.190 Y35.884
G1 X123.190 Y33.155
G1 X124.460 Y32.249
G1 X124.460 Y35.660
G1 X125.730 Y35.270
G1 X125.730 Y31.276
G0 Z6.350
G0 X127.000 Y29.280
G1 Z-1.732
G1 X127.000 Y34.340
G1 X128.270 Y33.408
G1 X128.270 Y24.659
G0 Z6.350
G0 X130.810 Y29.114
G1 Z-1.732
G1 X130.810 Y2.247
G1 X129.540 Y2.249
G1 X129.540 Y31.633
G0 Z6.350
G0 X144.780 Y26.278
G1 Z-1.732
G1 X144.780 Y11.614
G0 Z6.350
G0 X146.050 Y9.328
G1 Z-1.732
G1 X146.050 Y28.407
G0 Z6.350
G0 X147.320 Y30.507
G1 Z-1.732
G1 X147.320 Y20.027
G0 Z6.350
G0 X147.320 Y17.663
G1 Z-1.732
G1 X147.320 Y7.213
G0 Z6.350
G0 X148.590 Y5.641
G1 Z-1.732
G1 X148.590 Y11.515
G0 Z6.350
G0 X149.860 Y9.178
G1 Z-1.732
G1 X149.860 Y4.774
G1 X151.130 Y3.910
G1 X151.130 Y7.383
G1 X152.400 Y6.478
G1 X152.400 Y3.046
G1 X153.670 Y2.434
G1 X153.670 Y5.574
G1 X154.940 Y4.701
G1 X154.940 Y2.213
G1 X156.210 Y1.991
G1 X156.210 Y4.435
G1 X157.480 Y4.210
G1 X157.480 Y1.770
G1 X158.750 Y1.548
G1 X158.750 Y3.984
G1 X160.020 Y3.759
G1 X160.020 Y1.369
G1 X161.290 Y1.465
G1 X161.290 Y3.766
G1 X162.560 Y3.935
G1 X162.560 Y1.595
G1 X163.830 Y1.726
G1 X163.830 Y4.104
G1 X165.100 Y4.272
G1 X165.100 Y1.856
G1 X166.370 Y2.248
G1 X166.370 Y4.551
G1 X167.640 Y5.075
G1 X167.640 Y2.676
G1 X168.910 Y3.117
G1 X168.910 Y5.578
G0 Z6.350
G0 X168.910 Y32.087
G1 Z-1.732
G1 X168.910 Y34.634
G1 X167.640 Y35.063
G1 X167.640 Y32.593
G1 X166.370 Y33.110
G1 X166.370 Y35.477
G1 X165.100 Y35.847
G1 X165.100 Y33.392
G1 X163.830 Y33.569
G1 X163.830 Y35.985
G1 X162.560 Y36.123
G1 X162.560 Y33.745
G1 X161.290 Y33.922
G1 X161.290 Y36.260
G1 X160.020 Y36.306
G1 X160.020 Y33.933
G1 X158.750 Y33.705
G1 X158.750 Y36.093
G1 X157.480 Y35.879
G1 X157.480 Y33.477
G1 X156.210 Y33.249
G1 X156.210 Y35.665
G1 X154.940 Y35.450
G1 X154.940 Y32.982
G1 X153.670 Y32.103
G1 X153.670 Y35.235
G1 X152.400 Y34.584
G1 X152.400 Y31.190
G1 X151.130 Y30.278
G1 X151.130 Y33.747
G1 X149.860 Y32.913
G1 X149.860 Y28.487
G0 Z6.350
G0 X148.590 Y26.162
G1 Z-1.732
G1 X148.590 Y32.075
G0 Z6.350
G0 X106.680 Y35.507
G1 Z-1.732
G1 X106.680 Y2.248
G1 X105.410 Y2.250
G1 X105.410 Y35.505
G0 Z6.350
M5
M2 
