G90
G21
G17 G64 P0.001 M3 S3000 
F127.0
G0 Z6.350
G0 X6.474 Y23.781
G1 Z-0.000
G1 X6.474 Y23.781 Z-0.000
G1 X5.474 Y23.527 Z-1.732
G1 Y6.504
G1 X5.508 Y5.991
G1 X5.608 Y5.750
G1 X5.767 Y5.543
G1 X5.974 Y5.384
G1 X6.215 Y5.284
G1 X6.734 Y5.250
G1 X16.599
G1 X17.229 Y5.287
G1 X21.691 Y5.829
G1 X24.807 Y7.390
G1 X25.240 Y7.644
G1 X25.552 Y8.040
G1 X27.409 Y10.772
G1 X28.060 Y14.612
G1 X28.060 Y15.452
G1 X27.408 Y19.303
G1 X25.548 Y22.000
G1 X25.238 Y22.390
G1 X24.807 Y22.641
G1 X21.691 Y24.202
G1 X17.229 Y24.745
G1 X16.599 Y24.781
G1 X6.734
G1 X6.215 Y24.747
G1 X5.974 Y24.647
G1 X5.767 Y24.488
G1 X5.608 Y24.281
G1 X5.508 Y24.040
G1 X5.474 Y23.527
G0 Z6.350
G0 X6.474 Y43.460
G1 Z-0.000
G1 X6.474 Y43.460 Z-0.000
G1 X5.474 Y43.203 Z-1.732
G1 Y29.295
G1 X5.508 Y28.779
G1 X5.608 Y28.538
G1 X5.767 Y28.331
G1 X5.974 Y28.172
G1 X6.215 Y28.072
G1 X6.733 Y28.038
G1 X15.798
G1 X16.422 Y28.071
G1 X20.039 Y28.456
G1 X20.848 Y28.678
G1 X23.728 Y30.015
G1 X24.058 Y30.392
G1 X25.776 Y32.651
G1 X25.895 Y33.145
G1 X26.448 Y36.250
G1 X25.895 Y39.332
G1 X25.775 Y39.824
G1 X24.057 Y42.075
G1 X23.730 Y42.449
G1 X23.284 Y42.686
G1 X20.854 Y43.807
G1 X20.041 Y44.034
G1 X16.424 Y44.426
G1 X15.798 Y44.460
G1 X6.733 Y44.460
G1 X6.215 Y44.426
G1 X5.974 Y44.326
G1 X5.767 Y44.167
G1 X5.608 Y43.960
G1 X5.508 Y43.719
G1 X5.474 Y43.203
G0 Z6.350
G0 X0.000 Y48.781
G1 Z-0.000
G1 X0.000 Y48.781 Z-0.000
G1 X1.018 Y47.781 Z-1.732
G1 X16.284
G1 X22.714 Y47.049
G1 X22.894 Y46.998
G1 X27.287 Y44.911
G1 X30.007 Y41.557
G1 X30.923 Y37.010
G1 X30.928 Y36.820
G1 X30.484 Y33.404
G1 X30.430 Y33.229
G1 X29.129 Y30.652
G1 X29.052 Y30.560
G1 X26.942 Y28.804
G1 X26.814 Y28.731
G1 X23.819 Y27.762
G1 X23.323 Y27.563
G1 X23.118 Y27.381
G1 X22.970 Y27.151
G1 X22.890 Y26.889
G1 X22.884 Y26.616
G1 X22.952 Y26.351
G1 X23.090 Y26.114
G1 X23.286 Y25.924
G1 X23.776 Y25.700
G1 X27.516 Y24.300
G1 X27.664 Y24.215
G1 X30.433 Y21.845
G1 X30.529 Y21.727
G1 X32.274 Y18.537
G1 X32.326 Y18.380
G1 X32.913 Y14.442
G1 X32.910 Y14.257
G1 X31.919 Y9.092
G1 X28.908 Y5.205
G1 X24.087 Y2.813
G1 X23.926 Y2.764
G1 X17.312 Y1.953
G1 X1.026 Y1.929
G1 X0.000 Y0.929 Z-0.000
G1 X1.000 Y1.948 Z-1.732
G1 Y47.763
G1 X0.255 Y48.526 Z-0.441
G1 X0.000 Y48.781 Z-0.000
G0 Z6.350
G0 X44.774 Y50.800
G1 Z-0.000
G1 X44.774 Y50.800
G1 X45.800 Y49.800 Z-1.732
G1 X49.646
G1 X50.672 Y50.800 Z-0.000
G1 X49.672 Y49.782 Z-1.732
G1 Y1.947
G1 X50.672 Y0.929 Z-0.000
G1 X49.646 Y1.929 Z-1.732
G1 X45.800
G1 X44.774 Y0.929 Z-0.000
G1 X45.774 Y1.947 Z-1.732
G1 Y49.782
G1 X45.029 Y50.546 Z-0.441
G1 X44.774 Y50.800 Z-0.000
G0 Z6.350
G0 X79.325 Y18.974
G1 Z-0.000
G1 X79.325 Y18.974
G1 X78.995 Y19.954 Z-1.732
G1 X73.471 Y19.581
G1 X72.715 Y19.436
G1 X69.375 Y18.374
G1 X68.887 Y18.185
G1 X68.503 Y17.821
G1 X66.812 Y16.012
G1 X66.466 Y15.587
G1 X66.321 Y15.070
G1 X65.665 Y11.774
G1 X66.256 Y8.555
G1 X68.047 Y6.019
G1 X70.848 Y4.445
G1 X73.950 Y3.984
G1 X74.809 Y4.005
G1 X79.180 Y4.888
G1 X82.966 Y7.743
G1 X85.393 Y12.142
G1 X86.143 Y17.258
G1 X86.190 Y17.923
G1 X86.156 Y19.233
G1 X86.056 Y19.474
G1 X85.897 Y19.681
G1 X85.690 Y19.840
G1 X85.449 Y19.940
G1 X84.935 Y19.974
G1 X78.995 Y19.954
G0 Z6.350
G0 X91.087 Y21.410
G1 Z-0.000
G1 X91.087 Y21.410 Z-0.000
G1 X90.087 Y21.154 Z-1.732
G1 X90.087 Y20.130
G1 X90.087 Y1.953
G1 X91.087 Y0.929 Z-0.000
G1 X90.062 Y1.929 Z-1.732
G1 X86.215
G1 X85.190 Y0.929 Z-0.000
G1 X85.968 Y1.708 Z-1.348
G1 X86.190 Y1.967 Z-1.732
G1 Y6.119
G1 X86.156 Y6.635
G1 X86.058 Y6.874
G1 X85.901 Y7.081
G1 X85.697 Y7.240
G1 X85.459 Y7.341
G1 X85.203 Y7.378
G1 X84.946 Y7.348
G1 X84.705 Y7.253
G1 X84.310 Y6.920
G1 X79.837 Y2.618
G1 X79.721 Y2.366 Z-1.557
G1 X79.445 Y2.411 Z-1.732
G1 X72.836 Y1.032
G1 X72.679 Y1.029
G1 X68.125 Y1.761
G1 X64.693 Y3.846
G1 X62.551 Y7.049
G1 X61.798 Y11.289
G1 X61.798 Y11.444
G1 X62.711 Y16.251
G1 X65.430 Y19.690
G1 X70.043 Y21.800
G1 X70.239 Y21.854
G1 X77.179 Y22.589
G1 X84.931 Y22.589
G1 X85.449 Y22.623
G1 X85.690 Y22.723
G1 X85.897 Y22.882
G1 X86.056 Y23.089
G1 X86.156 Y23.330
G1 X86.190 Y23.878
G1 X86.125 Y24.607
G1 X85.548 Y27.698
G1 X85.432 Y28.175
G1 X85.160 Y28.580
G1 X83.145 Y31.210
G1 X79.986 Y32.896
G1 X79.594 Y33.084
G1 X79.169 Y33.155
G1 X75.380 Y33.650
G1 X74.615 Y33.652
G1 X69.143 Y32.979
G1 X68.394 Y32.788
G1 X64.492 Y31.250
G1 X64.288 Y31.053 Z-1.545
G1 X63.396 Y29.743 Z-0.000
G1 X64.279 Y31.040 Z-1.529
G1 X64.396 Y31.300 Z-1.732
G1 X64.396 Y31.559
G1 X64.396 Y34.413
G1 X63.396 Y35.191 Z-0.000
G1 X64.097 Y34.667 Z-1.215
G1 X64.433 Y34.456 Z-1.732
G1 X69.710 Y36.017
G1 X70.043 Y36.084
G1 X75.456 Y36.669
G1 X75.712 Y36.665
G1 X82.098 Y35.697
G1 X86.502 Y32.928
G1 X89.169 Y28.184
G1 X90.062 Y21.533
G1 X91.087 Y21.409 Z-0.001
G1 X91.087 Y21.410 Z-0.000
G0 Z6.350
G0 X133.073 Y22.595
G1 Z-0.000
G1 X133.073 Y22.595
G1 X132.073 Y22.341 Z-1.732
G1 Y1.949
G1 X133.073 Y0.929 Z-0.000
G1 X132.048 Y1.929 Z-1.732
G1 X128.201
G1 X127.176 Y0.929 Z-0.000
G1 X128.176 Y1.952 Z-1.732
G1 Y22.148
G1 X128.140 Y22.776
G1 X127.702 Y26.707
G1 X127.470 Y27.527
G1 X126.208 Y30.212
G1 X125.967 Y30.659
G1 X125.589 Y30.984
G1 X123.109 Y32.845
G1 X122.616 Y32.963
G1 X119.229 Y33.563
G1 X114.573 Y32.725
G1 X111.339 Y30.490
G1 X110.958 Y30.193
G1 X110.699 Y29.792
G1 X108.683 Y26.248
G1 X107.988 Y21.624
G1 X107.939 Y20.961
G1 X107.939 Y1.957
G1 X108.939 Y0.929 Z-0.000
G1 X107.908 Y1.929 Z-1.732
G1 X104.041
G1 X103.010 Y0.929 Z-0.000
G1 X104.010 Y1.948 Z-1.732
G1 Y35.808
G1 X103.010 Y36.826 Z-0.000
G1 X104.041 Y35.826 Z-1.732
G1 X107.908
G1 X108.939 Y36.826 Z-0.000
G1 X108.143 Y36.029 Z-1.380
G1 X107.939 Y35.764 Z-1.732
G1 Y31.515
G1 X107.973 Y30.992
G1 X108.072 Y30.752
G1 X108.229 Y30.545
G1 X108.434 Y30.386
G1 X108.674 Y30.285
G1 X108.931 Y30.249
G1 X109.188 Y30.281
G1 X109.429 Y30.377
G1 X109.821 Y30.712
G1 X114.237 Y35.014
G1 X114.377 Y35.238 Z-1.622
G1 X114.387 Y35.220 Z-1.658
G1 X114.652 Y35.240 Z-1.732
G1 X120.521 Y36.657
G1 X125.589 Y35.772
G1 X129.102 Y33.191
G1 X131.268 Y28.911
G1 X131.319 Y28.744
G1 X132.049 Y22.736
G1 X133.073 Y22.595 Z-0.000
G1 X132.073 Y22.341 Z-1.732
G0 Z6.350
G0 X170.668 Y35.448
G1 Z-0.000
G1 X170.668 Y35.448 Z-0.000
G1 X169.941 Y34.923 Z-1.259
G1 X169.668 Y34.660 Z-1.732
G1 Y31.510
G1 X169.785 Y31.248 Z-1.528
G1 X170.668 Y29.935 Z-0.000
G1 X169.798 Y31.229 Z-1.506
G1 X169.608 Y31.447 Z-1.732
G1 X166.253 Y32.815
G1 X165.521 Y33.012
G1 X160.963 Y33.647
G1 X160.141 Y33.630
G1 X155.086 Y32.699
G1 X151.290 Y30.002
G1 X150.913 Y29.700
G1 X150.659 Y29.287
G1 X148.332 Y24.991
G1 X147.533 Y19.234
G1 X147.533 Y18.457
G1 X148.257 Y13.124
G1 X148.332 Y12.693
G1 X148.529 Y12.297
G1 X150.913 Y7.959
G1 X154.684 Y5.242
G1 X155.089 Y4.983
G1 X155.556 Y4.875
G1 X160.142 Y4.061
G1 X160.957 Y4.042
G1 X165.515 Y4.648
G1 X166.258 Y4.848
G1 X169.613 Y6.237
G1 X169.801 Y6.459 Z-1.501
G1 X170.668 Y7.756 Z-0.000
G1 X169.801 Y6.459 Z-1.502
G1 X169.668 Y6.199 Z-1.732
G1 Y3.086
G1 X169.945 Y2.827 Z-1.252
G1 X170.668 Y2.308 Z-0.000
G1 X169.950 Y2.823 Z-1.244
G1 X169.616 Y3.008 Z-1.732
G1 X165.464 Y1.607
G1 X165.183 Y1.545
G1 X160.084 Y1.021
G1 X159.853 Y1.029
G1 X153.003 Y2.247
G1 X147.772 Y5.831
G1 X144.414 Y11.492
G1 X143.299 Y18.739
G1 X143.299 Y18.947
G1 X144.463 Y26.394
G1 X147.841 Y31.964
G1 X153.232 Y35.490
G1 X160.222 Y36.662
G1 X160.461 Y36.670
G1 X165.275 Y36.148
G1 X165.573 Y36.082
G1 X169.599 Y34.748
G1 X169.934 Y34.918 Z-1.271
G1 X170.668 Y35.448 Z-0.000
G1 X170.668 Y35.448 Z-0.000
G0 Z6.350
M5
M2 
