999
"DXF R12 Output" (www.mydxf.blogspot.com)
 0 
SECTION
 2 
HEADER
 9 
$ACADVER
 1 
AC1009
 9 
$EXTMIN
 10 
 0 
 20 
 0 
 9 
$EXTMAX
 10 
 8.5 
 20 
 11 
 0 
ENDSEC
 0 
SECTION
 2 
ENTITIES
0
LINE
8
Layer 1
10
15.069500
20
8.329500
11
15.069500
21
5.641570
0
LINE
8
Layer 1
10
15.069500
20
5.641570
11
16.661700
21
5.641570
0
LINE
8
Layer 1
10
16.661700
20
5.641570
11
17.358252
21
5.723879
0
LINE
8
Layer 1
10
17.358252
20
5.723879
11
17.845960
21
5.970805
0
LINE
8
Layer 1
10
17.845960
20
5.970805
11
18.137112
21
6.392177
0
LINE
8
Layer 1
10
18.137112
20
6.392177
11
18.234163
21
6.987995
0
LINE
8
Layer 1
10
18.234163
20
6.987995
11
18.137112
21
7.585039
0
LINE
8
Layer 1
10
18.137112
20
7.585039
11
17.845960
21
8.000265
0
LINE
8
Layer 1
10
17.845960
20
8.000265
11
17.358250
21
8.247191
0
LINE
8
Layer 1
10
17.358250
20
8.247191
11
16.661700
21
8.329500
0
LINE
8
Layer 1
10
16.661700
20
8.329500
11
15.069500
21
8.329500
0
LINE
8
Layer 1
10
15.069500
20
11.346670
11
15.069500
21
9.135390
0
LINE
8
Layer 1
10
15.069500
20
9.135390
11
16.538800
21
9.135390
0
LINE
8
Layer 1
10
16.538800
20
9.135390
11
17.172700
21
9.202957
0
LINE
8
Layer 1
10
17.172700
20
9.202957
11
17.619870
21
9.405658
0
LINE
8
Layer 1
10
17.619870
20
9.405658
11
17.888909
21
9.752092
0
LINE
8
Layer 1
10
17.888909
20
9.752092
11
17.978589
21
10.241031
0
LINE
8
Layer 1
10
17.978589
20
10.241031
11
17.888909
21
10.726284
0
LINE
8
Layer 1
10
17.888909
20
10.726284
11
17.619870
21
11.071490
0
LINE
8
Layer 1
10
17.619870
20
11.071490
11
17.172700
21
11.277876
0
LINE
8
Layer 1
10
17.172700
20
11.277876
11
16.538800
21
11.346672
0
LINE
8
Layer 1
10
16.538800
20
11.346672
11
15.069500
21
11.346670
0
LINE
8
Layer 1
10
14.076900
20
12.162400
11
16.612500
21
12.162400
0
LINE
8
Layer 1
10
16.612500
20
12.162400
11
17.617403
21
12.044465
0
LINE
8
Layer 1
10
17.617403
20
12.044465
11
18.361870
21
11.690660
0
LINE
8
Layer 1
10
18.361870
20
11.690660
11
18.822554
21
11.119412
0
LINE
8
Layer 1
10
18.822554
20
11.119412
11
18.976115
21
10.349150
0
LINE
8
Layer 1
10
18.976115
20
10.349150
11
18.897492
21
9.744734
0
LINE
8
Layer 1
10
18.897492
20
9.744734
11
18.661622
21
9.277910
0
LINE
8
Layer 1
10
18.661622
20
9.277910
11
18.273420
21
8.954818
0
LINE
8
Layer 1
10
18.273420
20
8.954818
11
17.737798
21
8.781600
0
LINE
8
Layer 1
10
17.737798
20
8.781600
11
18.387668
21
8.538359
0
LINE
8
Layer 1
10
18.387668
20
8.538359
11
18.872918
21
8.123130
0
LINE
8
Layer 1
10
18.872918
20
8.123130
11
19.178812
21
7.564168
0
LINE
8
Layer 1
10
19.178812
20
7.564168
11
19.280776
21
6.879900
0
LINE
8
Layer 1
10
19.280776
20
6.879900
11
19.113702
21
6.008902
0
LINE
8
Layer 1
10
19.113702
20
6.008902
11
18.612478
21
5.361490
0
LINE
8
Layer 1
10
18.612478
20
5.361490
11
17.802904
21
4.959774
0
LINE
8
Layer 1
10
17.802904
20
4.959774
11
16.710778
21
4.825869
0
LINE
8
Layer 1
10
16.710778
20
4.825869
11
14.076900
21
4.825850
0
LINE
8
Layer 1
10
14.076900
20
4.825850
11
14.076900
21
12.162400
0
LINE
8
Layer 1
10
20.941700
20
12.472000
11
21.845900
21
12.472000
0
LINE
8
Layer 1
10
21.845900
20
12.472000
11
21.845900
21
4.825850
0
LINE
8
Layer 1
10
21.845900
20
4.825850
11
20.941700
21
4.825850
0
LINE
8
Layer 1
10
20.941700
20
4.825850
11
20.941700
21
12.472000
0
LINE
8
Layer 1
10
26.239000
20
7.592410
11
25.311492
21
7.529757
0
LINE
8
Layer 1
10
25.311492
20
7.529757
11
24.720590
21
7.341798
0
LINE
8
Layer 1
10
24.720590
20
7.341798
11
24.403640
21
7.002735
0
LINE
8
Layer 1
10
24.403640
20
7.002735
11
24.297990
21
6.486770
0
LINE
8
Layer 1
10
24.297990
20
6.486770
11
24.376613
21
6.054342
0
LINE
8
Layer 1
10
24.376613
20
6.054342
11
24.612483
21
5.720193
0
LINE
8
Layer 1
10
24.612483
20
5.720193
11
24.988400
21
5.510122
0
LINE
8
Layer 1
10
24.988400
20
5.510122
11
25.477339
21
5.440098
0
LINE
8
Layer 1
10
25.477339
20
5.440098
11
26.154236
21
5.572775
0
LINE
8
Layer 1
10
26.154236
20
5.572775
11
26.681259
21
5.970805
0
LINE
8
Layer 1
10
26.681259
20
5.970805
11
27.024007
21
6.593648
0
LINE
8
Layer 1
10
27.024007
20
6.593648
11
27.138257
21
7.390935
0
LINE
8
Layer 1
10
27.138257
20
7.390935
11
27.138200
21
7.592410
0
LINE
8
Layer 1
10
27.138200
20
7.592410
11
26.239000
21
7.592410
0
LINE
8
Layer 1
10
28.042420
20
7.965871
11
28.042400
21
4.825850
0
LINE
8
Layer 1
10
28.042400
20
4.825850
11
27.138200
21
4.825850
0
LINE
8
Layer 1
10
27.138200
20
4.825850
11
27.138200
21
5.661220
0
LINE
8
Layer 1
10
27.138200
20
5.661220
11
26.366709
21
4.919213
0
LINE
8
Layer 1
10
26.366709
20
4.919213
11
25.236499
21
4.683343
0
LINE
8
Layer 1
10
25.236499
20
4.683343
11
24.477294
21
4.801278
0
LINE
8
Layer 1
10
24.477294
20
4.801278
11
23.890079
21
5.155083
0
LINE
8
Layer 1
10
23.890079
20
5.155083
11
23.517847
21
5.711587
0
LINE
8
Layer 1
10
23.517847
20
5.711587
11
23.393769
21
6.427793
0
LINE
8
Layer 1
10
23.393769
20
6.427793
11
23.548559
21
7.242282
0
LINE
8
Layer 1
10
23.548559
20
7.242282
11
24.012927
21
7.828273
0
LINE
8
Layer 1
10
24.012927
20
7.828273
11
24.789333
21
8.182078
0
LINE
8
Layer 1
10
24.789333
20
8.182078
11
25.870407
21
8.300013
0
LINE
8
Layer 1
10
25.870407
20
8.300013
11
27.138200
21
8.300020
0
LINE
8
Layer 1
10
27.138200
20
8.300020
11
27.138200
21
8.388470
0
LINE
8
Layer 1
10
27.138200
20
8.388470
11
27.035007
21
8.941290
0
LINE
8
Layer 1
10
27.035007
20
8.941290
11
26.725428
21
9.351605
0
LINE
8
Layer 1
10
26.725428
20
9.351605
11
26.234032
21
9.609588
0
LINE
8
Layer 1
10
26.234032
20
9.609588
11
25.575558
21
9.695582
0
LINE
8
Layer 1
10
25.575558
20
9.695582
11
24.656648
21
9.582561
0
LINE
8
Layer 1
10
24.656648
20
9.582561
11
23.796706
21
9.243498
0
LINE
8
Layer 1
10
23.796706
20
9.243498
11
23.796700
21
10.078900
0
LINE
8
Layer 1
10
23.796700
20
10.078900
11
24.759835
21
10.363910
0
LINE
8
Layer 1
10
24.759835
20
10.363910
11
25.668917
21
10.462189
0
LINE
8
Layer 1
10
25.668917
20
10.462189
11
26.711905
21
10.307400
0
LINE
8
Layer 1
10
26.711905
20
10.307400
11
27.452687
21
9.843031
0
LINE
8
Layer 1
10
27.452687
20
9.843031
11
27.894943
21
9.064169
0
LINE
8
Layer 1
10
27.894943
20
9.064169
11
28.042362
21
7.965901
0
LINE
8
Layer 1
10
28.042362
20
7.965901
11
28.042420
21
7.965871
0
LINE
8
Layer 1
10
34.479700
20
8.147680
11
34.479700
21
4.825850
0
LINE
8
Layer 1
10
34.479700
20
4.825850
11
33.575500
21
4.825850
0
LINE
8
Layer 1
10
33.575500
20
4.825850
11
33.575500
21
8.118200
0
LINE
8
Layer 1
10
33.575500
20
8.118200
11
33.499333
21
8.801240
0
LINE
8
Layer 1
10
33.499333
20
8.801240
11
33.270833
21
9.287720
0
LINE
8
Layer 1
10
33.270833
20
9.287720
11
32.890002
21
9.578872
0
LINE
8
Layer 1
10
32.890002
20
9.578872
11
32.356837
21
9.675923
0
LINE
8
Layer 1
10
32.356837
20
9.675923
11
31.702054
21
9.559217
0
LINE
8
Layer 1
10
31.702054
20
9.559217
11
31.202057
21
9.209097
0
LINE
8
Layer 1
10
31.202057
20
9.209097
11
30.885108
21
8.657507
0
LINE
8
Layer 1
10
30.885108
20
8.657507
11
30.779458
21
7.936387
0
LINE
8
Layer 1
10
30.779458
20
7.936387
11
30.779500
21
4.825850
0
LINE
8
Layer 1
10
30.779500
20
4.825850
11
29.870400
21
4.825850
0
LINE
8
Layer 1
10
29.870400
20
4.825850
11
29.870400
21
10.329500
0
LINE
8
Layer 1
10
29.870400
20
10.329500
11
30.779500
21
10.329500
0
LINE
8
Layer 1
10
30.779500
20
10.329500
11
30.779500
21
9.474450
0
LINE
8
Layer 1
10
30.779500
20
9.474450
11
31.541164
21
10.216457
0
LINE
8
Layer 1
10
31.541164
20
10.216457
11
32.558354
21
10.462155
0
LINE
8
Layer 1
10
32.558354
20
10.462155
11
33.391272
21
10.314736
0
LINE
8
Layer 1
10
33.391272
20
10.314736
11
33.993234
21
9.872480
0
LINE
8
Layer 1
10
33.993234
20
9.872480
11
34.358096
21
9.148899
0
LINE
8
Layer 1
10
34.358096
20
9.148899
11
34.479717
21
8.147680
0
LINE
8
Layer 1
10
34.479717
20
8.147680
11
34.479700
21
8.147680
0
LINE
8
Layer 1
10
40.243700
20
10.118200
11
40.243700
21
9.272980
0
LINE
8
Layer 1
10
40.243700
20
9.272980
11
39.472207
21
9.587473
0
LINE
8
Layer 1
10
39.472207
20
9.587473
11
38.695803
21
9.695580
0
LINE
8
Layer 1
10
38.695803
20
9.695580
11
37.914484
21
9.555532
0
LINE
8
Layer 1
10
37.914484
20
9.555532
11
37.329723
21
9.135389
0
LINE
8
Layer 1
10
37.329723
20
9.135389
11
36.964861
21
8.467091
0
LINE
8
Layer 1
10
36.964861
20
8.467091
11
36.843240
21
7.572749
0
LINE
8
Layer 1
10
36.843240
20
7.572749
11
36.964861
21
6.677182
0
LINE
8
Layer 1
10
36.964861
20
6.677182
11
37.329723
21
6.005199
0
LINE
8
Layer 1
10
37.329723
20
6.005199
11
37.914483
21
5.588741
0
LINE
8
Layer 1
10
37.914483
20
5.588741
11
38.695803
21
5.449922
0
LINE
8
Layer 1
10
38.695803
20
5.449922
11
39.472207
21
5.553115
0
LINE
8
Layer 1
10
39.472207
20
5.553115
11
40.243700
21
5.872522
0
LINE
8
Layer 1
10
40.243700
20
5.872522
11
40.243700
21
5.037150
0
LINE
8
Layer 1
10
40.243700
20
5.037150
11
39.457466
21
4.771796
0
LINE
8
Layer 1
10
39.457466
20
4.771796
11
38.597524
21
4.683345
0
LINE
8
Layer 1
10
38.597524
20
4.683345
11
37.482056
21
4.878675
0
LINE
8
Layer 1
10
37.482056
20
4.878675
11
36.622114
21
5.464664
0
LINE
8
Layer 1
10
36.622114
20
5.464664
11
36.072979
21
6.382346
0
LINE
8
Layer 1
10
36.072979
20
6.382346
11
35.889934
21
7.572754
0
LINE
8
Layer 1
10
35.889934
20
7.572754
11
36.074207
21
8.775441
0
LINE
8
Layer 1
10
36.074207
20
8.775441
11
36.627027
21
9.690664
0
LINE
8
Layer 1
10
36.627027
20
9.690664
11
37.505395
21
10.269282
0
LINE
8
Layer 1
10
37.505395
20
10.269282
11
38.656487
21
10.462155
0
LINE
8
Layer 1
10
38.656487
20
10.462155
11
39.472202
21
10.373704
0
LINE
8
Layer 1
10
39.472202
20
10.373704
11
40.243695
21
10.118178
0
LINE
8
Layer 1
10
40.243695
20
10.118178
11
40.243700
21
10.118200
 0 
ENDSEC
 0 
EOF