(##########################################)
G90
G21
G0 Z6.350
G0 X5.083 Y45.800
G1 Z-1.732 F127.000
G1 X122.756 Y45.800
G1 X122.839 Y45.720
G1 X122.839 Y5.080
G1 X122.756 Y5.000
G1 X81.583 Y5.000
G1 X81.706 Y5.032
G1 X83.594 Y5.321
G1 X84.892 Y5.635
G1 X86.064 Y6.265
G1 X88.084 Y7.584
G1 X89.252 Y8.529
G1 X90.092 Y9.760
G1 X91.311 Y12.009
G1 X91.796 Y13.083
G1 X92.056 Y13.897
G1 X94.457 Y12.376
G1 X95.576 Y11.788
G1 X96.812 Y11.484
G1 X99.975 Y10.971
G1 X101.828 Y10.919
G1 X104.528 Y11.201
G1 X106.042 Y11.515
G1 X108.640 Y12.334
G1 X110.309 Y13.120
G1 X111.429 Y14.228
G1 X112.148 Y15.629
G1 X112.397 Y17.452
G1 X112.397 Y19.589
G1 X112.205 Y21.229
G1 X112.387 Y21.733
G1 X112.887 Y22.939
G1 X113.057 Y24.510
G1 X113.057 Y25.339
G1 X112.965 Y26.609
G1 X112.536 Y29.517
G1 X112.272 Y30.697
G1 X111.741 Y31.793
G1 X110.498 Y33.945
G1 X109.724 Y35.052
G1 X108.702 Y35.916
G1 X106.758 Y37.292
G1 X105.588 Y37.974
G1 X104.283 Y38.331
G1 X101.694 Y38.798
G1 X100.551 Y38.924
G1 X99.399 Y38.798
G1 X96.459 Y38.272
G1 X95.161 Y37.922
G1 X93.995 Y37.252
G1 X91.982 Y35.852
G1 X91.855 Y36.009
G1 X91.060 Y37.045
G1 X90.024 Y37.840
G1 X88.819 Y38.339
G1 X87.268 Y38.509
G1 X84.956 Y38.509
G1 X83.405 Y38.339
G1 X82.823 Y38.218
G1 X80.559 Y38.739
G1 X79.231 Y38.924
G1 X77.893 Y38.761
G1 X75.556 Y38.268
G1 X74.184 Y37.838
G1 X72.986 Y37.049
G1 X71.967 Y36.227
G1 X71.096 Y37.045
G1 X70.060 Y37.840
G1 X68.854 Y38.339
G1 X67.303 Y38.509
G1 X64.991 Y38.509
G1 X63.440 Y38.339
G1 X62.235 Y37.840
G1 X61.199 Y37.045
G1 X60.404 Y36.009
G1 X60.311 Y36.009
G1 X59.517 Y37.045
G1 X58.481 Y37.840
G1 X57.275 Y38.339
G1 X55.724 Y38.509
G1 X53.412 Y38.509
G1 X51.861 Y38.339
G1 X50.655 Y37.840
G1 X49.620 Y37.045
G1 X48.744 Y36.187
G1 X47.287 Y37.235
G1 X46.114 Y37.927
G1 X44.802 Y38.290
G1 X42.018 Y38.797
G1 X40.871 Y38.924
G1 X39.723 Y38.798
G1 X36.929 Y38.291
G1 X35.616 Y37.928
G1 X34.443 Y37.237
G1 X33.192 Y36.339
G1 X32.833 Y37.430
G1 X32.135 Y38.639
G1 X31.006 Y40.243
G1 X30.027 Y41.376
G1 X28.771 Y42.178
G1 X26.824 Y43.164
G1 X25.771 Y43.612
G1 X24.652 Y43.823
G1 X21.748 Y44.171
G1 X20.630 Y44.238
G1 X14.146 Y44.238
G1 X12.593 Y44.067
G1 X11.387 Y43.568
G1 X10.351 Y42.773
G1 X9.557 Y41.738
G1 X9.057 Y40.532
G1 X8.887 Y38.983
G1 X8.887 Y16.564
G1 X9.057 Y15.015
G1 X9.557 Y13.809
G1 X10.351 Y12.774
G1 X11.387 Y11.979
G1 X12.593 Y11.480
G1 X14.145 Y11.309
G1 X16.730 Y11.309
G1 X18.283 Y11.480
G1 X19.489 Y11.979
G1 X20.524 Y12.774
G1 X21.319 Y13.809
G1 X21.818 Y15.015
G1 X21.989 Y16.564
G1 X21.989 Y17.839
G1 X22.063 Y17.842
G1 X23.823 Y14.313
G1 X24.721 Y12.939
G1 X25.784 Y12.058
G1 X27.047 Y11.500
G1 X28.671 Y11.309
G1 X31.491 Y11.309
G1 X33.006 Y11.471
G1 X34.184 Y11.943
G1 X35.616 Y11.859
G1 X36.929 Y11.497
G1 X39.723 Y10.990
G1 X40.871 Y10.864
G1 X42.018 Y10.991
G1 X44.802 Y11.497
G1 X46.114 Y11.861
G1 X47.286 Y12.552
G1 X49.369 Y14.050
G1 X50.399 Y14.942
G1 X50.882 Y14.467
G1 X51.952 Y13.516
G1 X53.424 Y12.440
G1 X54.623 Y11.725
G1 X55.974 Y11.355
G1 X58.059 Y10.986
G1 X59.339 Y10.866
G1 X60.615 Y11.063
G1 X62.977 Y11.628
G1 X63.440 Y11.480
G1 X64.991 Y11.309
G1 X67.303 Y11.309
G1 X68.854 Y11.480
G1 X69.225 Y11.498
G1 X69.225 Y10.948
G1 X69.397 Y9.375
G1 X69.900 Y8.165
G1 X70.699 Y7.128
G1 X71.740 Y6.334
G1 X73.209 Y5.770
G1 X75.260 Y5.230
G1 X76.500 Y5.000
G1 X5.083 Y5.000
G1 X5.000 Y5.080
G1 X5.000 Y45.720
G1 X5.083 Y45.800
G0 Z6.350
G0 X9.947 Y43.800
G1 Z-1.732
G1 X7.000 Y43.800
G1 X7.000 Y40.120
G1 X7.012 Y40.120
G0 Z6.350
G0 X26.774 Y43.800
G1 Z-1.732
G1 X120.839 Y43.800
G1 X120.839 Y40.120
G1 X33.093 Y40.120
G0 Z6.350
G0 X7.329 Y14.360
G1 Z-1.732
G1 X7.000 Y14.360
G1 X7.000 Y10.680
G1 X67.255 Y10.680
G1 X68.867 Y7.000
G1 X7.000 Y7.000
G0 Z6.350
G0 X89.190 Y7.000
G1 Z-1.732
G1 X120.839 Y7.000
G1 X120.839 Y10.680
G1 X92.591 Y10.680
G0 Z6.350
G0 X113.497 Y14.360
G1 Z-1.732
G1 X120.839 Y14.360
G1 X120.839 Y18.040
G1 X114.397 Y18.040
G1 X114.382 Y21.720
G1 X120.839 Y21.720
G1 X120.839 Y25.400
G1 X115.053 Y25.400
G1 X114.600 Y29.080
G1 X120.839 Y29.080
G1 X120.839 Y32.760
G1 X113.182 Y32.760
G1 X109.962 Y36.440
G1 X120.839 Y36.440
G0 Z6.350
M5
M2 
