G90
G21
G17 G64 P0.001 M3 S3000 
F127.0
G0 Z6.350
G0 X0.000 Y50.800
G1 Z-0.000
G1 X0.000 Y50.800 Z-0.000
G1 X1.017 Y49.800 Z-1.732
G1 X126.822
G1 X127.839 Y50.800 Z-0.000
G1 X126.839 Y49.784 Z-1.732
G1 Y1.016
G1 X127.839 Y0.000 Z-0.000
G1 X126.822 Y1.000 Z-1.732
G1 X1.017
G1 X0.000 Y0.000 Z-0.000
G1 X1.000 Y1.016 Z-1.732
G1 Y49.784
G1 X0.254 Y50.546 Z-0.440
G1 X0.000 Y50.800 Z-0.000
G0 Z6.350
G0 X13.887 Y39.238
G1 Z-0.000
G1 X13.887 Y39.238
G1 X12.887 Y38.983 Z-1.732
G1 Y16.564
G1 X12.921 Y16.051
G1 X13.021 Y15.809
G1 X13.180 Y15.602
G1 X13.387 Y15.443
G1 X13.628 Y15.344
G1 X14.145 Y15.309
G1 X16.730
G1 X17.247 Y15.344
G1 X17.489 Y15.443
G1 X17.696 Y15.602
G1 X17.855 Y15.809
G1 X17.955 Y16.051
G1 X17.989 Y16.564
G1 Y24.980
G1 X16.989 Y26.000 Z-0.000
G1 X17.768 Y25.220 Z-1.350
G1 X18.028 Y25.000 Z-1.732
G1 X20.107
G1 X20.380 Y24.963
G1 X22.491 Y24.416
G1 X22.821 Y24.590 Z-1.297
G1 X22.776 Y24.224 Z-1.732
G1 X24.513 Y21.823
G1 X24.704 Y21.509
G1 X27.402 Y16.098
G1 X27.676 Y15.635
G1 X27.888 Y15.459
G1 X28.141 Y15.348
G1 X28.671 Y15.309
G1 X31.491
G1 X31.999 Y15.342
G1 X32.234 Y15.436
G1 X32.438 Y15.587
G1 X32.598 Y15.785
G1 X32.703 Y16.016
G1 X32.746 Y16.266
G1 X32.725 Y16.519
G1 X32.524 Y16.990
G1 X29.609 Y22.792
G1 X29.311 Y23.323
G1 X27.430 Y26.293
G1 X26.863 Y26.738
G1 X26.620 Y26.861 Z-1.651
G1 X24.760 Y27.059 Z-0.000
G1 X26.599 Y26.863 Z-1.633
G1 X27.355 Y27.320 Z-1.732
G1 X28.493 Y28.462
G1 X29.233 Y29.996
G1 X29.466 Y30.809
G1 X29.647 Y32.224
G1 X29.633 Y33.062
G1 X29.132 Y35.912
G1 X27.735 Y37.941
G1 X27.410 Y38.351
G1 X26.964 Y38.610
G1 X24.612 Y39.784
G1 X21.273 Y40.199
G1 X20.630 Y40.238
G1 X14.146
G1 X13.628 Y40.204
G1 X13.387 Y40.104
G1 X13.180 Y39.945
G1 X13.021 Y39.738
G1 X12.921 Y39.496
G1 X12.887 Y38.983
G0 Z6.350
G0 X16.989 Y36.688
G1 Z-0.000
G1 X16.989 Y36.688 Z-0.000
G1 X17.769 Y35.908 Z-1.351
G1 X18.029 Y35.688 Z-1.732
G1 X20.630
G1 X22.445 Y35.476
G1 X22.611 Y35.425
G1 X23.586 Y34.884
G1 X24.186 Y33.983
G1 X24.392 Y32.724
G1 X24.392 Y32.542
G1 X24.186 Y31.277
G1 X23.582 Y30.350
G1 X22.611 Y29.812
G1 X22.445 Y29.761
G1 X20.630 Y29.549
G1 X18.029
G1 X17.769 Y29.329 Z-1.351
G1 X16.989 Y28.549 Z-0.000
G1 X17.989 Y29.566 Z-1.732
G1 Y35.671
G1 X17.243 Y36.434 Z-0.441
G1 X16.989 Y36.688 Z-0.000
G0 Z6.350
G0 X40.870 Y33.924
G1 Z-0.000
G1 X40.870 Y33.924
G1 X40.437 Y34.862 Z-1.732
G1 X37.177 Y34.246
G1 X34.316 Y32.191
G1 X32.549 Y28.986
G1 X32.020 Y25.283
G1 X32.023 Y24.487
G1 X32.548 Y20.810
G1 X34.315 Y17.597
G1 X37.177 Y15.542
G1 X40.870 Y14.864
G1 X44.551 Y15.542
G1 X47.407 Y17.596
G1 X49.186 Y20.808
G1 X49.716 Y24.486
G1 X49.718 Y25.284
G1 X49.186 Y28.988
G1 X47.407 Y32.192
G1 X44.551 Y34.245
G1 X41.302 Y34.862
G1 X40.870 Y34.924
G1 X40.437 Y34.862
G0 Z6.350
G0 X40.870 Y31.528
G1 Z-0.000
G1 X40.870 Y31.528 Z-0.000
G1 X40.906 Y30.496 Z-1.732
G1 X42.432 Y30.155
G1 X43.653 Y29.071
G1 X44.424 Y27.438
G1 X44.478 Y27.238
G1 X44.742 Y25.048
G1 X44.742 Y24.738
G1 X44.478 Y22.539
G1 X44.423 Y22.337
G1 X43.653 Y20.700
G1 X42.435 Y19.630
G1 X40.907 Y19.292
G1 X39.274 Y19.629
G1 X38.059 Y20.681
G1 X37.297 Y22.321
G1 X37.242 Y22.527
G1 X36.981 Y24.735
G1 X36.981 Y25.051
G1 X37.245 Y27.256
G1 X37.300 Y27.456
G1 X38.070 Y29.087
G1 X39.291 Y30.157
G1 X40.906 Y30.496
G0 Z6.350
G0 X53.155 Y33.509
G1 Z-0.000
G1 X53.155 Y33.509 Z-0.000
G1 X52.155 Y33.249 Z-1.732
G1 Y23.357
G1 X52.195 Y22.715
G1 X52.515 Y20.114
G1 X52.763 Y19.296
G1 X53.929 Y17.059
G1 X54.311 Y16.746
G1 X56.191 Y15.405
G1 X59.220 Y14.864
G1 X59.685 Y14.954
G1 X62.309 Y15.581
G1 X62.822 Y15.740
G1 X63.590 Y16.439
G1 X63.758 Y16.635 Z-1.692
G1 X64.735 Y18.951 Z-0.000
G1 X63.735 Y16.574 Z-1.732
G1 X63.769 Y16.051
G1 X63.869 Y15.809
G1 X64.027 Y15.602
G1 X64.235 Y15.443
G1 X64.476 Y15.344
G1 X64.991 Y15.309
G1 X67.303
G1 X67.819 Y15.344
G1 X68.060 Y15.443
G1 X68.267 Y15.602
G1 X68.426 Y15.809
G1 X68.526 Y16.051
G1 X68.560 Y16.566
G1 Y33.253
G1 X68.526 Y33.768
G1 X68.426 Y34.009
G1 X68.267 Y34.217
G1 X68.060 Y34.375
G1 X67.819 Y34.475
G1 X67.303 Y34.509
G1 X64.991
G1 X64.476 Y34.475
G1 X64.235 Y34.375
G1 X64.027 Y34.217
G1 X63.869 Y34.009
G1 X63.769 Y33.768
G1 X63.735 Y33.253
G1 Y24.014
G1 X63.453 Y21.932
G1 X63.393 Y21.760
G1 X62.602 Y20.443
G1 X61.404 Y19.625
G1 X59.870 Y19.351
G1 X58.580 Y19.557
G1 X57.778 Y20.146
G1 X57.244 Y21.233
G1 X57.183 Y21.444
G1 X56.981 Y23.462
G1 Y33.252
G1 X56.947 Y33.768
G1 X56.847 Y34.009
G1 X56.688 Y34.217
G1 X56.481 Y34.375
G1 X56.240 Y34.475
G1 X55.724 Y34.509
G1 X53.412
G1 X52.897 Y34.475
G1 X52.655 Y34.375
G1 X52.448 Y34.217
G1 X52.289 Y34.009
G1 X52.189 Y33.768
G1 X52.155 Y33.249
G0 Z6.350
G0 X79.186 Y33.924
G1 Z-0.000
G1 X79.186 Y33.924 Z-0.000
G1 X78.719 Y34.848 Z-1.732
G1 X75.900 Y34.224
G1 X75.497 Y33.935
G1 X73.312 Y32.145
G1 X71.868 Y29.400
G1 X71.610 Y28.583
G1 X71.195 Y25.499
G1 X71.195 Y24.719
G1 X71.610 Y21.645
G1 X71.869 Y20.830
G1 X73.312 Y18.087
G1 X75.498 Y16.298
G1 X75.900 Y16.009
G1 X76.382 Y15.879
G1 X79.195 Y15.309
G1 X82.429 Y16.029
G1 X82.944 Y16.188
G1 X83.537 Y16.744 Z-1.718
G1 X84.153 Y18.004 Z-0.945
G1 X84.699 Y19.335 Z-0.000
G1 X84.038 Y17.766 Z-1.094
G1 X83.558 Y16.787 Z-1.692
G1 X83.500 Y16.534 Z-1.732
G1 X83.397 Y15.766
G1 X82.566 Y14.269
G1 X81.267 Y13.448
G1 X79.277 Y13.131
G1 X79.010 Y13.129
G1 X77.086 Y13.380
G1 X76.813 Y13.450
G1 X74.847 Y14.248
G1 X74.332 Y14.416
G1 X74.053 Y14.407
G1 X73.788 Y14.321
G1 X73.557 Y14.165
G1 X73.378 Y13.952
G1 X73.264 Y13.698
G1 X73.225 Y13.147
G1 Y10.948
G1 X73.260 Y10.413
G1 X73.360 Y10.171
G1 X73.520 Y9.964
G1 X73.728 Y9.805
G1 X74.227 Y9.638
G1 X76.279 Y9.098
G1 X76.964 Y8.980
G1 X79.263 Y8.792
G1 X80.021 Y8.820
G1 X82.987 Y9.275
G1 X83.463 Y9.371
G1 X83.877 Y9.614
G1 X86.310 Y11.239
G1 X86.575 Y11.665
G1 X87.989 Y14.309
G1 X88.484 Y18.062
G1 X88.524 Y18.699
G1 Y33.254
G1 X88.490 Y33.768
G1 X88.390 Y34.009
G1 X88.232 Y34.217
G1 X88.024 Y34.375
G1 X87.783 Y34.475
G1 X87.268 Y34.509
G1 X84.956
G1 X84.440 Y34.475
G1 X84.199 Y34.375
G1 X83.992 Y34.217
G1 X83.833 Y34.009
G1 X83.733 Y33.768
G1 X83.735 Y33.248 Z-1.670
G1 X84.699 Y30.899 Z-0.000
G1 X83.716 Y33.293 Z-1.701
G1 X83.355 Y33.684 Z-1.732
G1 X82.944 Y34.044
G1 X82.429 Y34.204
G1 X79.195 Y34.924
G1 X78.719 Y34.848
G0 Z6.350
G0 X79.877 Y31.559
G1 Z-0.000
G1 X79.877 Y31.559 Z-0.000
G1 X79.927 Y30.527 Z-1.732
G1 X81.450 Y30.210
G1 X82.638 Y29.190
G1 X83.356 Y27.664
G1 X83.419 Y27.446
G1 X83.674 Y25.266
G1 X83.674 Y24.954
G1 X83.419 Y22.783
G1 X83.356 Y22.567
G1 X82.639 Y21.043
G1 X81.450 Y20.023
G1 X79.828 Y19.706
G1 X78.310 Y20.023
G1 X77.118 Y21.039
G1 X76.410 Y22.562
G1 X76.347 Y22.781
G1 X76.095 Y24.953
G1 X76.095 Y25.267
G1 X76.347 Y27.448
G1 X76.410 Y27.668
G1 X77.118 Y29.194
G1 X78.310 Y30.211
G1 X79.927 Y30.527
G0 Z6.350
G0 X100.578 Y31.528
G1 Z-0.000
G1 X100.578 Y31.528 Z-0.000
G1 X100.666 Y30.495 Z-1.732
G1 X102.092 Y30.218
G1 X103.140 Y29.478
G1 X103.893 Y28.249
G1 X104.031 Y27.586
G1 X104.174 Y27.342 Z-1.557
G1 X105.231 Y26.445 Z-0.000
G1 X104.197 Y27.322 Z-1.523
G1 X103.938 Y27.443 Z-1.732
G1 X103.680 Y27.443
G1 X96.447 Y27.431
G1 X95.157 Y26.429 Z-0.000
G1 X96.263 Y27.304 Z-1.511
G1 X96.451 Y27.543 Z-1.732
G1 X96.653 Y28.244
G1 X97.448 Y29.393
G1 X98.726 Y30.195
G1 X98.869 Y30.248
G1 X100.467 Y30.499
G1 X100.666 Y30.495
G0 Z6.350
G0 X100.547 Y33.924
G1 Z-0.000
G1 X100.547 Y33.924 Z-0.000
G1 X100.104 Y34.860 Z-1.732
G1 X96.690 Y34.226
G1 X93.655 Y32.115
G1 X91.953 Y29.255
G1 X91.742 Y28.859
G1 X91.658 Y28.422
G1 X91.165 Y25.141
G1 X91.172 Y24.317
G1 X91.781 Y20.721
G1 X93.806 Y17.551
G1 X96.995 Y15.528
G1 X100.615 Y14.919
G1 X101.413 Y14.897
G1 X104.113 Y15.179
G1 X104.840 Y15.330
G1 X107.437 Y16.149
G1 X107.979 Y16.371
G1 X108.203 Y16.593
G1 X108.347 Y16.873
G1 X108.397 Y17.452
G1 Y19.589
G1 X108.358 Y20.131
G1 X108.246 Y20.384
G1 X108.068 Y20.597
G1 X107.839 Y20.753
G1 X107.576 Y20.840
G1 X107.299 Y20.852
G1 X106.777 Y20.687
G1 X104.243 Y19.689
G1 X103.968 Y19.617
G1 X101.344 Y19.285
G1 X101.080 Y19.290
G1 X99.133 Y19.586
G1 X98.986 Y19.638
G1 X97.502 Y20.559
G1 X96.586 Y21.970
G1 X96.521 Y22.120
G1 X96.310 Y23.149
G1 X96.116 Y23.377 Z-1.483
G1 X95.065 Y24.233 Z-0.000
G1 X96.084 Y23.403 Z-1.438
G1 X96.339 Y23.233 Z-1.732
G1 X107.802
G1 X108.316 Y23.267
G1 X108.557 Y23.367
G1 X108.764 Y23.526
G1 X108.923 Y23.733
G1 X109.023 Y23.975
G1 X109.057 Y24.510
G1 Y25.339
G1 X109.007 Y26.026
G1 X108.495 Y29.381
G1 X106.769 Y32.356
G1 X104.040 Y34.286
G1 X100.984 Y34.861
G1 X100.548 Y34.924
G1 X100.104 Y34.860
G0 Z6.350
M5
M2 
