(##########################################)
G90
G21
G17 G64 P0.001 M3 S3000 
G0 Z6.350
G0 X2.540 Y1.317
G1 Z-1.732 F127.000
G1 X2.540 Y7.492
G1 X3.810 Y8.189
G1 X3.810 Y1.318
G1 X5.080 Y1.326
G1 X5.080 Y8.331
G1 X6.350 Y7.994
G1 X6.350 Y1.664
G1 X7.620 Y2.698
G1 X7.620 Y6.960
G0 Z6.350
G0 X19.050 Y15.876
G1 Z-1.732
G1 X19.050 Y24.682
G1 X20.320 Y24.651
G1 X20.320 Y14.819
G1 X21.590 Y14.447
G1 X21.590 Y24.321
G1 X22.860 Y23.566
G1 X22.860 Y14.539
G1 X24.130 Y15.136
G1 X24.130 Y21.810
G0 Z6.350
G0 X25.400 Y19.352
G1 Z-1.732
G1 X25.400 Y16.823
G0 Z6.350
G0 X31.750 Y19.451
G1 Z-1.732
G1 X31.750 Y24.136
G1 X31.750 Y25.806
G1 X31.750 Y39.395
G1 X33.020 Y39.644
G1 X33.020 Y30.542
G0 Z6.350
G0 X34.290 Y32.594
G1 Z-1.732
G1 X34.290 Y39.423
G1 X35.560 Y38.614
G1 X35.560 Y33.560
G0 Z6.350
G0 X39.370 Y29.800
G1 Z-1.732
G1 X39.370 Y19.975
G1 X40.640 Y19.657
G1 X40.640 Y30.129
G1 X41.910 Y29.947
G1 X41.910 Y19.838
G1 X43.180 Y20.689
G1 X43.180 Y29.086
G0 Z6.350
G0 X38.100 Y28.403
G1 Z-1.732
G1 X38.100 Y21.348
G0 Z6.350
G0 X33.020 Y19.248
G1 Z-1.732
G1 X33.020 Y16.675
G1 X33.020 Y15.965
G1 X33.020 Y10.302
G1 X34.290 Y9.826
G1 X34.290 Y17.169
G1 X35.560 Y16.282
G1 X35.560 Y9.901
G1 X36.830 Y10.579
G1 X36.830 Y15.352
G0 Z6.350
G0 X31.750 Y14.018
G1 Z-1.732
G1 X31.750 Y11.912
G0 Z6.350
G0 X30.480 Y21.827
G1 Z-1.732
G1 X30.480 Y38.539
G0 Z6.350
G0 X22.860 Y34.926
G1 Z-1.732
G1 X22.860 Y30.310
G1 X21.590 Y29.969
G1 X21.590 Y35.268
G1 X20.320 Y35.371
G1 X20.320 Y29.867
G1 X19.050 Y29.867
G1 X19.050 Y35.371
G0 Z6.350
G0 X29.210 Y29.202
G1 Z-1.732
G1 X29.210 Y24.085
G0 Z6.350
G0 X27.940 Y26.109
G1 Z-1.732
G1 X27.940 Y27.447
G0 Z6.350
G0 X45.720 Y34.292
G1 Z-1.732
G1 X45.720 Y37.639
G1 X46.990 Y39.010
G1 X46.990 Y32.913
G0 Z6.350
G0 X48.260 Y31.357
G1 Z-1.732
G1 X48.260 Y39.503
G1 X49.530 Y39.505
G1 X49.530 Y28.977
G0 Z6.350
G0 X52.070 Y34.268
G1 Z-1.732
G1 X52.070 Y37.664
G1 X50.800 Y39.018
G1 X50.800 Y12.666
G1 X49.530 Y12.812
G1 X49.530 Y20.863
G0 Z6.350
G0 X52.070 Y21.128
G1 Z-1.732
G1 X52.070 Y13.048
G1 X53.340 Y14.305
G1 X53.340 Y17.452
G0 Z6.350
G0 X48.260 Y18.431
G1 Z-1.732
G1 X48.260 Y13.585
G0 Z6.350
G0 X58.420 Y20.056
G1 Z-1.732
G1 X58.420 Y37.246
G1 X59.690 Y37.826
G1 X59.690 Y19.688
G1 X60.960 Y19.871
G1 X60.960 Y37.839
G1 X62.230 Y37.294
G1 X62.230 Y20.571
G0 Z6.350
G0 X63.500 Y15.734
G1 Z-1.732
G1 X63.500 Y9.692
G1 X62.230 Y9.775
G1 X62.230 Y15.231
G1 X60.960 Y14.442
G1 X60.960 Y10.564
G0 Z6.350
G0 X64.770 Y10.238
G1 Z-1.732
G1 X64.770 Y14.768
G0 Z6.350
G0 X66.040 Y13.084
G1 Z-1.732
G1 X66.040 Y10.461
G0 Z6.350
G0 X67.310 Y8.855
G1 Z-1.732
G1 X67.310 Y14.690
G1 X68.580 Y15.462
G1 X68.580 Y8.297
G1 X69.850 Y8.249
G1 X69.850 Y39.039
G1 X71.120 Y39.550
G1 X71.120 Y27.424
G0 Z6.350
G0 X72.390 Y31.100
G1 Z-1.732
G1 X72.390 Y39.569
G1 X73.660 Y39.105
G1 X73.660 Y32.861
G1 X74.930 Y34.192
G1 X74.930 Y37.820
G0 Z6.350
G0 X80.010 Y39.032
G1 Z-1.732
G1 X80.010 Y36.424
G1 X81.280 Y34.968
G1 X81.280 Y40.488
G1 X82.550 Y40.939
G1 X82.550 Y34.502
G1 X83.820 Y34.543
G1 X83.820 Y40.855
G1 X85.090 Y40.182
G1 X85.090 Y35.274
G0 Z6.350
G0 X88.900 Y37.333
G1 Z-1.732
G1 X88.900 Y12.381
G1 X90.170 Y11.199
G1 X90.170 Y38.562
G1 X91.440 Y38.981
G1 X91.440 Y28.958
G0 Z6.350
G0 X92.710 Y31.176
G1 Z-1.732
G1 X92.710 Y38.907
G1 X93.980 Y38.299
G1 X93.980 Y32.760
G0 Z6.350
G0 X95.250 Y34.687
G1 Z-1.732
G1 X95.250 Y36.372
G0 Z6.350
G0 X99.060 Y29.952
G1 Z-1.732
G1 X99.060 Y27.753
G1 X97.790 Y27.753
G1 X97.790 Y29.237
G0 Z6.350
G0 X100.330 Y30.153
G1 Z-1.732
G1 X100.330 Y27.755
G1 X101.600 Y27.757
G1 X101.600 Y30.000
G1 X102.870 Y29.261
G1 X102.870 Y27.760
G0 Z6.350
G0 X102.870 Y22.914
G1 Z-1.732
G1 X102.870 Y19.798
G1 X101.600 Y19.637
G1 X101.600 Y22.916
G1 X100.330 Y22.914
G1 X100.330 Y19.726
G1 X99.060 Y19.975
G1 X99.060 Y22.914
G1 X97.790 Y22.915
G1 X97.790 Y20.758
G0 Z6.350
G0 X93.980 Y17.020
G1 Z-1.732
G1 X93.980 Y11.508
G1 X92.710 Y10.885
G1 X92.710 Y18.635
G0 Z6.350
G0 X91.440 Y20.742
G1 Z-1.732
G1 X91.440 Y10.797
G0 Z6.350
G0 X95.250 Y13.529
G1 Z-1.732
G1 X95.250 Y14.999
G0 Z6.350
G0 X104.140 Y19.990
G1 Z-1.732
G1 X104.140 Y22.916
G1 X105.410 Y22.914
G1 X105.410 Y20.490
G1 X106.680 Y20.991
G1 X106.680 Y22.910
G1 X107.950 Y22.904
G1 X107.950 Y21.053
G1 X109.220 Y19.690
G1 X109.220 Y23.505
G1 X110.490 Y23.999
G1 X110.490 Y19.196
G1 X111.760 Y19.436
G1 X111.760 Y23.759
G0 Z6.350
G0 X113.030 Y22.188
G1 Z-1.732
G1 X113.030 Y21.007
G0 Z6.350
G0 X120.650 Y7.429
G1 Z-1.732
G1 X120.650 Y2.229
G1 X121.920 Y1.491
G1 X121.920 Y8.167
G1 X123.190 Y8.336
G1 X123.190 Y1.318
G1 X124.460 Y1.319
G1 X124.460 Y8.027
G1 X125.730 Y7.050
G1 X125.730 Y1.322
G0 Z6.350
G0 X85.090 Y4.581
G1 Z-1.732
G1 X85.090 Y5.410
G0 Z6.350
G0 X83.820 Y7.795
G1 Z-1.732
G1 X83.820 Y2.195
G1 X82.550 Y1.490
G1 X82.550 Y8.500
G1 X81.280 Y8.670
G1 X81.280 Y1.318
G1 X80.010 Y1.318
G1 X80.010 Y8.497
G1 X78.740 Y8.516
G1 X78.740 Y1.318
G1 X77.470 Y1.318
G1 X77.470 Y8.620
G1 X76.200 Y8.650
G1 X76.200 Y1.344
G1 X74.930 Y1.738
G1 X74.930 Y8.256
G1 X73.660 Y7.158
G1 X73.660 Y2.835
G0 Z6.350
G0 X71.120 Y8.685
G1 Z-1.732
G1 X71.120 Y22.902
G0 Z6.350
G0 X72.390 Y19.127
G1 Z-1.732
G1 X72.390 Y9.924
G0 Z6.350
G0 X73.660 Y14.612
G1 Z-1.732
G1 X73.660 Y17.372
G1 X74.930 Y16.346
G1 X74.930 Y14.559
G1 X76.200 Y14.042
G1 X76.200 Y15.588
G1 X77.470 Y15.322
G1 X77.470 Y13.652
G1 X78.740 Y13.485
G1 X78.740 Y15.057
G1 X80.010 Y15.147
G1 X80.010 Y13.562
G1 X81.280 Y13.833
G1 X81.280 Y15.438
G0 Z6.350
G0 X80.010 Y20.053
G1 Z-1.732
G1 X80.010 Y30.181
G1 X78.740 Y29.974
G1 X78.740 Y20.260
G1 X77.470 Y21.147
G1 X77.470 Y29.086
G0 Z6.350
G0 X81.280 Y29.905
G1 Z-1.732
G1 X81.280 Y20.328
G1 X82.550 Y21.604
G1 X82.550 Y28.628
G0 Z6.350
G0 X68.580 Y34.391
G1 Z-1.732
G1 X68.580 Y37.621
G0 Z6.350
G0 X63.500 Y35.356
G1 Z-1.732
G1 X63.500 Y34.008
G0 Z6.350
G0 X7.620 Y43.840
G1 Z-1.732
G1 X7.620 Y48.102
G1 X6.350 Y49.136
G1 X6.350 Y42.806
G1 X5.080 Y42.469
G1 X5.080 Y49.474
G1 X3.810 Y49.482
G1 X3.810 Y42.611
G1 X2.540 Y43.308
G1 X2.540 Y49.482
G0 Z6.350
G0 X120.650 Y48.571
G1 Z-1.732
G1 X120.650 Y43.371
G1 X121.920 Y42.633
G1 X121.920 Y49.309
G1 X123.190 Y49.482
G1 X123.190 Y42.464
G1 X124.460 Y42.773
G1 X124.460 Y49.481
G1 X125.730 Y49.478
G1 X125.730 Y43.750
G0 Z6.350
M5
M2 
