G90
G21
F127.0
G0 Z6.350
G0 X0.000 Y50.800
G1 Z-0.000
G1 X0.000 Y50.800 Z-0.000
G1 X1.017 Y49.800 Z-1.732
G1 X126.822
G1 X127.839 Y50.800 Z-0.000
G1 X126.839 Y49.784 Z-1.732
G1 Y1.016
G1 X127.839 Y0.000 Z-0.000
G1 X126.822 Y1.000 Z-1.732
G1 X1.017
G1 X0.000 Y0.000 Z-0.000
G1 X1.000 Y1.016 Z-1.732
G1 Y49.784
G1 X0.254 Y50.546 Z-0.440
G1 X0.000 Y50.800 Z-0.000
G0 Z6.350
G0 X13.887 Y39.238
G1 Z-0.000
G1 X13.887 Y39.238
G1 X12.887 Y38.983 Z-1.732
G1 Y16.564
G1 X12.921 Y16.051
G1 X13.021 Y15.809
G1 X13.180 Y15.602
G1 X13.387 Y15.443
G1 X13.628 Y15.344
G1 X14.145 Y15.309
G1 X16.730
G1 X17.247 Y15.344
G1 X17.489 Y15.443
G1 X17.696 Y15.602
G1 X17.855 Y15.809
G1 X17.955 Y16.051
G1 X17.989 Y16.564
G1 Y24.980
G1 X16.989 Y26.000 Z-0.000
G1 X17.768 Y25.220 Z-1.350
G1 X18.028 Y25.000 Z-1.732
G1 X20.107
G1 X20.380 Y24.963
G1 X22.491 Y24.416
G1 X22.821 Y24.590 Z-1.297
G1 X22.776 Y24.224 Z-1.732
G1 X24.513 Y21.823
G1 X24.704 Y21.509
G1 X27.402 Y16.098
G1 X27.676 Y15.635
G1 X27.888 Y15.459
G1 X28.141 Y15.348
G1 X28.671 Y15.309
G1 X31.491
G1 X31.999 Y15.342
G1 X32.234 Y15.436
G1 X32.438 Y15.587
G1 X32.598 Y15.785
G1 X32.703 Y16.016
G1 X32.746 Y16.266
G1 X32.725 Y16.519
G1 X32.524 Y16.990
G1 X29.609 Y22.792
G1 X29.311 Y23.323
G1 X27.430 Y26.293
G1 X26.863 Y26.738
G1 X26.620 Y26.861 Z-1.651
G1 X24.760 Y27.059 Z-0.000
G1 X26.599 Y26.863 Z-1.633
G1 X27.355 Y27.320 Z-1.732
G1 X28.493 Y28.462
G1 X29.233 Y29.996
G1 X29.466 Y30.809
G1 X29.647 Y32.224
G1 X29.633 Y33.062
G1 X29.132 Y35.912
G1 X27.735 Y37.941
G1 X27.410 Y38.351
G1 X26.964 Y38.610
G1 X24.612 Y39.784
G1 X21.273 Y40.199
G1 X20.630 Y40.238
G1 X14.146
G1 X13.628 Y40.204
G1 X13.387 Y40.104
G1 X13.180 Y39.945
G1 X13.021 Y39.738
G1 X12.921 Y39.496
G1 X12.887 Y38.983
G0 Z6.350
G0 X16.989 Y36.688
G1 Z-0.000
G1 X16.989 Y36.688 Z-0.000
G1 X17.769 Y35.908 Z-1.351
G1 X18.029 Y35.688 Z-1.732
G1 X20.630
G1 X22.445 Y35.476
G1 X22.611 Y35.425
G1 X23.586 Y34.884
G1 X24.186 Y33.983
G1 X24.392 Y32.724
G1 X24.392 Y32.542
G1 X24.186 Y31.277
G1 X23.582 Y30.350
G1 X22.611 Y29.812
G1 X22.445 Y29.761
G1 X20.630 Y29.549
G1 X18.029
G1 X17.769 Y29.329 Z-1.351
G1 X16.989 Y28.549 Z-0.000
G1 X17.989 Y29.566 Z-1.732
G1 Y35.671
G1 X17.243 Y36.434 Z-0.441
G1 X16.989 Y36.688 Z-0.000
G0 Z6.350
G0 X40.870 Y33.924
G1 Z-0.000
G1 X40.870 Y33.924
G1 X40.437 Y34.862 Z-1.732
G1 X37.177 Y34.246
G1 X34.316 Y32.191
G1 X32.549 Y28.986
G1 X32.020 Y25.283
G1 X32.023 Y24.487
G1 X32.548 Y20.810
G1 X34.315 Y17.597
G1 X37.177 Y15.542
G1 X40.870 Y14.864
G1 X44.551 Y15.542
G1 X47.407 Y17.596
G1 X49.186 Y20.808
G1 X49.716 Y24.486
G1 X49.718 Y25.284
G1 X49.186 Y28.988
G1 X47.407 Y32.192
G1 X44.551 Y34.245
G1 X41.302 Y34.862
G1 X40.870 Y34.924
G1 X40.437 Y34.862
G0 Z6.350
G0 X40.870 Y31.528
G1 Z-0.000
G1 X40.870 Y31.528 Z-0.000
G1 X40.906 Y30.496 Z-1.732
G1 X42.432 Y30.155
G1 X43.653 Y29.071
G1 X44.424 Y27.438
G1 X44.478 Y27.238
G1 X44.742 Y25.048
G1 X44.742 Y24.738
G1 X44.478 Y22.539
G1 X44.423 Y22.337
G1 X43.653 Y20.700
G1 X42.435 Y19.630
G1 X40.907 Y19.292
G1 X39.274 Y19.629
G1 X38.059 Y20.681
G1 X37.297 Y22.321
G1 X37.242 Y22.527
G1 X36.981 Y24.735
G1 X36.981 Y25.051
G1 X37.245 Y27.256
G1 X37.300 Y27.456
G1 X38.070 Y29.087
G1 X39.291 Y30.157
G1 X40.906 Y30.496
G0 Z6.350
G0 X53.155 Y33.509
G1 Z-0.000
G1 X53.155 Y33.509 Z-0.000
G1 X52.155 Y33.249 Z-1.732
G1 Y23.357
G1 X52.195 Y22.715
G1 X52.515 Y20.114
G1 X52.763 Y19.296
G1 X53.929 Y17.059
G1 X54.311 Y16.746
G1 X56.191 Y15.405
G1 X59.220 Y14.864
G1 X59.685 Y14.954
G1 X62.309 Y15.581
G1 X62.822 Y15.740
G1 X63.590 Y16.439
G1 X63.758 Y16.635 Z-1.692
G1 X64.735 Y18.951 Z-0.000
G1 X63.735 Y16.574 Z-1.732
G1 X63.769 Y16.051
G1 X63.869 Y15.809
G1 X64.027 Y15.602
G1 X64.235 Y15.443
G1 X64.476 Y15.344
G1 X64.991 Y15.309
G1 X67.303
G1 X67.819 Y15.344
G1 X68.060 Y15.443
G1 X68.267 Y15.602
G1 X68.426 Y15.809
G1 X68.526 Y16.051
G1 X68.560 Y16.566
G1 Y33.253
G1 X68.526 Y33.768
G1 X68.426 Y34.009
G1 X68.267 Y34.217
G1 X68.060 Y34.375
G1 X67.819 Y34.475
G1 X67.303 Y34.509
G1 X64.991
G1 X64.476 Y34.475
G1 X64.235 Y34.375
G1 X64.027 Y34.217
G1 X63.869 Y34.009
G1 X63.769 Y33.768
G1 X63.735 Y33.253
G1 Y24.014
G1 X63.453 Y21.932
G1 X63.393 Y21.760
G1 X62.602 Y20.443
G1 X61.404 Y19.625
G1 X59.870 Y19.351
G1 X58.580 Y19.557
G1 X57.778 Y20.146
G1 X57.244 Y21.233
G1 X57.183 Y21.444
G1 X56.981 Y23.462
G1 Y33.252
G1 X56.947 Y33.768
G1 X56.847 Y34.009
G1 X56.688 Y34.217
G1 X56.481 Y34.375
G1 X56.240 Y34.475
G1 X55.724 Y34.509
G1 X53.412
G1 X52.897 Y34.475
G1 X52.655 Y34.375
G1 X52.448 Y34.217
G1 X52.289 Y34.009
G1 X52.189 Y33.768
G1 X52.155 Y33.249
G0 Z6.350
G0 X79.186 Y33.924
G1 Z-0.000
G1 X79.186 Y33.924 Z-0.000
G1 X78.719 Y34.848 Z-1.732
G1 X75.900 Y34.224
G1 X75.497 Y33.935
G1 X73.312 Y32.145
G1 X71.868 Y29.400
G1 X71.610 Y28.583
G1 X71.195 Y25.499
G1 X71.195 Y24.719
G1 X71.610 Y21.645
G1 X71.869 Y20.830
G1 X73.312 Y18.087
G1 X75.498 Y16.298
G1 X75.900 Y16.009
G1 X76.382 Y15.879
G1 X79.195 Y15.309
G1 X82.429 Y16.029
G1 X82.944 Y16.188
G1 X83.537 Y16.744 Z-1.718
G1 X84.153 Y18.004 Z-0.945
G1 X84.699 Y19.335 Z-0.000
G1 X84.038 Y17.766 Z-1.094
G1 X83.558 Y16.787 Z-1.692
G1 X83.500 Y16.534 Z-1.732
G1 X83.397 Y15.766
G1 X82.566 Y14.269
G1 X81.267 Y13.448
G1 X79.277 Y13.131
G1 X79.010 Y13.129
G1 X77.086 Y13.380
G1 X76.813 Y13.450
G1 X74.847 Y14.248
G1 X74.332 Y14.416
G1 X74.053 Y14.407
G1 X73.788 Y14.321
G1 X73.557 Y14.165
G1 X73.378 Y13.952
G1 X73.264 Y13.698
G1 X73.225 Y13.147
G1 Y10.948
G1 X73.260 Y10.413
G1 X73.360 Y10.171
G1 X73.520 Y9.964
G1 X73.728 Y9.805
G1 X74.227 Y9.638
G1 X76.279 Y9.098
G1 X76.964 Y8.980
G1 X79.263 Y8.792
G1 X80.021 Y8.820
G1 X82.987 Y9.275
G1 X83.463 Y9.371
G1 X83.877 Y9.614
G1 X86.310 Y11.239
G1 X86.575 Y11.665
G1 X87.989 Y14.309
G1 X88.484 Y18.062
G1 X88.524 Y18.699
G1 Y33.254
G1 X88.490 Y33.768
G1 X88.390 Y34.009
G1 X88.232 Y34.217
G1 X88.024 Y34.375
G1 X87.783 Y34.475
G1 X87.268 Y34.509
G1 X84.956
G1 X84.440 Y34.475
G1 X84.199 Y34.375
G1 X83.992 Y34.217
G1 X83.833 Y34.009
G1 X83.733 Y33.768
G1 X83.735 Y33.248 Z-1.670
G1 X84.699 Y30.899 Z-0.000
G1 X83.716 Y33.293 Z-1.701
G1 X83.355 Y33.684 Z-1.732
G1 X82.944 Y34.044
G1 X82.429 Y34.204
G1 X79.195 Y34.924
G1 X78.719 Y34.848
G0 Z6.350
G0 X79.877 Y31.559
G1 Z-0.000
G1 X79.877 Y31.559 Z-0.000
G1 X79.927 Y30.527 Z-1.732
G1 X81.450 Y30.210
G1 X82.638 Y29.190
G1 X83.356 Y27.664
G1 X83.419 Y27.446
G1 X83.674 Y25.266
G1 X83.674 Y24.954
G1 X83.419 Y22.783
G1 X83.356 Y22.567
G1 X82.639 Y21.043
G1 X81.450 Y20.023
G1 X79.828 Y19.706
G1 X78.310 Y20.023
G1 X77.118 Y21.039
G1 X76.410 Y22.562
G1 X76.347 Y22.781
G1 X76.095 Y24.953
G1 X76.095 Y25.267
G1 X76.347 Y27.448
G1 X76.410 Y27.668
G1 X77.118 Y29.194
G1 X78.310 Y30.211
G1 X79.927 Y30.527
G0 Z6.350
G0 X100.578 Y31.528
G1 Z-0.000
G1 X100.578 Y31.528 Z-0.000
G1 X100.666 Y30.495 Z-1.732
G1 X102.092 Y30.218
G1 X103.140 Y29.478
G1 X103.893 Y28.249
G1 X104.031 Y27.586
G1 X104.174 Y27.342 Z-1.557
G1 X105.231 Y26.445 Z-0.000
G1 X104.197 Y27.322 Z-1.523
G1 X103.938 Y27.443 Z-1.732
G1 X103.680 Y27.443
G1 X96.447 Y27.431
G1 X95.157 Y26.429 Z-0.000
G1 X96.263 Y27.304 Z-1.511
G1 X96.451 Y27.543 Z-1.732
G1 X96.653 Y28.244
G1 X97.448 Y29.393
G1 X98.726 Y30.195
G1 X98.869 Y30.248
G1 X100.467 Y30.499
G1 X100.666 Y30.495
G0 Z6.350
G0 X100.547 Y33.924
G1 Z-0.000
G1 X100.547 Y33.924 Z-0.000
G1 X100.104 Y34.860 Z-1.732
G1 X96.690 Y34.226
G1 X93.655 Y32.115
G1 X91.953 Y29.255
G1 X91.742 Y28.859
G1 X91.658 Y28.422
G1 X91.165 Y25.141
G1 X91.172 Y24.317
G1 X91.781 Y20.721
G1 X93.806 Y17.551
G1 X96.995 Y15.528
G1 X100.615 Y14.919
G1 X101.413 Y14.897
G1 X104.113 Y15.179
G1 X104.840 Y15.330
G1 X107.437 Y16.149
G1 X107.979 Y16.371
G1 X108.203 Y16.593
G1 X108.347 Y16.873
G1 X108.397 Y17.452
G1 Y19.589
G1 X108.358 Y20.131
G1 X108.246 Y20.384
G1 X108.068 Y20.597
G1 X107.839 Y20.753
G1 X107.576 Y20.840
G1 X107.299 Y20.852
G1 X106.777 Y20.687
G1 X104.243 Y19.689
G1 X103.968 Y19.617
G1 X101.344 Y19.285
G1 X101.080 Y19.290
G1 X99.133 Y19.586
G1 X98.986 Y19.638
G1 X97.502 Y20.559
G1 X96.586 Y21.970
G1 X96.521 Y22.120
G1 X96.310 Y23.149
G1 X96.116 Y23.377 Z-1.483
G1 X95.065 Y24.233 Z-0.000
G1 X96.084 Y23.403 Z-1.438
G1 X96.339 Y23.233 Z-1.732
G1 X107.802
G1 X108.316 Y23.267
G1 X108.557 Y23.367
G1 X108.764 Y23.526
G1 X108.923 Y23.733
G1 X109.023 Y23.975
G1 X109.057 Y24.510
G1 Y25.339
G1 X109.007 Y26.026
G1 X108.495 Y29.381
G1 X106.769 Y32.356
G1 X104.040 Y34.286
G1 X100.984 Y34.861
G1 X100.548 Y34.924
G1 X100.104 Y34.860
G0 Z6.350
M5
M2 
(##########################################)
G90
G21
G0 Z6.350
G0 X2.540 Y1.317
G1 Z-1.732 F127.000
G1 X2.540 Y7.492
G1 X3.810 Y8.189
G1 X3.810 Y1.318
G1 X5.080 Y1.326
G1 X5.080 Y8.331
G1 X6.350 Y7.994
G1 X6.350 Y1.664
G1 X7.620 Y2.698
G1 X7.620 Y6.960
G0 Z6.350
G0 X19.050 Y15.876
G1 Z-1.732
G1 X19.050 Y24.682
G1 X20.320 Y24.651
G1 X20.320 Y14.819
G1 X21.590 Y14.447
G1 X21.590 Y24.321
G1 X22.860 Y23.566
G1 X22.860 Y14.539
G1 X24.130 Y15.136
G1 X24.130 Y21.810
G0 Z6.350
G0 X25.400 Y19.352
G1 Z-1.732
G1 X25.400 Y16.823
G0 Z6.350
G0 X31.750 Y19.451
G1 Z-1.732
G1 X31.750 Y24.136
G1 X31.750 Y25.806
G1 X31.750 Y39.395
G1 X33.020 Y39.644
G1 X33.020 Y30.542
G0 Z6.350
G0 X34.290 Y32.594
G1 Z-1.732
G1 X34.290 Y39.423
G1 X35.560 Y38.614
G1 X35.560 Y33.560
G0 Z6.350
G0 X39.370 Y29.800
G1 Z-1.732
G1 X39.370 Y19.975
G1 X40.640 Y19.657
G1 X40.640 Y30.129
G1 X41.910 Y29.947
G1 X41.910 Y19.838
G1 X43.180 Y20.689
G1 X43.180 Y29.086
G0 Z6.350
G0 X38.100 Y28.403
G1 Z-1.732
G1 X38.100 Y21.348
G0 Z6.350
G0 X33.020 Y19.248
G1 Z-1.732
G1 X33.020 Y16.675
G1 X33.020 Y15.965
G1 X33.020 Y10.302
G1 X34.290 Y9.826
G1 X34.290 Y17.169
G1 X35.560 Y16.282
G1 X35.560 Y9.901
G1 X36.830 Y10.579
G1 X36.830 Y15.352
G0 Z6.350
G0 X31.750 Y14.018
G1 Z-1.732
G1 X31.750 Y11.912
G0 Z6.350
G0 X30.480 Y21.827
G1 Z-1.732
G1 X30.480 Y38.539
G0 Z6.350
G0 X22.860 Y34.926
G1 Z-1.732
G1 X22.860 Y30.310
G1 X21.590 Y29.969
G1 X21.590 Y35.268
G1 X20.320 Y35.371
G1 X20.320 Y29.867
G1 X19.050 Y29.867
G1 X19.050 Y35.371
G0 Z6.350
G0 X29.210 Y29.202
G1 Z-1.732
G1 X29.210 Y24.085
G0 Z6.350
G0 X27.940 Y26.109
G1 Z-1.732
G1 X27.940 Y27.447
G0 Z6.350
G0 X45.720 Y34.292
G1 Z-1.732
G1 X45.720 Y37.639
G1 X46.990 Y39.010
G1 X46.990 Y32.913
G0 Z6.350
G0 X48.260 Y31.357
G1 Z-1.732
G1 X48.260 Y39.503
G1 X49.530 Y39.505
G1 X49.530 Y28.977
G0 Z6.350
G0 X52.070 Y34.268
G1 Z-1.732
G1 X52.070 Y37.664
G1 X50.800 Y39.018
G1 X50.800 Y12.666
G1 X49.530 Y12.812
G1 X49.530 Y20.863
G0 Z6.350
G0 X52.070 Y21.128
G1 Z-1.732
G1 X52.070 Y13.048
G1 X53.340 Y14.305
G1 X53.340 Y17.452
G0 Z6.350
G0 X48.260 Y18.431
G1 Z-1.732
G1 X48.260 Y13.585
G0 Z6.350
G0 X58.420 Y20.056
G1 Z-1.732
G1 X58.420 Y37.246
G1 X59.690 Y37.826
G1 X59.690 Y19.688
G1 X60.960 Y19.871
G1 X60.960 Y37.839
G1 X62.230 Y37.294
G1 X62.230 Y20.571
G0 Z6.350
G0 X63.500 Y15.734
G1 Z-1.732
G1 X63.500 Y9.692
G1 X62.230 Y9.775
G1 X62.230 Y15.231
G1 X60.960 Y14.442
G1 X60.960 Y10.564
G0 Z6.350
G0 X64.770 Y10.238
G1 Z-1.732
G1 X64.770 Y14.768
G0 Z6.350
G0 X66.040 Y13.084
G1 Z-1.732
G1 X66.040 Y10.461
G0 Z6.350
G0 X67.310 Y8.855
G1 Z-1.732
G1 X67.310 Y14.690
G1 X68.580 Y15.462
G1 X68.580 Y8.297
G1 X69.850 Y8.249
G1 X69.850 Y39.039
G1 X71.120 Y39.550
G1 X71.120 Y27.424
G0 Z6.350
G0 X72.390 Y31.100
G1 Z-1.732
G1 X72.390 Y39.569
G1 X73.660 Y39.105
G1 X73.660 Y32.861
G1 X74.930 Y34.192
G1 X74.930 Y37.820
G0 Z6.350
G0 X80.010 Y39.032
G1 Z-1.732
G1 X80.010 Y36.424
G1 X81.280 Y34.968
G1 X81.280 Y40.488
G1 X82.550 Y40.939
G1 X82.550 Y34.502
G1 X83.820 Y34.543
G1 X83.820 Y40.855
G1 X85.090 Y40.182
G1 X85.090 Y35.274
G0 Z6.350
G0 X88.900 Y37.333
G1 Z-1.732
G1 X88.900 Y12.381
G1 X90.170 Y11.199
G1 X90.170 Y38.562
G1 X91.440 Y38.981
G1 X91.440 Y28.958
G0 Z6.350
G0 X92.710 Y31.176
G1 Z-1.732
G1 X92.710 Y38.907
G1 X93.980 Y38.299
G1 X93.980 Y32.760
G0 Z6.350
G0 X95.250 Y34.687
G1 Z-1.732
G1 X95.250 Y36.372
G0 Z6.350
G0 X99.060 Y29.952
G1 Z-1.732
G1 X99.060 Y27.753
G1 X97.790 Y27.753
G1 X97.790 Y29.237
G0 Z6.350
G0 X100.330 Y30.153
G1 Z-1.732
G1 X100.330 Y27.755
G1 X101.600 Y27.757
G1 X101.600 Y30.000
G1 X102.870 Y29.261
G1 X102.870 Y27.760
G0 Z6.350
G0 X102.870 Y22.914
G1 Z-1.732
G1 X102.870 Y19.798
G1 X101.600 Y19.637
G1 X101.600 Y22.916
G1 X100.330 Y22.914
G1 X100.330 Y19.726
G1 X99.060 Y19.975
G1 X99.060 Y22.914
G1 X97.790 Y22.915
G1 X97.790 Y20.758
G0 Z6.350
G0 X93.980 Y17.020
G1 Z-1.732
G1 X93.980 Y11.508
G1 X92.710 Y10.885
G1 X92.710 Y18.635
G0 Z6.350
G0 X91.440 Y20.742
G1 Z-1.732
G1 X91.440 Y10.797
G0 Z6.350
G0 X95.250 Y13.529
G1 Z-1.732
G1 X95.250 Y14.999
G0 Z6.350
G0 X104.140 Y19.990
G1 Z-1.732
G1 X104.140 Y22.916
G1 X105.410 Y22.914
G1 X105.410 Y20.490
G1 X106.680 Y20.991
G1 X106.680 Y22.910
G1 X107.950 Y22.904
G1 X107.950 Y21.053
G1 X109.220 Y19.690
G1 X109.220 Y23.505
G1 X110.490 Y23.999
G1 X110.490 Y19.196
G1 X111.760 Y19.436
G1 X111.760 Y23.759
G0 Z6.350
G0 X113.030 Y22.188
G1 Z-1.732
G1 X113.030 Y21.007
G0 Z6.350
G0 X120.650 Y7.429
G1 Z-1.732
G1 X120.650 Y2.229
G1 X121.920 Y1.491
G1 X121.920 Y8.167
G1 X123.190 Y8.336
G1 X123.190 Y1.318
G1 X124.460 Y1.319
G1 X124.460 Y8.027
G1 X125.730 Y7.050
G1 X125.730 Y1.322
G0 Z6.350
G0 X85.090 Y4.581
G1 Z-1.732
G1 X85.090 Y5.410
G0 Z6.350
G0 X83.820 Y7.795
G1 Z-1.732
G1 X83.820 Y2.195
G1 X82.550 Y1.490
G1 X82.550 Y8.500
G1 X81.280 Y8.670
G1 X81.280 Y1.318
G1 X80.010 Y1.318
G1 X80.010 Y8.497
G1 X78.740 Y8.516
G1 X78.740 Y1.318
G1 X77.470 Y1.318
G1 X77.470 Y8.620
G1 X76.200 Y8.650
G1 X76.200 Y1.344
G1 X74.930 Y1.738
G1 X74.930 Y8.256
G1 X73.660 Y7.158
G1 X73.660 Y2.835
G0 Z6.350
G0 X71.120 Y8.685
G1 Z-1.732
G1 X71.120 Y22.902
G0 Z6.350
G0 X72.390 Y19.127
G1 Z-1.732
G1 X72.390 Y9.924
G0 Z6.350
G0 X73.660 Y14.612
G1 Z-1.732
G1 X73.660 Y17.372
G1 X74.930 Y16.346
G1 X74.930 Y14.559
G1 X76.200 Y14.042
G1 X76.200 Y15.588
G1 X77.470 Y15.322
G1 X77.470 Y13.652
G1 X78.740 Y13.485
G1 X78.740 Y15.057
G1 X80.010 Y15.147
G1 X80.010 Y13.562
G1 X81.280 Y13.833
G1 X81.280 Y15.438
G0 Z6.350
G0 X80.010 Y20.053
G1 Z-1.732
G1 X80.010 Y30.181
G1 X78.740 Y29.974
G1 X78.740 Y20.260
G1 X77.470 Y21.147
G1 X77.470 Y29.086
G0 Z6.350
G0 X81.280 Y29.905
G1 Z-1.732
G1 X81.280 Y20.328
G1 X82.550 Y21.604
G1 X82.550 Y28.628
G0 Z6.350
G0 X68.580 Y34.391
G1 Z-1.732
G1 X68.580 Y37.621
G0 Z6.350
G0 X63.500 Y35.356
G1 Z-1.732
G1 X63.500 Y34.008
G0 Z6.350
G0 X7.620 Y43.840
G1 Z-1.732
G1 X7.620 Y48.102
G1 X6.350 Y49.136
G1 X6.350 Y42.806
G1 X5.080 Y42.469
G1 X5.080 Y49.474
G1 X3.810 Y49.482
G1 X3.810 Y42.611
G1 X2.540 Y43.308
G1 X2.540 Y49.482
G0 Z6.350
G0 X120.650 Y48.571
G1 Z-1.732
G1 X120.650 Y43.371
G1 X121.920 Y42.633
G1 X121.920 Y49.309
G1 X123.190 Y49.482
G1 X123.190 Y42.464
G1 X124.460 Y42.773
G1 X124.460 Y49.481
G1 X125.730 Y49.478
G1 X125.730 Y43.750
G0 Z6.350
M5
M2 
